methodName,frequency,energy,power,counter1,counter2,counterRate,counterRateByTime,time
org.sunflow.core.renderer.BucketRenderer.renderBucket,2601000,11.24157548028259,0.1379717841031851,1.496497859340145E7,1.2273049271199477E9,0.0014352875066237633,2548.9224080132794,651.8358138084047
org.sunflow.core.renderer.BucketRenderer.renderBucket,2400000,10.603390680473055,0.25552360729326073,1.2532439437311085E7,1.2952766482660007E9,8.842304308509447E-4,1411.2953695848357,849.1629854521857
org.sunflow.core.renderer.BucketRenderer.renderBucket,2200000,11.147442223331185,0.05993240377724463,1.4933698211942153E7,1.3783528282806985E9,0.0013638447503206202,1916.2142232060814,982.0686460781427
org.sunflow.core.renderer.BucketRenderer.renderBucket,2000000,9.97231072569277,0.057339509692851585,1.3900585123431193E7,1.2421556083371902E9,0.0010570472773096917,1351.5419176124826,969.700141440459
org.sunflow.core.renderer.BucketRenderer.renderBucket,1800000,11.306939430978456,0.09862994672694095,1.4485950776458556E7,1.4079915226427023E9,0.0013999104010391883,1667.7489938184929,1212.9789316402093
org.sunflow.core.renderer.BucketRenderer.renderBucket,1600000,10.268616968975286,0.08941668093919702,1.314533179313015E7,1.2342460375852656E9,0.001505654125113345,1601.7644399456024,1210.238377269184
org.sunflow.core.renderer.BucketRenderer.renderBucket,1400000,11.129842692951605,0.08385701206828719,1.3239736553419232E7,1.258430704173145E9,0.0014612944833850533,1323.883192630827,1400.4837992905407
org.sunflow.core.renderer.BucketRenderer.renderBucket,1200000,12.617825562310056,0.07419057763704971,1.4043089081075786E7,1.3007924473729577E9,0.001567913517790452,1223.0025833560176,1704.3854827182724
org.sunflow.core.renderer.BucketRenderer.access$300,1800000,11.57414071616576,0.10196713148100406,1.4825880975708611E7,1.4412933201946387E9,0.001436734598407088,1710.018308844765,1241.5853235355287
org.sunflow.math.Vector3.normalize,1400000,0.0,0.0,0.0,0.0,0.0,0.0,0.0
