methodName,centroids_ID,PearsonsCorrelation,SpearmansCorrelation
org.sunflow.core.renderer.BucketRenderer.renderBucket,centroid0,0.596,0.571
org.sunflow.core.renderer.BucketRenderer.renderBucket,centroid1,-0.667,-0.250
org.sunflow.core.renderer.BucketRenderer.access$300,centroid0,0.000,0.000
