methodName,centroids_ID,PearsonsCorrelation,SpearmansCorrelation
org.sunflow.core.renderer.BucketRenderer.renderBucket,centroid0,-0.794,-0.500
org.sunflow.core.renderer.BucketRenderer.renderBucket,centroid1,0.303,0.464
