methodName,centroids_ID,PearsonsCorrelation,SpearmansCorrelation
org.sunflow.core.renderer.BucketRenderer.renderBucket,centroid0,-0.874,-0.500
org.sunflow.core.renderer.BucketRenderer.renderBucket,centroid1,-0.809,-0.571
org.sunflow.core.renderer.BucketRenderer.access$300,centroid0,0.000,0.000
