methodName,centroids_ID,PearsonsCorrelation,SpearmansCorrelation
org.sunflow.core.renderer.BucketRenderer.renderBucket,centroid0,-0.179,0.143
org.sunflow.core.renderer.BucketRenderer.renderBucket,centroid1,0.767,0.857
