methodName,centroids_ID,PearsonsCorrelation,SpearmansCorrelation
org.sunflow.core.renderer.BucketRenderer.renderBucket,centroid0,0.156,0.257
org.sunflow.core.renderer.BucketRenderer.renderBucket,centroid1,-0.752,-1.000
