methodName,centroids_ID,PearsonsCorrelation,SpearmansCorrelation
org.sunflow.core.renderer.BucketRenderer.renderBucket,centroid0,0.140,0.643
org.sunflow.core.renderer.BucketRenderer.renderBucket,centroid1,0.593,0.214
