methodName,centroids_ID,PearsonsCorrelation,SpearmansCorrelation
org.sunflow.core.renderer.BucketRenderer.renderBucket,centroid0,-0.162,0.571
org.sunflow.core.renderer.BucketRenderer.renderBucket,centroid1,0.249,0.143
