methodName,centroids_ID,PearsonsCorrelation,SpearmansCorrelation
org.sunflow.core.renderer.BucketRenderer.renderBucket,centroid0,-0.657,-0.429
org.sunflow.core.renderer.BucketRenderer.renderBucket,centroid1,0.841,0.500
