methodName,centroids_ID,PearsonsCorrelation,SpearmansCorrelation
org.sunflow.core.renderer.BucketRenderer.renderBucket,centroid0,-0.344,-0.357
org.sunflow.core.renderer.BucketRenderer.renderBucket,centroid1,0.001,0.036
