methodName,centroids_ID,PearsonsCorrelation,SpearmansCorrelation
org.sunflow.core.renderer.BucketRenderer.renderBucket,centroid0,-0.441,-0.286
org.sunflow.core.renderer.BucketRenderer.renderBucket,centroid1,0.312,0.000
