%!PS-Adobe-3.0 EPSF-3.0
%%Title: /home/kenan/working/mathCalculator/data/sunflow/fig/energy_energy_counter1_cpu-cycles.eps
%%Creator: matplotlib version 2.0.0, http://matplotlib.org/
%%CreationDate: Fri Mar 31 12:29:54 2017
%%Orientation: portrait
%%BoundingBox: 75 223 536 568
%%EndComments
%%BeginProlog
/mpldict 8 dict def
mpldict begin
/m { moveto } bind def
/l { lineto } bind def
/r { rlineto } bind def
/c { curveto } bind def
/cl { closepath } bind def
/box {
m
1 index 0 r
0 exch r
neg 0 r
cl
} bind def
/clipbox {
box
clip
newpath
} bind def
%!PS-Adobe-3.0 Resource-Font
%%Title: DejaVu Sans
%%Copyright: Copyright (c) 2003 by Bitstream, Inc. All Rights Reserved. Copyright (c) 2006 by Tavmjong Bah. All Rights Reserved. DejaVu changes are in public domain 
%%Creator: Converted from TrueType to type 3 by PPR
25 dict begin
/_d{bind def}bind def
/_m{moveto}_d
/_l{lineto}_d
/_cl{closepath eofill}_d
/_c{curveto}_d
/_sc{7 -1 roll{setcachedevice}{pop pop pop pop pop pop}ifelse}_d
/_e{exec}_d
/FontName /DejaVuSans def
/PaintType 0 def
/FontMatrix[.001 0 0 .001 0 0]def
/FontBBox[-1021 -463 1793 1232]def
/FontType 3 def
/Encoding [ /hyphen /period /zero /one /two /three /four /five /six /seven /eight /C /underscore /c /e /f /g /l /n /o /p /q /r /s /t /u /y ] def
/FontInfo 10 dict dup begin
/FamilyName (DejaVu Sans) def
/FullName (DejaVu Sans) def
/Notice (Copyright (c) 2003 by Bitstream, Inc. All Rights Reserved. Copyright (c) 2006 by Tavmjong Bah. All Rights Reserved. DejaVu changes are in public domain ) def
/Weight (Book) def
/Version (Version 2.35) def
/ItalicAngle 0.0 def
/isFixedPitch false def
/UnderlinePosition -130 def
/UnderlineThickness 90 def
end readonly def
/CharStrings 27 dict dup begin
/hyphen{361 0 49 234 312 314 _sc
49 314 _m
312 314 _l
312 234 _l
49 234 _l
49 314 _l
_cl}_d
/period{318 0 107 0 210 124 _sc
107 124 _m
210 124 _l
210 0 _l
107 0 _l
107 124 _l
_cl}_d
/zero{636 0 66 -13 570 742 _sc
318 664 _m
267 664 229 639 203 589 _c
177 539 165 464 165 364 _c
165 264 177 189 203 139 _c
229 89 267 64 318 64 _c
369 64 407 89 433 139 _c
458 189 471 264 471 364 _c
471 464 458 539 433 589 _c
407 639 369 664 318 664 _c
318 742 _m
399 742 461 709 505 645 _c
548 580 570 486 570 364 _c
570 241 548 147 505 83 _c
461 19 399 -13 318 -13 _c
236 -13 173 19 130 83 _c
87 147 66 241 66 364 _c
66 486 87 580 130 645 _c
173 709 236 742 318 742 _c
_cl}_d
/one{636 0 110 0 544 729 _sc
124 83 _m
285 83 _l
285 639 _l
110 604 _l
110 694 _l
284 729 _l
383 729 _l
383 83 _l
544 83 _l
544 0 _l
124 0 _l
124 83 _l
_cl}_d
/two{{636 0 73 0 536 742 _sc
192 83 _m
536 83 _l
536 0 _l
73 0 _l
73 83 _l
110 121 161 173 226 239 _c
290 304 331 346 348 365 _c
380 400 402 430 414 455 _c
426 479 433 504 433 528 _c
433 566 419 598 392 622 _c
365 646 330 659 286 659 _c
255 659 222 653 188 643 _c
154 632 117 616 78 594 _c
78 694 _l
118 710 155 722 189 730 _c
223 738 255 742 284 742 _c
}_e{359 742 419 723 464 685 _c
509 647 532 597 532 534 _c
532 504 526 475 515 449 _c
504 422 484 390 454 354 _c
446 344 420 317 376 272 _c
332 227 271 164 192 83 _c
_cl}_e}_d
/three{{636 0 76 -13 556 742 _sc
406 393 _m
453 383 490 362 516 330 _c
542 298 556 258 556 212 _c
556 140 531 84 482 45 _c
432 6 362 -13 271 -13 _c
240 -13 208 -10 176 -4 _c
144 1 110 10 76 22 _c
76 117 _l
103 101 133 89 166 81 _c
198 73 232 69 268 69 _c
330 69 377 81 409 105 _c
441 129 458 165 458 212 _c
458 254 443 288 413 312 _c
383 336 341 349 287 349 _c
}_e{202 349 _l
202 430 _l
291 430 _l
339 430 376 439 402 459 _c
428 478 441 506 441 543 _c
441 580 427 609 401 629 _c
374 649 336 659 287 659 _c
260 659 231 656 200 650 _c
169 644 135 635 98 623 _c
98 711 _l
135 721 170 729 203 734 _c
235 739 266 742 296 742 _c
370 742 429 725 473 691 _c
517 657 539 611 539 553 _c
539 513 527 479 504 451 _c
481 423 448 403 406 393 _c
_cl}_e}_d
/four{636 0 49 0 580 729 _sc
378 643 _m
129 254 _l
378 254 _l
378 643 _l
352 729 _m
476 729 _l
476 254 _l
580 254 _l
580 172 _l
476 172 _l
476 0 _l
378 0 _l
378 172 _l
49 172 _l
49 267 _l
352 729 _l
_cl}_d
/five{{636 0 77 -13 549 729 _sc
108 729 _m
495 729 _l
495 646 _l
198 646 _l
198 467 _l
212 472 227 476 241 478 _c
255 480 270 482 284 482 _c
365 482 429 459 477 415 _c
525 370 549 310 549 234 _c
549 155 524 94 475 51 _c
426 8 357 -13 269 -13 _c
238 -13 207 -10 175 -6 _c
143 -1 111 6 77 17 _c
77 116 _l
106 100 136 88 168 80 _c
199 72 232 69 267 69 _c
}_e{323 69 368 83 401 113 _c
433 143 450 183 450 234 _c
450 284 433 324 401 354 _c
368 384 323 399 267 399 _c
241 399 214 396 188 390 _c
162 384 135 375 108 363 _c
108 729 _l
_cl}_e}_d
/six{{636 0 70 -13 573 742 _sc
330 404 _m
286 404 251 388 225 358 _c
199 328 186 286 186 234 _c
186 181 199 139 225 109 _c
251 79 286 64 330 64 _c
374 64 409 79 435 109 _c
461 139 474 181 474 234 _c
474 286 461 328 435 358 _c
409 388 374 404 330 404 _c
526 713 _m
526 623 _l
501 635 476 644 451 650 _c
425 656 400 659 376 659 _c
310 659 260 637 226 593 _c
}_e{192 549 172 482 168 394 _c
187 422 211 444 240 459 _c
269 474 301 482 336 482 _c
409 482 467 459 509 415 _c
551 371 573 310 573 234 _c
573 159 550 99 506 54 _c
462 9 403 -13 330 -13 _c
246 -13 181 19 137 83 _c
92 147 70 241 70 364 _c
70 479 97 571 152 639 _c
206 707 280 742 372 742 _c
396 742 421 739 447 735 _c
472 730 498 723 526 713 _c
_cl}_e}_d
/seven{636 0 82 0 551 729 _sc
82 729 _m
551 729 _l
551 687 _l
286 0 _l
183 0 _l
432 646 _l
82 646 _l
82 729 _l
_cl}_d
/eight{{636 0 68 -13 568 742 _sc
318 346 _m
271 346 234 333 207 308 _c
180 283 167 249 167 205 _c
167 161 180 126 207 101 _c
234 76 271 64 318 64 _c
364 64 401 76 428 102 _c
455 127 469 161 469 205 _c
469 249 455 283 429 308 _c
402 333 365 346 318 346 _c
219 388 _m
177 398 144 418 120 447 _c
96 476 85 511 85 553 _c
85 611 105 657 147 691 _c
188 725 245 742 318 742 _c
}_e{390 742 447 725 489 691 _c
530 657 551 611 551 553 _c
551 511 539 476 515 447 _c
491 418 459 398 417 388 _c
464 377 501 355 528 323 _c
554 291 568 251 568 205 _c
568 134 546 80 503 43 _c
459 5 398 -13 318 -13 _c
237 -13 175 5 132 43 _c
89 80 68 134 68 205 _c
68 251 81 291 108 323 _c
134 355 171 377 219 388 _c
183 544 _m
183 506 194 476 218 455 _c
}_e{242 434 275 424 318 424 _c
360 424 393 434 417 455 _c
441 476 453 506 453 544 _c
453 582 441 611 417 632 _c
393 653 360 664 318 664 _c
275 664 242 653 218 632 _c
194 611 183 582 183 544 _c
_cl}_e}_d
/C{{698 0 56 -13 644 742 _sc
644 673 _m
644 569 _l
610 599 575 622 537 638 _c
499 653 460 661 418 661 _c
334 661 270 635 226 584 _c
182 533 160 460 160 364 _c
160 268 182 194 226 143 _c
270 92 334 67 418 67 _c
460 67 499 74 537 90 _c
575 105 610 128 644 159 _c
644 56 _l
609 32 572 15 534 4 _c
496 -7 455 -13 412 -13 _c
302 -13 215 20 151 87 _c
}_e{87 154 56 246 56 364 _c
56 481 87 573 151 641 _c
215 708 302 742 412 742 _c
456 742 497 736 535 725 _c
573 713 610 696 644 673 _c
_cl}_e}_d
/underscore{500 0 -9 -235 510 -165 _sc
510 -165 _m
510 -235 _l
-9 -235 _l
-9 -165 _l
510 -165 _l
_cl}_d
/c{{550 0 55 -13 488 560 _sc
488 526 _m
488 442 _l
462 456 437 466 411 473 _c
385 480 360 484 334 484 _c
276 484 230 465 198 428 _c
166 391 150 339 150 273 _c
150 206 166 154 198 117 _c
230 80 276 62 334 62 _c
360 62 385 65 411 72 _c
437 79 462 90 488 104 _c
488 21 _l
462 9 436 0 410 -5 _c
383 -10 354 -13 324 -13 _c
242 -13 176 12 128 64 _c
}_e{79 115 55 185 55 273 _c
55 362 79 432 128 483 _c
177 534 244 560 330 560 _c
358 560 385 557 411 551 _c
437 545 463 537 488 526 _c
_cl}_e}_d
/e{{615 0 55 -13 562 560 _sc
562 296 _m
562 252 _l
149 252 _l
153 190 171 142 205 110 _c
238 78 284 62 344 62 _c
378 62 412 66 444 74 _c
476 82 509 95 541 113 _c
541 28 _l
509 14 476 3 442 -3 _c
408 -9 373 -13 339 -13 _c
251 -13 182 12 131 62 _c
80 112 55 181 55 268 _c
55 357 79 428 127 481 _c
175 533 241 560 323 560 _c
397 560 455 536 498 489 _c
}_e{540 441 562 377 562 296 _c
472 322 _m
471 371 457 410 431 440 _c
404 469 368 484 324 484 _c
274 484 234 469 204 441 _c
174 413 156 373 152 322 _c
472 322 _l
_cl}_e}_d
/f{352 0 23 0 371 760 _sc
371 760 _m
371 685 _l
285 685 _l
253 685 230 678 218 665 _c
205 652 199 629 199 595 _c
199 547 _l
347 547 _l
347 477 _l
199 477 _l
199 0 _l
109 0 _l
109 477 _l
23 477 _l
23 547 _l
109 547 _l
109 585 _l
109 645 123 690 151 718 _c
179 746 224 760 286 760 _c
371 760 _l
_cl}_d
/g{{635 0 55 -207 544 560 _sc
454 280 _m
454 344 440 395 414 431 _c
387 467 349 485 301 485 _c
253 485 215 467 188 431 _c
161 395 148 344 148 280 _c
148 215 161 165 188 129 _c
215 93 253 75 301 75 _c
349 75 387 93 414 129 _c
440 165 454 215 454 280 _c
544 68 _m
544 -24 523 -93 482 -139 _c
440 -184 377 -207 292 -207 _c
260 -207 231 -204 203 -200 _c
175 -195 147 -188 121 -178 _c
}_e{121 -91 _l
147 -105 173 -115 199 -122 _c
225 -129 251 -133 278 -133 _c
336 -133 380 -117 410 -87 _c
439 -56 454 -10 454 52 _c
454 96 _l
435 64 411 40 382 24 _c
353 8 319 0 279 0 _c
211 0 157 25 116 76 _c
75 127 55 195 55 280 _c
55 364 75 432 116 483 _c
157 534 211 560 279 560 _c
319 560 353 552 382 536 _c
411 520 435 496 454 464 _c
454 547 _l
544 547 _l
}_e{544 68 _l
_cl}_e}_d
/l{278 0 94 0 184 760 _sc
94 760 _m
184 760 _l
184 0 _l
94 0 _l
94 760 _l
_cl}_d
/n{634 0 91 0 549 560 _sc
549 330 _m
549 0 _l
459 0 _l
459 327 _l
459 379 448 417 428 443 _c
408 469 378 482 338 482 _c
289 482 251 466 223 435 _c
195 404 181 362 181 309 _c
181 0 _l
91 0 _l
91 547 _l
181 547 _l
181 462 _l
202 494 227 519 257 535 _c
286 551 320 560 358 560 _c
420 560 468 540 500 501 _c
532 462 549 405 549 330 _c
_cl}_d
/o{612 0 55 -13 557 560 _sc
306 484 _m
258 484 220 465 192 427 _c
164 389 150 338 150 273 _c
150 207 163 156 191 118 _c
219 80 257 62 306 62 _c
354 62 392 80 420 118 _c
448 156 462 207 462 273 _c
462 337 448 389 420 427 _c
392 465 354 484 306 484 _c
306 560 _m
384 560 445 534 490 484 _c
534 433 557 363 557 273 _c
557 183 534 113 490 63 _c
445 12 384 -13 306 -13 _c
227 -13 165 12 121 63 _c
77 113 55 183 55 273 _c
55 363 77 433 121 484 _c
165 534 227 560 306 560 _c
_cl}_d
/p{{635 0 91 -207 580 560 _sc
181 82 _m
181 -207 _l
91 -207 _l
91 547 _l
181 547 _l
181 464 _l
199 496 223 520 252 536 _c
281 552 316 560 356 560 _c
422 560 476 533 518 481 _c
559 428 580 359 580 273 _c
580 187 559 117 518 65 _c
476 13 422 -13 356 -13 _c
316 -13 281 -5 252 10 _c
223 25 199 49 181 82 _c
487 273 _m
487 339 473 390 446 428 _c
418 466 381 485 334 485 _c
}_e{286 485 249 466 222 428 _c
194 390 181 339 181 273 _c
181 207 194 155 222 117 _c
249 79 286 61 334 61 _c
381 61 418 79 446 117 _c
473 155 487 207 487 273 _c
_cl}_e}_d
/q{{635 0 55 -207 544 560 _sc
148 273 _m
148 207 161 155 188 117 _c
215 79 253 61 301 61 _c
348 61 385 79 413 117 _c
440 155 454 207 454 273 _c
454 339 440 390 413 428 _c
385 466 348 485 301 485 _c
253 485 215 466 188 428 _c
161 390 148 339 148 273 _c
454 82 _m
435 49 411 25 382 10 _c
353 -5 319 -13 279 -13 _c
213 -13 159 13 117 65 _c
75 117 55 187 55 273 _c
}_e{55 359 75 428 117 481 _c
159 533 213 560 279 560 _c
319 560 353 552 382 536 _c
411 520 435 496 454 464 _c
454 547 _l
544 547 _l
544 -207 _l
454 -207 _l
454 82 _l
_cl}_e}_d
/r{411 0 91 0 411 560 _sc
411 463 _m
401 469 390 473 378 476 _c
366 478 353 480 339 480 _c
288 480 249 463 222 430 _c
194 397 181 350 181 288 _c
181 0 _l
91 0 _l
91 547 _l
181 547 _l
181 462 _l
199 495 224 520 254 536 _c
284 552 321 560 365 560 _c
371 560 378 559 386 559 _c
393 558 401 557 411 555 _c
411 463 _l
_cl}_d
/s{{521 0 54 -13 472 560 _sc
443 531 _m
443 446 _l
417 458 391 468 364 475 _c
336 481 308 485 279 485 _c
234 485 200 478 178 464 _c
156 450 145 430 145 403 _c
145 382 153 366 169 354 _c
185 342 217 330 265 320 _c
296 313 _l
360 299 405 279 432 255 _c
458 230 472 195 472 151 _c
472 100 452 60 412 31 _c
372 1 316 -13 246 -13 _c
216 -13 186 -10 154 -5 _c
}_e{122 0 89 8 54 20 _c
54 113 _l
87 95 120 82 152 74 _c
184 65 216 61 248 61 _c
290 61 323 68 346 82 _c
368 96 380 117 380 144 _c
380 168 371 187 355 200 _c
339 213 303 226 247 238 _c
216 245 _l
160 257 119 275 95 299 _c
70 323 58 356 58 399 _c
58 450 76 490 112 518 _c
148 546 200 560 268 560 _c
301 560 332 557 362 552 _c
391 547 418 540 443 531 _c
}_e{_cl}_e}_d
/t{392 0 27 0 368 702 _sc
183 702 _m
183 547 _l
368 547 _l
368 477 _l
183 477 _l
183 180 _l
183 135 189 106 201 94 _c
213 81 238 75 276 75 _c
368 75 _l
368 0 _l
276 0 _l
206 0 158 13 132 39 _c
106 65 93 112 93 180 _c
93 477 _l
27 477 _l
27 547 _l
93 547 _l
93 702 _l
183 702 _l
_cl}_d
/u{634 0 85 -13 543 560 _sc
85 216 _m
85 547 _l
175 547 _l
175 219 _l
175 167 185 129 205 103 _c
225 77 255 64 296 64 _c
344 64 383 79 411 110 _c
439 141 453 183 453 237 _c
453 547 _l
543 547 _l
543 0 _l
453 0 _l
453 84 _l
431 50 405 26 377 10 _c
348 -5 315 -13 277 -13 _c
214 -13 166 6 134 45 _c
101 83 85 140 85 216 _c
311 560 _m
311 560 _l
_cl}_d
/y{592 0 30 -207 562 547 _sc
322 -50 _m
296 -114 271 -157 247 -177 _c
223 -197 191 -207 151 -207 _c
79 -207 _l
79 -132 _l
132 -132 _l
156 -132 175 -126 189 -114 _c
203 -102 218 -75 235 -31 _c
251 9 _l
30 547 _l
125 547 _l
296 119 _l
467 547 _l
562 547 _l
322 -50 _l
_cl}_d
end readonly def

/BuildGlyph
 {exch begin
 CharStrings exch
 2 copy known not{pop /.notdef}if
 true 3 1 roll get exec
 end}_d

/BuildChar {
 1 index /Encoding get exch get
 1 index /BuildGlyph get exec
}_d

FontName currentdict end definefont pop
end
%%EndProlog
mpldict begin
75.6 223.2 translate
460.8 345.6 0 0 clipbox
gsave
0 0 m
460.8 0 l
460.8 345.6 l
0 345.6 l
cl
1.000 setgray
fill
grestore
gsave
40.32 195.264 m
308.16 195.264 l
308.16 304.128 l
40.32 304.128 l
cl
1.000 setgray
fill
grestore
0.800 setlinewidth
1 setlinejoin
0 setlinecap
[] 0 setdash
0.000 setgray
gsave
/o {
gsave
newpath
translate
0.8 setlinewidth
1 setlinejoin
0 setlinecap
0 0 m
0 -3.5 l

gsave
0.000 setgray
fill
grestore
stroke
grestore
} bind def
308.16 195.264 o
grestore
gsave
/o {
gsave
newpath
translate
0.8 setlinewidth
1 setlinejoin
0 setlinecap
0 0 m
0 -3.5 l

gsave
0.000 setgray
fill
grestore
stroke
grestore
} bind def
269.924 195.264 o
grestore
gsave
/o {
gsave
newpath
translate
0.8 setlinewidth
1 setlinejoin
0 setlinecap
0 0 m
0 -3.5 l

gsave
0.000 setgray
fill
grestore
stroke
grestore
} bind def
231.689 195.264 o
grestore
gsave
/o {
gsave
newpath
translate
0.8 setlinewidth
1 setlinejoin
0 setlinecap
0 0 m
0 -3.5 l

gsave
0.000 setgray
fill
grestore
stroke
grestore
} bind def
193.453 195.264 o
grestore
gsave
/o {
gsave
newpath
translate
0.8 setlinewidth
1 setlinejoin
0 setlinecap
0 0 m
0 -3.5 l

gsave
0.000 setgray
fill
grestore
stroke
grestore
} bind def
155.218 195.264 o
grestore
gsave
/o {
gsave
newpath
translate
0.8 setlinewidth
1 setlinejoin
0 setlinecap
0 0 m
0 -3.5 l

gsave
0.000 setgray
fill
grestore
stroke
grestore
} bind def
116.982 195.264 o
grestore
gsave
/o {
gsave
newpath
translate
0.8 setlinewidth
1 setlinejoin
0 setlinecap
0 0 m
0 -3.5 l

gsave
0.000 setgray
fill
grestore
stroke
grestore
} bind def
78.7467 195.264 o
grestore
gsave
/o {
gsave
newpath
translate
0.8 setlinewidth
1 setlinejoin
0 setlinecap
0 0 m
0 -3.5 l

gsave
0.000 setgray
fill
grestore
stroke
grestore
} bind def
40.5112 195.264 o
grestore
0.600 setlinewidth
gsave
/o {
gsave
newpath
translate
0.6 setlinewidth
1 setlinejoin
0 setlinecap
0 0 m
0 -2 l

gsave
0.000 setgray
fill
grestore
stroke
grestore
} bind def
308.16 195.264 o
grestore
gsave
/o {
gsave
newpath
translate
0.6 setlinewidth
1 setlinejoin
0 setlinecap
0 0 m
0 -2 l

gsave
0.000 setgray
fill
grestore
stroke
grestore
} bind def
269.924 195.264 o
grestore
gsave
/o {
gsave
newpath
translate
0.6 setlinewidth
1 setlinejoin
0 setlinecap
0 0 m
0 -2 l

gsave
0.000 setgray
fill
grestore
stroke
grestore
} bind def
231.689 195.264 o
grestore
gsave
/o {
gsave
newpath
translate
0.6 setlinewidth
1 setlinejoin
0 setlinecap
0 0 m
0 -2 l

gsave
0.000 setgray
fill
grestore
stroke
grestore
} bind def
193.453 195.264 o
grestore
gsave
/o {
gsave
newpath
translate
0.6 setlinewidth
1 setlinejoin
0 setlinecap
0 0 m
0 -2 l

gsave
0.000 setgray
fill
grestore
stroke
grestore
} bind def
155.218 195.264 o
grestore
gsave
/o {
gsave
newpath
translate
0.6 setlinewidth
1 setlinejoin
0 setlinecap
0 0 m
0 -2 l

gsave
0.000 setgray
fill
grestore
stroke
grestore
} bind def
116.982 195.264 o
grestore
gsave
/o {
gsave
newpath
translate
0.6 setlinewidth
1 setlinejoin
0 setlinecap
0 0 m
0 -2 l

gsave
0.000 setgray
fill
grestore
stroke
grestore
} bind def
78.7467 195.264 o
grestore
gsave
/o {
gsave
newpath
translate
0.6 setlinewidth
1 setlinejoin
0 setlinecap
0 0 m
0 -2 l

gsave
0.000 setgray
fill
grestore
stroke
grestore
} bind def
40.5112 195.264 o
grestore
0.800 setlinewidth
gsave
/o {
gsave
newpath
translate
0.8 setlinewidth
1 setlinejoin
0 setlinecap
0 0 m
-3.5 0 l

gsave
0.000 setgray
fill
grestore
stroke
grestore
} bind def
40.32 196.826 o
grestore
/DejaVuSans findfont
10.000 scalefont
setfont
gsave
26.960625 193.029218 translate
0.000000 rotate
0.000000 0.000000 m /zero glyphshow
grestore
gsave
/o {
gsave
newpath
translate
0.8 setlinewidth
1 setlinejoin
0 setlinecap
0 0 m
-3.5 0 l

gsave
0.000 setgray
fill
grestore
stroke
grestore
} bind def
40.32 226.692 o
grestore
gsave
20.601250 222.895269 translate
0.000000 rotate
0.000000 0.000000 m /two glyphshow
6.362305 0.000000 m /zero glyphshow
grestore
gsave
/o {
gsave
newpath
translate
0.8 setlinewidth
1 setlinejoin
0 setlinecap
0 0 m
-3.5 0 l

gsave
0.000 setgray
fill
grestore
stroke
grestore
} bind def
40.32 256.558 o
grestore
gsave
20.601250 252.761320 translate
0.000000 rotate
0.000000 0.000000 m /four glyphshow
6.362305 0.000000 m /zero glyphshow
grestore
gsave
/o {
gsave
newpath
translate
0.8 setlinewidth
1 setlinejoin
0 setlinecap
0 0 m
-3.5 0 l

gsave
0.000 setgray
fill
grestore
stroke
grestore
} bind def
40.32 286.424 o
grestore
gsave
20.601250 282.627371 translate
0.000000 rotate
0.000000 0.000000 m /six glyphshow
6.362305 0.000000 m /zero glyphshow
grestore
gsave
14.523125 232.180375 translate
90.000000 rotate
0.000000 0.000000 m /e glyphshow
6.152344 0.000000 m /n glyphshow
12.490234 0.000000 m /e glyphshow
18.642578 0.000000 m /r glyphshow
22.753906 0.000000 m /g glyphshow
29.101562 0.000000 m /y glyphshow
grestore
1.500 setlinewidth
2 setlinecap
0.122 0.467 0.706 setrgbcolor
gsave
267.8 108.9 40.32 195.3 clipbox
40.32 203.89832 m
78.746724 203.949625 l
116.98227 200.212364 l
155.217816 203.041366 l
193.453362 202.461438 l
231.688908 202.801719 l
269.924454 202.722096 l
308.16 204.028798 l
stroke
grestore
1.000 0.498 0.055 setrgbcolor
gsave
267.8 108.9 40.32 195.3 clipbox
40.32 205.403268 m
78.746724 209.212419 l
116.98227 202.988058 l
155.217816 206.75574 l
193.453362 206.92048 l
231.688908 208.589597 l
269.924454 204.314951 l
308.16 209.423321 l
stroke
grestore
0.173 0.627 0.173 setrgbcolor
gsave
267.8 108.9 40.32 195.3 clipbox
40.32 207.654108 m
78.746724 214.890906 l
116.98227 205.100871 l
155.217816 210.664001 l
193.453362 212.994607 l
231.688908 215.347084 l
269.924454 208.603026 l
308.16 214.65171 l
stroke
grestore
0.839 0.153 0.157 setrgbcolor
gsave
267.8 108.9 40.32 195.3 clipbox
40.32 214.02659 m
78.746724 220.318973 l
116.98227 208.861162 l
155.217816 215.199757 l
193.453362 220.060775 l
231.688908 220.493788 l
269.924454 216.511203 l
308.16 221.851423 l
stroke
grestore
0.580 0.404 0.741 setrgbcolor
gsave
267.8 108.9 40.32 195.3 clipbox
40.32 231.326415 m
78.746724 229.966105 l
116.98227 216.280577 l
155.217816 221.937495 l
193.453362 225.999722 l
231.688908 227.065848 l
269.924454 225.318117 l
308.16 229.434764 l
stroke
grestore
0.549 0.337 0.294 setrgbcolor
gsave
267.8 108.9 40.32 195.3 clipbox
40.32 242.05464 m
78.746724 239.088287 l
116.98227 225.315 l
155.217816 228.637149 l
193.453362 232.095996 l
231.688908 238.367953 l
269.924454 235.123829 l
308.16 238.643009 l
stroke
grestore
0.890 0.467 0.761 setrgbcolor
gsave
267.8 108.9 40.32 195.3 clipbox
40.32 250.497395 m
78.746724 251.810667 l
116.98227 233.306033 l
155.217816 237.269324 l
193.453362 238.948786 l
231.688908 246.441447 l
269.924454 249.210632 l
308.16 252.330142 l
stroke
grestore
0.498 setgray
gsave
267.8 108.9 40.32 195.3 clipbox
40.32 259.54611 m
78.746724 257.045999 l
116.98227 241.538451 l
155.217816 247.864198 l
193.453362 245.031192 l
231.688908 257.581474 l
269.924454 264.803951 l
308.16 269.704764 l
stroke
grestore
0.737 0.741 0.133 setrgbcolor
gsave
267.8 108.9 40.32 195.3 clipbox
40.32 264.753995 m
78.746724 260.594619 l
116.98227 252.722822 l
155.217816 258.705037 l
193.453362 255.192047 l
231.688908 281.601706 l
269.924454 287.70156 l
308.16 299.179636 l
stroke
grestore
0.800 setlinewidth
0 setlinejoin
[] 0 setdash
0.000 setgray
gsave
40.32 195.264 m
40.32 304.128 l
stroke
grestore
gsave
308.16 195.264 m
308.16 304.128 l
stroke
grestore
gsave
40.32 195.264 m
308.16 195.264 l
stroke
grestore
gsave
40.32 304.128 m
308.16 304.128 l
stroke
grestore
/DejaVuSans findfont
12.000 scalefont
setfont
gsave
64.552500 310.128000 translate
0.000000 rotate
0.000000 0.000000 m /e glyphshow
7.382812 0.000000 m /n glyphshow
14.988281 0.000000 m /e glyphshow
22.371094 0.000000 m /r glyphshow
27.304688 0.000000 m /g glyphshow
34.921875 0.000000 m /y glyphshow
42.023438 0.000000 m /underscore glyphshow
48.023438 0.000000 m /e glyphshow
55.406250 0.000000 m /n glyphshow
63.011719 0.000000 m /e glyphshow
70.394531 0.000000 m /r glyphshow
75.328125 0.000000 m /g glyphshow
82.945312 0.000000 m /y glyphshow
90.046875 0.000000 m /underscore glyphshow
96.046875 0.000000 m /c glyphshow
102.644531 0.000000 m /o glyphshow
109.986328 0.000000 m /u glyphshow
117.591797 0.000000 m /n glyphshow
125.197266 0.000000 m /t glyphshow
129.902344 0.000000 m /e glyphshow
137.285156 0.000000 m /r glyphshow
142.218750 0.000000 m /one glyphshow
149.853516 0.000000 m /underscore glyphshow
155.853516 0.000000 m /c glyphshow
162.451172 0.000000 m /p glyphshow
170.068359 0.000000 m /u glyphshow
177.673828 0.000000 m /hyphen glyphshow
182.003906 0.000000 m /c glyphshow
188.601562 0.000000 m /y glyphshow
195.703125 0.000000 m /c glyphshow
202.300781 0.000000 m /l glyphshow
205.634766 0.000000 m /e glyphshow
213.017578 0.000000 m /s glyphshow
grestore
gsave
40.32 50.112 m
308.16 50.112 l
308.16 158.976 l
40.32 158.976 l
cl
1.000 setgray
fill
grestore
1 setlinejoin
0 setlinecap
[] 0 setdash
gsave
/o {
gsave
newpath
translate
0.8 setlinewidth
1 setlinejoin
0 setlinecap
0 0 m
0 -3.5 l

gsave
0.000 setgray
fill
grestore
stroke
grestore
} bind def
308.16 50.112 o
grestore
/DejaVuSans findfont
10.000 scalefont
setfont
gsave
300.206875 35.518250 translate
0.000000 rotate
0.000000 0.000000 m /one glyphshow
6.362305 0.000000 m /period glyphshow
9.541016 0.000000 m /two glyphshow
grestore
gsave
/o {
gsave
newpath
translate
0.8 setlinewidth
1 setlinejoin
0 setlinecap
0 0 m
0 -3.5 l

gsave
0.000 setgray
fill
grestore
stroke
grestore
} bind def
269.924 50.112 o
grestore
gsave
261.971329 35.518250 translate
0.000000 rotate
0.000000 0.000000 m /one glyphshow
6.362305 0.000000 m /period glyphshow
9.541016 0.000000 m /four glyphshow
grestore
gsave
/o {
gsave
newpath
translate
0.8 setlinewidth
1 setlinejoin
0 setlinecap
0 0 m
0 -3.5 l

gsave
0.000 setgray
fill
grestore
stroke
grestore
} bind def
231.689 50.112 o
grestore
gsave
223.735783 35.518250 translate
0.000000 rotate
0.000000 0.000000 m /one glyphshow
6.362305 0.000000 m /period glyphshow
9.541016 0.000000 m /six glyphshow
grestore
gsave
/o {
gsave
newpath
translate
0.8 setlinewidth
1 setlinejoin
0 setlinecap
0 0 m
0 -3.5 l

gsave
0.000 setgray
fill
grestore
stroke
grestore
} bind def
193.453 50.112 o
grestore
gsave
185.500237 35.518250 translate
0.000000 rotate
0.000000 0.000000 m /one glyphshow
6.362305 0.000000 m /period glyphshow
9.541016 0.000000 m /eight glyphshow
grestore
gsave
/o {
gsave
newpath
translate
0.8 setlinewidth
1 setlinejoin
0 setlinecap
0 0 m
0 -3.5 l

gsave
0.000 setgray
fill
grestore
stroke
grestore
} bind def
155.218 50.112 o
grestore
gsave
147.264691 35.518250 translate
0.000000 rotate
0.000000 0.000000 m /two glyphshow
6.362305 0.000000 m /period glyphshow
9.541016 0.000000 m /zero glyphshow
grestore
gsave
/o {
gsave
newpath
translate
0.8 setlinewidth
1 setlinejoin
0 setlinecap
0 0 m
0 -3.5 l

gsave
0.000 setgray
fill
grestore
stroke
grestore
} bind def
116.982 50.112 o
grestore
gsave
109.029145 35.518250 translate
0.000000 rotate
0.000000 0.000000 m /two glyphshow
6.362305 0.000000 m /period glyphshow
9.541016 0.000000 m /two glyphshow
grestore
gsave
/o {
gsave
newpath
translate
0.8 setlinewidth
1 setlinejoin
0 setlinecap
0 0 m
0 -3.5 l

gsave
0.000 setgray
fill
grestore
stroke
grestore
} bind def
78.7467 50.112 o
grestore
gsave
70.793599 35.518250 translate
0.000000 rotate
0.000000 0.000000 m /two glyphshow
6.362305 0.000000 m /period glyphshow
9.541016 0.000000 m /four glyphshow
grestore
gsave
/o {
gsave
newpath
translate
0.8 setlinewidth
1 setlinejoin
0 setlinecap
0 0 m
0 -3.5 l

gsave
0.000 setgray
fill
grestore
stroke
grestore
} bind def
40.5112 50.112 o
grestore
gsave
32.558053 35.518250 translate
0.000000 rotate
0.000000 0.000000 m /two glyphshow
6.362305 0.000000 m /period glyphshow
9.541016 0.000000 m /six glyphshow
grestore
0.600 setlinewidth
gsave
/o {
gsave
newpath
translate
0.6 setlinewidth
1 setlinejoin
0 setlinecap
0 0 m
0 -2 l

gsave
0.000 setgray
fill
grestore
stroke
grestore
} bind def
308.16 50.112 o
grestore
gsave
/o {
gsave
newpath
translate
0.6 setlinewidth
1 setlinejoin
0 setlinecap
0 0 m
0 -2 l

gsave
0.000 setgray
fill
grestore
stroke
grestore
} bind def
269.924 50.112 o
grestore
gsave
/o {
gsave
newpath
translate
0.6 setlinewidth
1 setlinejoin
0 setlinecap
0 0 m
0 -2 l

gsave
0.000 setgray
fill
grestore
stroke
grestore
} bind def
231.689 50.112 o
grestore
gsave
/o {
gsave
newpath
translate
0.6 setlinewidth
1 setlinejoin
0 setlinecap
0 0 m
0 -2 l

gsave
0.000 setgray
fill
grestore
stroke
grestore
} bind def
193.453 50.112 o
grestore
gsave
/o {
gsave
newpath
translate
0.6 setlinewidth
1 setlinejoin
0 setlinecap
0 0 m
0 -2 l

gsave
0.000 setgray
fill
grestore
stroke
grestore
} bind def
155.218 50.112 o
grestore
gsave
/o {
gsave
newpath
translate
0.6 setlinewidth
1 setlinejoin
0 setlinecap
0 0 m
0 -2 l

gsave
0.000 setgray
fill
grestore
stroke
grestore
} bind def
116.982 50.112 o
grestore
gsave
/o {
gsave
newpath
translate
0.6 setlinewidth
1 setlinejoin
0 setlinecap
0 0 m
0 -2 l

gsave
0.000 setgray
fill
grestore
stroke
grestore
} bind def
78.7467 50.112 o
grestore
gsave
/o {
gsave
newpath
translate
0.6 setlinewidth
1 setlinejoin
0 setlinecap
0 0 m
0 -2 l

gsave
0.000 setgray
fill
grestore
stroke
grestore
} bind def
40.5112 50.112 o
grestore
gsave
144.185313 21.846375 translate
0.000000 rotate
0.000000 0.000000 m /f glyphshow
3.520508 0.000000 m /r glyphshow
7.631836 0.000000 m /e glyphshow
13.784180 0.000000 m /q glyphshow
20.131836 0.000000 m /C glyphshow
27.114258 0.000000 m /o glyphshow
33.232422 0.000000 m /u glyphshow
39.570312 0.000000 m /n glyphshow
45.908203 0.000000 m /t glyphshow
49.829102 0.000000 m /e glyphshow
55.981445 0.000000 m /r glyphshow
grestore
0.800 setlinewidth
gsave
/o {
gsave
newpath
translate
0.8 setlinewidth
1 setlinejoin
0 setlinecap
0 0 m
-3.5 0 l

gsave
0.000 setgray
fill
grestore
stroke
grestore
} bind def
40.32 51.2714 o
grestore
gsave
26.960625 47.474522 translate
0.000000 rotate
0.000000 0.000000 m /zero glyphshow
grestore
gsave
/o {
gsave
newpath
translate
0.8 setlinewidth
1 setlinejoin
0 setlinecap
0 0 m
-3.5 0 l

gsave
0.000 setgray
fill
grestore
stroke
grestore
} bind def
40.32 76.8187 o
grestore
gsave
26.960625 73.021845 translate
0.000000 rotate
0.000000 0.000000 m /one glyphshow
grestore
gsave
/o {
gsave
newpath
translate
0.8 setlinewidth
1 setlinejoin
0 setlinecap
0 0 m
-3.5 0 l

gsave
0.000 setgray
fill
grestore
stroke
grestore
} bind def
40.32 102.366 o
grestore
gsave
26.960625 98.569167 translate
0.000000 rotate
0.000000 0.000000 m /two glyphshow
grestore
gsave
/o {
gsave
newpath
translate
0.8 setlinewidth
1 setlinejoin
0 setlinecap
0 0 m
-3.5 0 l

gsave
0.000 setgray
fill
grestore
stroke
grestore
} bind def
40.32 127.913 o
grestore
gsave
26.960625 124.116489 translate
0.000000 rotate
0.000000 0.000000 m /three glyphshow
grestore
gsave
/o {
gsave
newpath
translate
0.8 setlinewidth
1 setlinejoin
0 setlinecap
0 0 m
-3.5 0 l

gsave
0.000 setgray
fill
grestore
stroke
grestore
} bind def
40.32 153.461 o
grestore
gsave
26.960625 149.663812 translate
0.000000 rotate
0.000000 0.000000 m /four glyphshow
grestore
gsave
20.882500 82.114312 translate
90.000000 rotate
0.000000 0.000000 m /c glyphshow
5.498047 0.000000 m /o glyphshow
11.616211 0.000000 m /u glyphshow
17.954102 0.000000 m /n glyphshow
24.291992 0.000000 m /t glyphshow
28.212891 0.000000 m /e glyphshow
34.365234 0.000000 m /r glyphshow
38.476562 0.000000 m /one glyphshow
grestore
gsave
40.320000 161.976000 translate
0.000000 rotate
0.000000 0.000000 m /one glyphshow
6.362305 0.000000 m /e glyphshow
12.514648 0.000000 m /one glyphshow
18.876953 0.000000 m /zero glyphshow
grestore
1.500 setlinewidth
2 setlinecap
0.122 0.467 0.706 setrgbcolor
gsave
267.8 108.9 40.32 50.11 clipbox
40.32 58.935354 m
78.746724 59.62653 l
116.98227 55.060364 l
155.217816 58.675608 l
193.453362 57.954815 l
231.688908 58.188135 l
269.924454 57.603612 l
308.16 58.454412 l
stroke
grestore
1.000 0.498 0.055 setrgbcolor
gsave
267.8 108.9 40.32 50.11 clipbox
40.32 60.373208 m
78.746724 65.891223 l
116.98227 58.591196 l
155.217816 63.307537 l
193.453362 63.265122 l
231.688908 64.494178 l
269.924454 59.340532 l
308.16 63.825058 l
stroke
grestore
0.173 0.627 0.173 setrgbcolor
gsave
267.8 108.9 40.32 50.11 clipbox
40.32 62.639596 m
78.746724 72.779298 l
116.98227 60.777323 l
155.217816 67.923174 l
193.453362 70.593231 l
231.688908 72.692126 l
269.924454 63.68656 l
308.16 68.778997 l
stroke
grestore
0.839 0.153 0.157 setrgbcolor
gsave
267.8 108.9 40.32 50.11 clipbox
40.32 69.85968 m
78.746724 78.706393 l
116.98227 65.822291 l
155.217816 73.407916 l
193.453362 78.995563 l
231.688908 78.643042 l
269.924454 72.547103 l
308.16 76.186155 l
stroke
grestore
0.580 0.404 0.741 setrgbcolor
gsave
267.8 108.9 40.32 50.11 clipbox
40.32 88.652614 m
78.746724 90.533586 l
116.98227 74.494027 l
155.217816 81.133474 l
193.453362 86.140358 l
231.688908 86.493535 l
269.924454 81.984405 l
308.16 83.672558 l
stroke
grestore
0.549 0.337 0.294 setrgbcolor
gsave
267.8 108.9 40.32 50.11 clipbox
40.32 99.939889 m
78.746724 101.318699 l
116.98227 85.339525 l
155.217816 89.42032 l
193.453362 93.158271 l
231.688908 99.486157 l
269.924454 92.594374 l
308.16 92.912981 l
stroke
grestore
0.890 0.467 0.761 setrgbcolor
gsave
267.8 108.9 40.32 50.11 clipbox
40.32 108.365242 m
78.746724 116.884738 l
116.98227 94.755405 l
155.217816 99.629587 l
193.453362 101.372102 l
231.688908 109.072524 l
269.924454 107.959181 l
308.16 106.355959 l
stroke
grestore
0.498 setgray
gsave
267.8 108.9 40.32 50.11 clipbox
40.32 118.291695 m
78.746724 123.304771 l
116.98227 104.544371 l
155.217816 112.637707 l
193.453362 108.843556 l
231.688908 121.846334 l
269.924454 124.934132 l
308.16 123.643204 l
stroke
grestore
0.737 0.741 0.133 setrgbcolor
gsave
267.8 108.9 40.32 50.11 clipbox
40.32 123.494573 m
78.746724 125.965651 l
116.98227 117.683113 l
155.217816 125.146653 l
193.453362 120.359195 l
231.688908 149.377709 l
269.924454 149.512731 l
308.16 154.027636 l
stroke
grestore
0.800 setlinewidth
0 setlinejoin
[] 0 setdash
0.000 setgray
gsave
40.32 50.112 m
40.32 158.976 l
stroke
grestore
gsave
308.16 50.112 m
308.16 158.976 l
stroke
grestore
gsave
40.32 50.112 m
308.16 50.112 l
stroke
grestore
gsave
40.32 158.976 m
308.16 158.976 l
stroke
grestore
1.000 setlinewidth
0 setlinecap
0.800 setgray
gsave
341.944 37.020562 m
380.303375 37.020562 l
381.636708 37.020562 382.303375 37.687229 382.303375 39.020562 c
382.303375 170.067437 l
382.303375 171.400771 381.636708 172.067437 380.303375 172.067437 c
341.944 172.067437 l
340.610667 172.067437 339.944 171.400771 339.944 170.067437 c
339.944 39.020562 l
339.944 37.687229 340.610667 37.020562 341.944 37.020562 c
cl
gsave
1.000 setgray
fill
grestore
stroke
grestore
1.500 setlinewidth
1 setlinejoin
2 setlinecap
[] 0 setdash
0.122 0.467 0.706 setrgbcolor
gsave
343.944 163.973687 m
363.944 163.973687 l
stroke
grestore
0.000 setgray
gsave
371.944000 160.473687 translate
0.000000 rotate
0.000000 0.000000 m /zero glyphshow
grestore
1.000 0.498 0.055 setrgbcolor
gsave
343.944 149.301812 m
363.944 149.301812 l
stroke
grestore
0.000 setgray
gsave
371.944000 145.801812 translate
0.000000 rotate
0.000000 0.000000 m /one glyphshow
grestore
0.173 0.627 0.173 setrgbcolor
gsave
343.944 134.629937 m
363.944 134.629937 l
stroke
grestore
0.000 setgray
gsave
371.944000 131.129937 translate
0.000000 rotate
0.000000 0.000000 m /two glyphshow
grestore
0.839 0.153 0.157 setrgbcolor
gsave
343.944 119.958062 m
363.944 119.958062 l
stroke
grestore
0.000 setgray
gsave
371.944000 116.458062 translate
0.000000 rotate
0.000000 0.000000 m /three glyphshow
grestore
0.580 0.404 0.741 setrgbcolor
gsave
343.944 105.286187 m
363.944 105.286187 l
stroke
grestore
0.000 setgray
gsave
371.944000 101.786187 translate
0.000000 rotate
0.000000 0.000000 m /four glyphshow
grestore
0.549 0.337 0.294 setrgbcolor
gsave
343.944 90.614312 m
363.944 90.614312 l
stroke
grestore
0.000 setgray
gsave
371.944000 87.114312 translate
0.000000 rotate
0.000000 0.000000 m /five glyphshow
grestore
0.890 0.467 0.761 setrgbcolor
gsave
343.944 75.942437 m
363.944 75.942437 l
stroke
grestore
0.000 setgray
gsave
371.944000 72.442437 translate
0.000000 rotate
0.000000 0.000000 m /six glyphshow
grestore
0.498 setgray
gsave
343.944 61.270562 m
363.944 61.270562 l
stroke
grestore
0.000 setgray
gsave
371.944000 57.770562 translate
0.000000 rotate
0.000000 0.000000 m /seven glyphshow
grestore
0.737 0.741 0.133 setrgbcolor
gsave
343.944 46.598687 m
363.944 46.598687 l
stroke
grestore
0.000 setgray
gsave
371.944000 43.098687 translate
0.000000 rotate
0.000000 0.000000 m /eight glyphshow
grestore

end
showpage
