%!PS-Adobe-3.0 EPSF-3.0
%%Title: /home/kenan/working/mathCalculator/data/sunflow/fig/time_time_counter2_cache-misses.eps
%%Creator: matplotlib version 2.0.0, http://matplotlib.org/
%%CreationDate: Fri Mar 31 12:30:14 2017
%%Orientation: portrait
%%BoundingBox: 75 223 536 568
%%EndComments
%%BeginProlog
/mpldict 8 dict def
mpldict begin
/m { moveto } bind def
/l { lineto } bind def
/r { rlineto } bind def
/c { curveto } bind def
/cl { closepath } bind def
/box {
m
1 index 0 r
0 exch r
neg 0 r
cl
} bind def
/clipbox {
box
clip
newpath
} bind def
%!PS-Adobe-3.0 Resource-Font
%%Title: DejaVu Sans
%%Copyright: Copyright (c) 2003 by Bitstream, Inc. All Rights Reserved. Copyright (c) 2006 by Tavmjong Bah. All Rights Reserved. DejaVu changes are in public domain 
%%Creator: Converted from TrueType to type 3 by PPR
25 dict begin
/_d{bind def}bind def
/_m{moveto}_d
/_l{lineto}_d
/_cl{closepath eofill}_d
/_c{curveto}_d
/_sc{7 -1 roll{setcachedevice}{pop pop pop pop pop pop}ifelse}_d
/_e{exec}_d
/FontName /DejaVuSans def
/PaintType 0 def
/FontMatrix[.001 0 0 .001 0 0]def
/FontBBox[-1021 -463 1793 1232]def
/FontType 3 def
/Encoding [ /hyphen /period /zero /one /two /three /four /five /six /seven /eight /C /underscore /a /c /e /f /h /i /m /n /o /q /r /s /t /u ] def
/FontInfo 10 dict dup begin
/FamilyName (DejaVu Sans) def
/FullName (DejaVu Sans) def
/Notice (Copyright (c) 2003 by Bitstream, Inc. All Rights Reserved. Copyright (c) 2006 by Tavmjong Bah. All Rights Reserved. DejaVu changes are in public domain ) def
/Weight (Book) def
/Version (Version 2.35) def
/ItalicAngle 0.0 def
/isFixedPitch false def
/UnderlinePosition -130 def
/UnderlineThickness 90 def
end readonly def
/CharStrings 27 dict dup begin
/hyphen{361 0 49 234 312 314 _sc
49 314 _m
312 314 _l
312 234 _l
49 234 _l
49 314 _l
_cl}_d
/period{318 0 107 0 210 124 _sc
107 124 _m
210 124 _l
210 0 _l
107 0 _l
107 124 _l
_cl}_d
/zero{636 0 66 -13 570 742 _sc
318 664 _m
267 664 229 639 203 589 _c
177 539 165 464 165 364 _c
165 264 177 189 203 139 _c
229 89 267 64 318 64 _c
369 64 407 89 433 139 _c
458 189 471 264 471 364 _c
471 464 458 539 433 589 _c
407 639 369 664 318 664 _c
318 742 _m
399 742 461 709 505 645 _c
548 580 570 486 570 364 _c
570 241 548 147 505 83 _c
461 19 399 -13 318 -13 _c
236 -13 173 19 130 83 _c
87 147 66 241 66 364 _c
66 486 87 580 130 645 _c
173 709 236 742 318 742 _c
_cl}_d
/one{636 0 110 0 544 729 _sc
124 83 _m
285 83 _l
285 639 _l
110 604 _l
110 694 _l
284 729 _l
383 729 _l
383 83 _l
544 83 _l
544 0 _l
124 0 _l
124 83 _l
_cl}_d
/two{{636 0 73 0 536 742 _sc
192 83 _m
536 83 _l
536 0 _l
73 0 _l
73 83 _l
110 121 161 173 226 239 _c
290 304 331 346 348 365 _c
380 400 402 430 414 455 _c
426 479 433 504 433 528 _c
433 566 419 598 392 622 _c
365 646 330 659 286 659 _c
255 659 222 653 188 643 _c
154 632 117 616 78 594 _c
78 694 _l
118 710 155 722 189 730 _c
223 738 255 742 284 742 _c
}_e{359 742 419 723 464 685 _c
509 647 532 597 532 534 _c
532 504 526 475 515 449 _c
504 422 484 390 454 354 _c
446 344 420 317 376 272 _c
332 227 271 164 192 83 _c
_cl}_e}_d
/three{{636 0 76 -13 556 742 _sc
406 393 _m
453 383 490 362 516 330 _c
542 298 556 258 556 212 _c
556 140 531 84 482 45 _c
432 6 362 -13 271 -13 _c
240 -13 208 -10 176 -4 _c
144 1 110 10 76 22 _c
76 117 _l
103 101 133 89 166 81 _c
198 73 232 69 268 69 _c
330 69 377 81 409 105 _c
441 129 458 165 458 212 _c
458 254 443 288 413 312 _c
383 336 341 349 287 349 _c
}_e{202 349 _l
202 430 _l
291 430 _l
339 430 376 439 402 459 _c
428 478 441 506 441 543 _c
441 580 427 609 401 629 _c
374 649 336 659 287 659 _c
260 659 231 656 200 650 _c
169 644 135 635 98 623 _c
98 711 _l
135 721 170 729 203 734 _c
235 739 266 742 296 742 _c
370 742 429 725 473 691 _c
517 657 539 611 539 553 _c
539 513 527 479 504 451 _c
481 423 448 403 406 393 _c
_cl}_e}_d
/four{636 0 49 0 580 729 _sc
378 643 _m
129 254 _l
378 254 _l
378 643 _l
352 729 _m
476 729 _l
476 254 _l
580 254 _l
580 172 _l
476 172 _l
476 0 _l
378 0 _l
378 172 _l
49 172 _l
49 267 _l
352 729 _l
_cl}_d
/five{{636 0 77 -13 549 729 _sc
108 729 _m
495 729 _l
495 646 _l
198 646 _l
198 467 _l
212 472 227 476 241 478 _c
255 480 270 482 284 482 _c
365 482 429 459 477 415 _c
525 370 549 310 549 234 _c
549 155 524 94 475 51 _c
426 8 357 -13 269 -13 _c
238 -13 207 -10 175 -6 _c
143 -1 111 6 77 17 _c
77 116 _l
106 100 136 88 168 80 _c
199 72 232 69 267 69 _c
}_e{323 69 368 83 401 113 _c
433 143 450 183 450 234 _c
450 284 433 324 401 354 _c
368 384 323 399 267 399 _c
241 399 214 396 188 390 _c
162 384 135 375 108 363 _c
108 729 _l
_cl}_e}_d
/six{{636 0 70 -13 573 742 _sc
330 404 _m
286 404 251 388 225 358 _c
199 328 186 286 186 234 _c
186 181 199 139 225 109 _c
251 79 286 64 330 64 _c
374 64 409 79 435 109 _c
461 139 474 181 474 234 _c
474 286 461 328 435 358 _c
409 388 374 404 330 404 _c
526 713 _m
526 623 _l
501 635 476 644 451 650 _c
425 656 400 659 376 659 _c
310 659 260 637 226 593 _c
}_e{192 549 172 482 168 394 _c
187 422 211 444 240 459 _c
269 474 301 482 336 482 _c
409 482 467 459 509 415 _c
551 371 573 310 573 234 _c
573 159 550 99 506 54 _c
462 9 403 -13 330 -13 _c
246 -13 181 19 137 83 _c
92 147 70 241 70 364 _c
70 479 97 571 152 639 _c
206 707 280 742 372 742 _c
396 742 421 739 447 735 _c
472 730 498 723 526 713 _c
_cl}_e}_d
/seven{636 0 82 0 551 729 _sc
82 729 _m
551 729 _l
551 687 _l
286 0 _l
183 0 _l
432 646 _l
82 646 _l
82 729 _l
_cl}_d
/eight{{636 0 68 -13 568 742 _sc
318 346 _m
271 346 234 333 207 308 _c
180 283 167 249 167 205 _c
167 161 180 126 207 101 _c
234 76 271 64 318 64 _c
364 64 401 76 428 102 _c
455 127 469 161 469 205 _c
469 249 455 283 429 308 _c
402 333 365 346 318 346 _c
219 388 _m
177 398 144 418 120 447 _c
96 476 85 511 85 553 _c
85 611 105 657 147 691 _c
188 725 245 742 318 742 _c
}_e{390 742 447 725 489 691 _c
530 657 551 611 551 553 _c
551 511 539 476 515 447 _c
491 418 459 398 417 388 _c
464 377 501 355 528 323 _c
554 291 568 251 568 205 _c
568 134 546 80 503 43 _c
459 5 398 -13 318 -13 _c
237 -13 175 5 132 43 _c
89 80 68 134 68 205 _c
68 251 81 291 108 323 _c
134 355 171 377 219 388 _c
183 544 _m
183 506 194 476 218 455 _c
}_e{242 434 275 424 318 424 _c
360 424 393 434 417 455 _c
441 476 453 506 453 544 _c
453 582 441 611 417 632 _c
393 653 360 664 318 664 _c
275 664 242 653 218 632 _c
194 611 183 582 183 544 _c
_cl}_e}_d
/C{{698 0 56 -13 644 742 _sc
644 673 _m
644 569 _l
610 599 575 622 537 638 _c
499 653 460 661 418 661 _c
334 661 270 635 226 584 _c
182 533 160 460 160 364 _c
160 268 182 194 226 143 _c
270 92 334 67 418 67 _c
460 67 499 74 537 90 _c
575 105 610 128 644 159 _c
644 56 _l
609 32 572 15 534 4 _c
496 -7 455 -13 412 -13 _c
302 -13 215 20 151 87 _c
}_e{87 154 56 246 56 364 _c
56 481 87 573 151 641 _c
215 708 302 742 412 742 _c
456 742 497 736 535 725 _c
573 713 610 696 644 673 _c
_cl}_e}_d
/underscore{500 0 -9 -235 510 -165 _sc
510 -165 _m
510 -235 _l
-9 -235 _l
-9 -165 _l
510 -165 _l
_cl}_d
/a{{613 0 60 -13 522 560 _sc
343 275 _m
270 275 220 266 192 250 _c
164 233 150 205 150 165 _c
150 133 160 107 181 89 _c
202 70 231 61 267 61 _c
317 61 357 78 387 114 _c
417 149 432 196 432 255 _c
432 275 _l
343 275 _l
522 312 _m
522 0 _l
432 0 _l
432 83 _l
411 49 385 25 355 10 _c
325 -5 287 -13 243 -13 _c
187 -13 142 2 109 33 _c
76 64 60 106 60 159 _c
}_e{60 220 80 266 122 298 _c
163 329 224 345 306 345 _c
432 345 _l
432 354 _l
432 395 418 427 391 450 _c
364 472 326 484 277 484 _c
245 484 215 480 185 472 _c
155 464 127 453 100 439 _c
100 522 _l
132 534 164 544 195 550 _c
226 556 256 560 286 560 _c
365 560 424 539 463 498 _c
502 457 522 395 522 312 _c
_cl}_e}_d
/c{{550 0 55 -13 488 560 _sc
488 526 _m
488 442 _l
462 456 437 466 411 473 _c
385 480 360 484 334 484 _c
276 484 230 465 198 428 _c
166 391 150 339 150 273 _c
150 206 166 154 198 117 _c
230 80 276 62 334 62 _c
360 62 385 65 411 72 _c
437 79 462 90 488 104 _c
488 21 _l
462 9 436 0 410 -5 _c
383 -10 354 -13 324 -13 _c
242 -13 176 12 128 64 _c
}_e{79 115 55 185 55 273 _c
55 362 79 432 128 483 _c
177 534 244 560 330 560 _c
358 560 385 557 411 551 _c
437 545 463 537 488 526 _c
_cl}_e}_d
/e{{615 0 55 -13 562 560 _sc
562 296 _m
562 252 _l
149 252 _l
153 190 171 142 205 110 _c
238 78 284 62 344 62 _c
378 62 412 66 444 74 _c
476 82 509 95 541 113 _c
541 28 _l
509 14 476 3 442 -3 _c
408 -9 373 -13 339 -13 _c
251 -13 182 12 131 62 _c
80 112 55 181 55 268 _c
55 357 79 428 127 481 _c
175 533 241 560 323 560 _c
397 560 455 536 498 489 _c
}_e{540 441 562 377 562 296 _c
472 322 _m
471 371 457 410 431 440 _c
404 469 368 484 324 484 _c
274 484 234 469 204 441 _c
174 413 156 373 152 322 _c
472 322 _l
_cl}_e}_d
/f{352 0 23 0 371 760 _sc
371 760 _m
371 685 _l
285 685 _l
253 685 230 678 218 665 _c
205 652 199 629 199 595 _c
199 547 _l
347 547 _l
347 477 _l
199 477 _l
199 0 _l
109 0 _l
109 477 _l
23 477 _l
23 547 _l
109 547 _l
109 585 _l
109 645 123 690 151 718 _c
179 746 224 760 286 760 _c
371 760 _l
_cl}_d
/h{634 0 91 0 549 760 _sc
549 330 _m
549 0 _l
459 0 _l
459 327 _l
459 379 448 417 428 443 _c
408 469 378 482 338 482 _c
289 482 251 466 223 435 _c
195 404 181 362 181 309 _c
181 0 _l
91 0 _l
91 760 _l
181 760 _l
181 462 _l
202 494 227 519 257 535 _c
286 551 320 560 358 560 _c
420 560 468 540 500 501 _c
532 462 549 405 549 330 _c
_cl}_d
/i{278 0 94 0 184 760 _sc
94 547 _m
184 547 _l
184 0 _l
94 0 _l
94 547 _l
94 760 _m
184 760 _l
184 646 _l
94 646 _l
94 760 _l
_cl}_d
/m{{974 0 91 0 889 560 _sc
520 442 _m
542 482 569 511 600 531 _c
631 550 668 560 711 560 _c
767 560 811 540 842 500 _c
873 460 889 403 889 330 _c
889 0 _l
799 0 _l
799 327 _l
799 379 789 418 771 444 _c
752 469 724 482 686 482 _c
639 482 602 466 575 435 _c
548 404 535 362 535 309 _c
535 0 _l
445 0 _l
445 327 _l
445 379 435 418 417 444 _c
398 469 369 482 331 482 _c
}_e{285 482 248 466 221 435 _c
194 404 181 362 181 309 _c
181 0 _l
91 0 _l
91 547 _l
181 547 _l
181 462 _l
201 495 226 520 255 536 _c
283 552 317 560 357 560 _c
397 560 430 550 458 530 _c
486 510 506 480 520 442 _c
_cl}_e}_d
/n{634 0 91 0 549 560 _sc
549 330 _m
549 0 _l
459 0 _l
459 327 _l
459 379 448 417 428 443 _c
408 469 378 482 338 482 _c
289 482 251 466 223 435 _c
195 404 181 362 181 309 _c
181 0 _l
91 0 _l
91 547 _l
181 547 _l
181 462 _l
202 494 227 519 257 535 _c
286 551 320 560 358 560 _c
420 560 468 540 500 501 _c
532 462 549 405 549 330 _c
_cl}_d
/o{612 0 55 -13 557 560 _sc
306 484 _m
258 484 220 465 192 427 _c
164 389 150 338 150 273 _c
150 207 163 156 191 118 _c
219 80 257 62 306 62 _c
354 62 392 80 420 118 _c
448 156 462 207 462 273 _c
462 337 448 389 420 427 _c
392 465 354 484 306 484 _c
306 560 _m
384 560 445 534 490 484 _c
534 433 557 363 557 273 _c
557 183 534 113 490 63 _c
445 12 384 -13 306 -13 _c
227 -13 165 12 121 63 _c
77 113 55 183 55 273 _c
55 363 77 433 121 484 _c
165 534 227 560 306 560 _c
_cl}_d
/q{{635 0 55 -207 544 560 _sc
148 273 _m
148 207 161 155 188 117 _c
215 79 253 61 301 61 _c
348 61 385 79 413 117 _c
440 155 454 207 454 273 _c
454 339 440 390 413 428 _c
385 466 348 485 301 485 _c
253 485 215 466 188 428 _c
161 390 148 339 148 273 _c
454 82 _m
435 49 411 25 382 10 _c
353 -5 319 -13 279 -13 _c
213 -13 159 13 117 65 _c
75 117 55 187 55 273 _c
}_e{55 359 75 428 117 481 _c
159 533 213 560 279 560 _c
319 560 353 552 382 536 _c
411 520 435 496 454 464 _c
454 547 _l
544 547 _l
544 -207 _l
454 -207 _l
454 82 _l
_cl}_e}_d
/r{411 0 91 0 411 560 _sc
411 463 _m
401 469 390 473 378 476 _c
366 478 353 480 339 480 _c
288 480 249 463 222 430 _c
194 397 181 350 181 288 _c
181 0 _l
91 0 _l
91 547 _l
181 547 _l
181 462 _l
199 495 224 520 254 536 _c
284 552 321 560 365 560 _c
371 560 378 559 386 559 _c
393 558 401 557 411 555 _c
411 463 _l
_cl}_d
/s{{521 0 54 -13 472 560 _sc
443 531 _m
443 446 _l
417 458 391 468 364 475 _c
336 481 308 485 279 485 _c
234 485 200 478 178 464 _c
156 450 145 430 145 403 _c
145 382 153 366 169 354 _c
185 342 217 330 265 320 _c
296 313 _l
360 299 405 279 432 255 _c
458 230 472 195 472 151 _c
472 100 452 60 412 31 _c
372 1 316 -13 246 -13 _c
216 -13 186 -10 154 -5 _c
}_e{122 0 89 8 54 20 _c
54 113 _l
87 95 120 82 152 74 _c
184 65 216 61 248 61 _c
290 61 323 68 346 82 _c
368 96 380 117 380 144 _c
380 168 371 187 355 200 _c
339 213 303 226 247 238 _c
216 245 _l
160 257 119 275 95 299 _c
70 323 58 356 58 399 _c
58 450 76 490 112 518 _c
148 546 200 560 268 560 _c
301 560 332 557 362 552 _c
391 547 418 540 443 531 _c
}_e{_cl}_e}_d
/t{392 0 27 0 368 702 _sc
183 702 _m
183 547 _l
368 547 _l
368 477 _l
183 477 _l
183 180 _l
183 135 189 106 201 94 _c
213 81 238 75 276 75 _c
368 75 _l
368 0 _l
276 0 _l
206 0 158 13 132 39 _c
106 65 93 112 93 180 _c
93 477 _l
27 477 _l
27 547 _l
93 547 _l
93 702 _l
183 702 _l
_cl}_d
/u{634 0 85 -13 543 560 _sc
85 216 _m
85 547 _l
175 547 _l
175 219 _l
175 167 185 129 205 103 _c
225 77 255 64 296 64 _c
344 64 383 79 411 110 _c
439 141 453 183 453 237 _c
453 547 _l
543 547 _l
543 0 _l
453 0 _l
453 84 _l
431 50 405 26 377 10 _c
348 -5 315 -13 277 -13 _c
214 -13 166 6 134 45 _c
101 83 85 140 85 216 _c
311 560 _m
311 560 _l
_cl}_d
end readonly def

/BuildGlyph
 {exch begin
 CharStrings exch
 2 copy known not{pop /.notdef}if
 true 3 1 roll get exec
 end}_d

/BuildChar {
 1 index /Encoding get exch get
 1 index /BuildGlyph get exec
}_d

FontName currentdict end definefont pop
end
%%EndProlog
mpldict begin
75.6 223.2 translate
460.8 345.6 0 0 clipbox
gsave
0 0 m
460.8 0 l
460.8 345.6 l
0 345.6 l
cl
1.000 setgray
fill
grestore
gsave
40.32 195.264 m
308.16 195.264 l
308.16 304.128 l
40.32 304.128 l
cl
1.000 setgray
fill
grestore
0.800 setlinewidth
1 setlinejoin
0 setlinecap
[] 0 setdash
0.000 setgray
gsave
/o {
gsave
newpath
translate
0.8 setlinewidth
1 setlinejoin
0 setlinecap
0 0 m
0 -3.5 l

gsave
0.000 setgray
fill
grestore
stroke
grestore
} bind def
308.16 195.264 o
grestore
gsave
/o {
gsave
newpath
translate
0.8 setlinewidth
1 setlinejoin
0 setlinecap
0 0 m
0 -3.5 l

gsave
0.000 setgray
fill
grestore
stroke
grestore
} bind def
269.924 195.264 o
grestore
gsave
/o {
gsave
newpath
translate
0.8 setlinewidth
1 setlinejoin
0 setlinecap
0 0 m
0 -3.5 l

gsave
0.000 setgray
fill
grestore
stroke
grestore
} bind def
231.689 195.264 o
grestore
gsave
/o {
gsave
newpath
translate
0.8 setlinewidth
1 setlinejoin
0 setlinecap
0 0 m
0 -3.5 l

gsave
0.000 setgray
fill
grestore
stroke
grestore
} bind def
193.453 195.264 o
grestore
gsave
/o {
gsave
newpath
translate
0.8 setlinewidth
1 setlinejoin
0 setlinecap
0 0 m
0 -3.5 l

gsave
0.000 setgray
fill
grestore
stroke
grestore
} bind def
155.218 195.264 o
grestore
gsave
/o {
gsave
newpath
translate
0.8 setlinewidth
1 setlinejoin
0 setlinecap
0 0 m
0 -3.5 l

gsave
0.000 setgray
fill
grestore
stroke
grestore
} bind def
116.982 195.264 o
grestore
gsave
/o {
gsave
newpath
translate
0.8 setlinewidth
1 setlinejoin
0 setlinecap
0 0 m
0 -3.5 l

gsave
0.000 setgray
fill
grestore
stroke
grestore
} bind def
78.7467 195.264 o
grestore
gsave
/o {
gsave
newpath
translate
0.8 setlinewidth
1 setlinejoin
0 setlinecap
0 0 m
0 -3.5 l

gsave
0.000 setgray
fill
grestore
stroke
grestore
} bind def
40.5112 195.264 o
grestore
0.600 setlinewidth
gsave
/o {
gsave
newpath
translate
0.6 setlinewidth
1 setlinejoin
0 setlinecap
0 0 m
0 -2 l

gsave
0.000 setgray
fill
grestore
stroke
grestore
} bind def
308.16 195.264 o
grestore
gsave
/o {
gsave
newpath
translate
0.6 setlinewidth
1 setlinejoin
0 setlinecap
0 0 m
0 -2 l

gsave
0.000 setgray
fill
grestore
stroke
grestore
} bind def
269.924 195.264 o
grestore
gsave
/o {
gsave
newpath
translate
0.6 setlinewidth
1 setlinejoin
0 setlinecap
0 0 m
0 -2 l

gsave
0.000 setgray
fill
grestore
stroke
grestore
} bind def
231.689 195.264 o
grestore
gsave
/o {
gsave
newpath
translate
0.6 setlinewidth
1 setlinejoin
0 setlinecap
0 0 m
0 -2 l

gsave
0.000 setgray
fill
grestore
stroke
grestore
} bind def
193.453 195.264 o
grestore
gsave
/o {
gsave
newpath
translate
0.6 setlinewidth
1 setlinejoin
0 setlinecap
0 0 m
0 -2 l

gsave
0.000 setgray
fill
grestore
stroke
grestore
} bind def
155.218 195.264 o
grestore
gsave
/o {
gsave
newpath
translate
0.6 setlinewidth
1 setlinejoin
0 setlinecap
0 0 m
0 -2 l

gsave
0.000 setgray
fill
grestore
stroke
grestore
} bind def
116.982 195.264 o
grestore
gsave
/o {
gsave
newpath
translate
0.6 setlinewidth
1 setlinejoin
0 setlinecap
0 0 m
0 -2 l

gsave
0.000 setgray
fill
grestore
stroke
grestore
} bind def
78.7467 195.264 o
grestore
gsave
/o {
gsave
newpath
translate
0.6 setlinewidth
1 setlinejoin
0 setlinecap
0 0 m
0 -2 l

gsave
0.000 setgray
fill
grestore
stroke
grestore
} bind def
40.5112 195.264 o
grestore
0.800 setlinewidth
gsave
/o {
gsave
newpath
translate
0.8 setlinewidth
1 setlinejoin
0 setlinecap
0 0 m
-3.5 0 l

gsave
0.000 setgray
fill
grestore
stroke
grestore
} bind def
40.32 197.946 o
grestore
/DejaVuSans findfont
10.000 scalefont
setfont
gsave
26.960625 194.149152 translate
0.000000 rotate
0.000000 0.000000 m /zero glyphshow
grestore
gsave
/o {
gsave
newpath
translate
0.8 setlinewidth
1 setlinejoin
0 setlinecap
0 0 m
-3.5 0 l

gsave
0.000 setgray
fill
grestore
stroke
grestore
} bind def
40.32 221.431 o
grestore
gsave
7.882500 217.634504 translate
0.000000 rotate
0.000000 0.000000 m /two glyphshow
6.362305 0.000000 m /zero glyphshow
12.724609 0.000000 m /zero glyphshow
19.086914 0.000000 m /zero glyphshow
grestore
gsave
/o {
gsave
newpath
translate
0.8 setlinewidth
1 setlinejoin
0 setlinecap
0 0 m
-3.5 0 l

gsave
0.000 setgray
fill
grestore
stroke
grestore
} bind def
40.32 244.917 o
grestore
gsave
7.882500 241.119856 translate
0.000000 rotate
0.000000 0.000000 m /four glyphshow
6.362305 0.000000 m /zero glyphshow
12.724609 0.000000 m /zero glyphshow
19.086914 0.000000 m /zero glyphshow
grestore
gsave
/o {
gsave
newpath
translate
0.8 setlinewidth
1 setlinejoin
0 setlinecap
0 0 m
-3.5 0 l

gsave
0.000 setgray
fill
grestore
stroke
grestore
} bind def
40.32 268.402 o
grestore
gsave
7.882500 264.605208 translate
0.000000 rotate
0.000000 0.000000 m /six glyphshow
6.362305 0.000000 m /zero glyphshow
12.724609 0.000000 m /zero glyphshow
19.086914 0.000000 m /zero glyphshow
grestore
gsave
/o {
gsave
newpath
translate
0.8 setlinewidth
1 setlinejoin
0 setlinecap
0 0 m
-3.5 0 l

gsave
0.000 setgray
fill
grestore
stroke
grestore
} bind def
40.32 291.887 o
grestore
gsave
7.882500 288.090560 translate
0.000000 rotate
0.000000 0.000000 m /eight glyphshow
6.362305 0.000000 m /zero glyphshow
12.724609 0.000000 m /zero glyphshow
19.086914 0.000000 m /zero glyphshow
grestore
gsave
1.804375 238.391312 translate
90.000000 rotate
0.000000 0.000000 m /t glyphshow
3.920898 0.000000 m /i glyphshow
6.699219 0.000000 m /m glyphshow
16.440430 0.000000 m /e glyphshow
grestore
1.500 setlinewidth
2 setlinecap
0.122 0.467 0.706 setrgbcolor
gsave
267.8 108.9 40.32 195.3 clipbox
40.32 202.241084 m
78.746724 200.212364 l
116.98227 204.240101 l
155.217816 204.951316 l
193.453362 207.111255 l
231.688908 207.673632 l
269.924454 210.154687 l
308.16 211.898486 l
stroke
grestore
1.000 0.498 0.055 setrgbcolor
gsave
267.8 108.9 40.32 195.3 clipbox
40.32 204.357528 m
78.746724 203.610191 l
116.98227 206.176952 l
155.217816 207.970358 l
193.453362 208.604107 l
231.688908 211.479664 l
269.924454 211.744182 l
308.16 216.25424 l
stroke
grestore
0.173 0.627 0.173 setrgbcolor
gsave
267.8 108.9 40.32 195.3 clipbox
40.32 206.993759 m
78.746724 205.358004 l
116.98227 211.587814 l
155.217816 212.177083 l
193.453362 215.083855 l
231.688908 216.572521 l
269.924454 216.485858 l
308.16 227.598953 l
stroke
grestore
0.839 0.153 0.157 setrgbcolor
gsave
267.8 108.9 40.32 195.3 clipbox
40.32 211.579274 m
78.746724 210.589953 l
116.98227 214.674643 l
155.217816 216.565018 l
193.453362 220.194824 l
231.688908 221.645357 l
269.924454 223.019928 l
308.16 234.30781 l
stroke
grestore
0.580 0.404 0.741 setrgbcolor
gsave
267.8 108.9 40.32 195.3 clipbox
40.32 214.362288 m
78.746724 213.462016 l
116.98227 219.97849 l
155.217816 221.748431 l
193.453362 224.750642 l
231.688908 234.402339 l
269.924454 233.294684 l
308.16 243.906861 l
stroke
grestore
0.549 0.337 0.294 setrgbcolor
gsave
267.8 108.9 40.32 195.3 clipbox
40.32 217.368413 m
78.746724 218.938577 l
116.98227 229.176513 l
155.217816 230.559352 l
193.453362 231.11439 l
231.688908 250.820781 l
269.924454 242.771735 l
308.16 246.956042 l
stroke
grestore
0.890 0.467 0.761 setrgbcolor
gsave
267.8 108.9 40.32 195.3 clipbox
40.32 221.431379 m
78.746724 223.796354 l
116.98227 229.735799 l
155.217816 231.416009 l
193.453362 244.392827 l
231.688908 251.132521 l
269.924454 252.483418 l
308.16 258.282412 l
stroke
grestore
0.498 setgray
gsave
267.8 108.9 40.32 195.3 clipbox
40.32 226.874109 m
78.746724 230.085731 l
116.98227 235.139779 l
155.217816 246.114484 l
193.453362 248.241865 l
231.688908 262.213693 l
269.924454 264.157105 l
308.16 274.617873 l
stroke
grestore
0.737 0.741 0.133 setrgbcolor
gsave
267.8 108.9 40.32 195.3 clipbox
40.32 229.3342 m
78.746724 238.035523 l
116.98227 241.28433 l
155.217816 249.172612 l
193.453362 265.971349 l
231.688908 284.724402 l
269.924454 285.076683 l
308.16 299.179636 l
stroke
grestore
0.800 setlinewidth
0 setlinejoin
[] 0 setdash
0.000 setgray
gsave
40.32 195.264 m
40.32 304.128 l
stroke
grestore
gsave
308.16 195.264 m
308.16 304.128 l
stroke
grestore
gsave
40.32 195.264 m
308.16 195.264 l
stroke
grestore
gsave
40.32 304.128 m
308.16 304.128 l
stroke
grestore
/DejaVuSans findfont
12.000 scalefont
setfont
gsave
70.700938 310.128000 translate
0.000000 rotate
0.000000 0.000000 m /t glyphshow
4.705078 0.000000 m /i glyphshow
8.039062 0.000000 m /m glyphshow
19.728516 0.000000 m /e glyphshow
27.111328 0.000000 m /underscore glyphshow
33.111328 0.000000 m /t glyphshow
37.816406 0.000000 m /i glyphshow
41.150391 0.000000 m /m glyphshow
52.839844 0.000000 m /e glyphshow
60.222656 0.000000 m /underscore glyphshow
66.222656 0.000000 m /c glyphshow
72.820312 0.000000 m /o glyphshow
80.162109 0.000000 m /u glyphshow
87.767578 0.000000 m /n glyphshow
95.373047 0.000000 m /t glyphshow
100.078125 0.000000 m /e glyphshow
107.460938 0.000000 m /r glyphshow
112.394531 0.000000 m /two glyphshow
120.029297 0.000000 m /underscore glyphshow
126.029297 0.000000 m /c glyphshow
132.626953 0.000000 m /a glyphshow
139.980469 0.000000 m /c glyphshow
146.578125 0.000000 m /h glyphshow
154.183594 0.000000 m /e glyphshow
161.566406 0.000000 m /hyphen glyphshow
165.896484 0.000000 m /m glyphshow
177.585938 0.000000 m /i glyphshow
180.919922 0.000000 m /s glyphshow
187.171875 0.000000 m /s glyphshow
193.423828 0.000000 m /e glyphshow
200.806641 0.000000 m /s glyphshow
grestore
gsave
40.32 50.112 m
308.16 50.112 l
308.16 158.976 l
40.32 158.976 l
cl
1.000 setgray
fill
grestore
1 setlinejoin
0 setlinecap
[] 0 setdash
gsave
/o {
gsave
newpath
translate
0.8 setlinewidth
1 setlinejoin
0 setlinecap
0 0 m
0 -3.5 l

gsave
0.000 setgray
fill
grestore
stroke
grestore
} bind def
308.16 50.112 o
grestore
/DejaVuSans findfont
10.000 scalefont
setfont
gsave
300.206875 35.518250 translate
0.000000 rotate
0.000000 0.000000 m /one glyphshow
6.362305 0.000000 m /period glyphshow
9.541016 0.000000 m /two glyphshow
grestore
gsave
/o {
gsave
newpath
translate
0.8 setlinewidth
1 setlinejoin
0 setlinecap
0 0 m
0 -3.5 l

gsave
0.000 setgray
fill
grestore
stroke
grestore
} bind def
269.924 50.112 o
grestore
gsave
261.971329 35.518250 translate
0.000000 rotate
0.000000 0.000000 m /one glyphshow
6.362305 0.000000 m /period glyphshow
9.541016 0.000000 m /four glyphshow
grestore
gsave
/o {
gsave
newpath
translate
0.8 setlinewidth
1 setlinejoin
0 setlinecap
0 0 m
0 -3.5 l

gsave
0.000 setgray
fill
grestore
stroke
grestore
} bind def
231.689 50.112 o
grestore
gsave
223.735783 35.518250 translate
0.000000 rotate
0.000000 0.000000 m /one glyphshow
6.362305 0.000000 m /period glyphshow
9.541016 0.000000 m /six glyphshow
grestore
gsave
/o {
gsave
newpath
translate
0.8 setlinewidth
1 setlinejoin
0 setlinecap
0 0 m
0 -3.5 l

gsave
0.000 setgray
fill
grestore
stroke
grestore
} bind def
193.453 50.112 o
grestore
gsave
185.500237 35.518250 translate
0.000000 rotate
0.000000 0.000000 m /one glyphshow
6.362305 0.000000 m /period glyphshow
9.541016 0.000000 m /eight glyphshow
grestore
gsave
/o {
gsave
newpath
translate
0.8 setlinewidth
1 setlinejoin
0 setlinecap
0 0 m
0 -3.5 l

gsave
0.000 setgray
fill
grestore
stroke
grestore
} bind def
155.218 50.112 o
grestore
gsave
147.264691 35.518250 translate
0.000000 rotate
0.000000 0.000000 m /two glyphshow
6.362305 0.000000 m /period glyphshow
9.541016 0.000000 m /zero glyphshow
grestore
gsave
/o {
gsave
newpath
translate
0.8 setlinewidth
1 setlinejoin
0 setlinecap
0 0 m
0 -3.5 l

gsave
0.000 setgray
fill
grestore
stroke
grestore
} bind def
116.982 50.112 o
grestore
gsave
109.029145 35.518250 translate
0.000000 rotate
0.000000 0.000000 m /two glyphshow
6.362305 0.000000 m /period glyphshow
9.541016 0.000000 m /two glyphshow
grestore
gsave
/o {
gsave
newpath
translate
0.8 setlinewidth
1 setlinejoin
0 setlinecap
0 0 m
0 -3.5 l

gsave
0.000 setgray
fill
grestore
stroke
grestore
} bind def
78.7467 50.112 o
grestore
gsave
70.793599 35.518250 translate
0.000000 rotate
0.000000 0.000000 m /two glyphshow
6.362305 0.000000 m /period glyphshow
9.541016 0.000000 m /four glyphshow
grestore
gsave
/o {
gsave
newpath
translate
0.8 setlinewidth
1 setlinejoin
0 setlinecap
0 0 m
0 -3.5 l

gsave
0.000 setgray
fill
grestore
stroke
grestore
} bind def
40.5112 50.112 o
grestore
gsave
32.558053 35.518250 translate
0.000000 rotate
0.000000 0.000000 m /two glyphshow
6.362305 0.000000 m /period glyphshow
9.541016 0.000000 m /six glyphshow
grestore
0.600 setlinewidth
gsave
/o {
gsave
newpath
translate
0.6 setlinewidth
1 setlinejoin
0 setlinecap
0 0 m
0 -2 l

gsave
0.000 setgray
fill
grestore
stroke
grestore
} bind def
308.16 50.112 o
grestore
gsave
/o {
gsave
newpath
translate
0.6 setlinewidth
1 setlinejoin
0 setlinecap
0 0 m
0 -2 l

gsave
0.000 setgray
fill
grestore
stroke
grestore
} bind def
269.924 50.112 o
grestore
gsave
/o {
gsave
newpath
translate
0.6 setlinewidth
1 setlinejoin
0 setlinecap
0 0 m
0 -2 l

gsave
0.000 setgray
fill
grestore
stroke
grestore
} bind def
231.689 50.112 o
grestore
gsave
/o {
gsave
newpath
translate
0.6 setlinewidth
1 setlinejoin
0 setlinecap
0 0 m
0 -2 l

gsave
0.000 setgray
fill
grestore
stroke
grestore
} bind def
193.453 50.112 o
grestore
gsave
/o {
gsave
newpath
translate
0.6 setlinewidth
1 setlinejoin
0 setlinecap
0 0 m
0 -2 l

gsave
0.000 setgray
fill
grestore
stroke
grestore
} bind def
155.218 50.112 o
grestore
gsave
/o {
gsave
newpath
translate
0.6 setlinewidth
1 setlinejoin
0 setlinecap
0 0 m
0 -2 l

gsave
0.000 setgray
fill
grestore
stroke
grestore
} bind def
116.982 50.112 o
grestore
gsave
/o {
gsave
newpath
translate
0.6 setlinewidth
1 setlinejoin
0 setlinecap
0 0 m
0 -2 l

gsave
0.000 setgray
fill
grestore
stroke
grestore
} bind def
78.7467 50.112 o
grestore
gsave
/o {
gsave
newpath
translate
0.6 setlinewidth
1 setlinejoin
0 setlinecap
0 0 m
0 -2 l

gsave
0.000 setgray
fill
grestore
stroke
grestore
} bind def
40.5112 50.112 o
grestore
gsave
144.185313 21.846375 translate
0.000000 rotate
0.000000 0.000000 m /f glyphshow
3.520508 0.000000 m /r glyphshow
7.631836 0.000000 m /e glyphshow
13.784180 0.000000 m /q glyphshow
20.131836 0.000000 m /C glyphshow
27.114258 0.000000 m /o glyphshow
33.232422 0.000000 m /u glyphshow
39.570312 0.000000 m /n glyphshow
45.908203 0.000000 m /t glyphshow
49.829102 0.000000 m /e glyphshow
55.981445 0.000000 m /r glyphshow
grestore
0.800 setlinewidth
gsave
/o {
gsave
newpath
translate
0.8 setlinewidth
1 setlinejoin
0 setlinecap
0 0 m
-3.5 0 l

gsave
0.000 setgray
fill
grestore
stroke
grestore
} bind def
40.32 51.2764 o
grestore
gsave
17.413750 47.479482 translate
0.000000 rotate
0.000000 0.000000 m /zero glyphshow
6.362305 0.000000 m /period glyphshow
9.541016 0.000000 m /zero glyphshow
grestore
gsave
/o {
gsave
newpath
translate
0.8 setlinewidth
1 setlinejoin
0 setlinecap
0 0 m
-3.5 0 l

gsave
0.000 setgray
fill
grestore
stroke
grestore
} bind def
40.32 73.8105 o
grestore
gsave
17.413750 70.013657 translate
0.000000 rotate
0.000000 0.000000 m /zero glyphshow
6.362305 0.000000 m /period glyphshow
9.541016 0.000000 m /two glyphshow
grestore
gsave
/o {
gsave
newpath
translate
0.8 setlinewidth
1 setlinejoin
0 setlinecap
0 0 m
-3.5 0 l

gsave
0.000 setgray
fill
grestore
stroke
grestore
} bind def
40.32 96.3447 o
grestore
gsave
17.413750 92.547832 translate
0.000000 rotate
0.000000 0.000000 m /zero glyphshow
6.362305 0.000000 m /period glyphshow
9.541016 0.000000 m /four glyphshow
grestore
gsave
/o {
gsave
newpath
translate
0.8 setlinewidth
1 setlinejoin
0 setlinecap
0 0 m
-3.5 0 l

gsave
0.000 setgray
fill
grestore
stroke
grestore
} bind def
40.32 118.879 o
grestore
gsave
17.413750 115.082007 translate
0.000000 rotate
0.000000 0.000000 m /zero glyphshow
6.362305 0.000000 m /period glyphshow
9.541016 0.000000 m /six glyphshow
grestore
gsave
/o {
gsave
newpath
translate
0.8 setlinewidth
1 setlinejoin
0 setlinecap
0 0 m
-3.5 0 l

gsave
0.000 setgray
fill
grestore
stroke
grestore
} bind def
40.32 141.413 o
grestore
gsave
17.413750 137.616182 translate
0.000000 rotate
0.000000 0.000000 m /zero glyphshow
6.362305 0.000000 m /period glyphshow
9.541016 0.000000 m /eight glyphshow
grestore
gsave
11.335625 82.114312 translate
90.000000 rotate
0.000000 0.000000 m /c glyphshow
5.498047 0.000000 m /o glyphshow
11.616211 0.000000 m /u glyphshow
17.954102 0.000000 m /n glyphshow
24.291992 0.000000 m /t glyphshow
28.212891 0.000000 m /e glyphshow
34.365234 0.000000 m /r glyphshow
38.476562 0.000000 m /two glyphshow
grestore
gsave
40.320000 161.976000 translate
0.000000 rotate
0.000000 0.000000 m /one glyphshow
6.362305 0.000000 m /e glyphshow
12.514648 0.000000 m /eight glyphshow
grestore
1.500 setlinewidth
2 setlinecap
0.122 0.467 0.706 setrgbcolor
gsave
267.8 108.9 40.32 50.11 clipbox
40.32 61.081451 m
78.746724 55.060364 l
116.98227 62.032837 l
155.217816 62.219808 l
193.453362 64.610488 l
231.688908 63.482153 l
269.924454 65.599803 l
308.16 66.128487 l
stroke
grestore
1.000 0.498 0.055 setrgbcolor
gsave
267.8 108.9 40.32 50.11 clipbox
40.32 65.895095 m
78.746724 61.821846 l
116.98227 64.753156 l
155.217816 66.537751 l
193.453362 65.810289 l
231.688908 67.881243 l
269.924454 67.41554 l
308.16 71.266282 l
stroke
grestore
0.173 0.627 0.173 setrgbcolor
gsave
267.8 108.9 40.32 50.11 clipbox
40.32 71.902675 m
78.746724 64.197343 l
116.98227 73.963766 l
155.217816 72.801047 l
193.453362 74.331575 l
231.688908 73.319811 l
269.924454 72.773338 l
308.16 82.957622 l
stroke
grestore
0.839 0.153 0.157 setrgbcolor
gsave
267.8 108.9 40.32 50.11 clipbox
40.32 83.189554 m
78.746724 74.327952 l
116.98227 79.157795 l
155.217816 79.795231 l
193.453362 82.508057 l
231.688908 79.959151 l
269.924454 80.511044 l
308.16 89.797889 l
stroke
grestore
0.580 0.404 0.741 setrgbcolor
gsave
267.8 108.9 40.32 50.11 clipbox
40.32 88.93139 m
78.746724 79.554567 l
116.98227 87.499002 l
155.217816 87.689588 l
193.453362 87.979996 l
231.688908 97.60887 l
269.924454 91.08813 l
308.16 99.433491 l
stroke
grestore
0.549 0.337 0.294 setrgbcolor
gsave
267.8 108.9 40.32 50.11 clipbox
40.32 98.500251 m
78.746724 89.236229 l
116.98227 105.526804 l
155.217816 101.153943 l
193.453362 97.243616 l
231.688908 115.862413 l
269.924454 100.814834 l
308.16 99.721336 l
stroke
grestore
0.890 0.467 0.761 setrgbcolor
gsave
267.8 108.9 40.32 50.11 clipbox
40.32 104.179271 m
78.746724 97.642821 l
116.98227 102.762818 l
155.217816 101.103976 l
193.453362 114.072955 l
231.688908 114.331222 l
269.924454 110.790117 l
308.16 110.593964 l
stroke
grestore
0.498 setgray
gsave
267.8 108.9 40.32 50.11 clipbox
40.32 114.355612 m
78.746724 108.193305 l
116.98227 109.826928 l
155.217816 120.638419 l
193.453362 116.701293 l
231.688908 126.188417 l
269.924454 122.033523 l
308.16 123.841423 l
stroke
grestore
0.737 0.741 0.133 setrgbcolor
gsave
267.8 108.9 40.32 50.11 clipbox
40.32 122.173169 m
78.746724 121.283314 l
116.98227 120.134581 l
155.217816 126.639869 l
193.453362 141.234286 l
231.688908 154.027636 l
269.924454 146.812007 l
308.16 149.963969 l
stroke
grestore
0.800 setlinewidth
0 setlinejoin
[] 0 setdash
0.000 setgray
gsave
40.32 50.112 m
40.32 158.976 l
stroke
grestore
gsave
308.16 50.112 m
308.16 158.976 l
stroke
grestore
gsave
40.32 50.112 m
308.16 50.112 l
stroke
grestore
gsave
40.32 158.976 m
308.16 158.976 l
stroke
grestore
1.000 setlinewidth
0 setlinecap
0.800 setgray
gsave
341.944 37.020562 m
380.303375 37.020562 l
381.636708 37.020562 382.303375 37.687229 382.303375 39.020562 c
382.303375 170.067437 l
382.303375 171.400771 381.636708 172.067437 380.303375 172.067437 c
341.944 172.067437 l
340.610667 172.067437 339.944 171.400771 339.944 170.067437 c
339.944 39.020562 l
339.944 37.687229 340.610667 37.020562 341.944 37.020562 c
cl
gsave
1.000 setgray
fill
grestore
stroke
grestore
1.500 setlinewidth
1 setlinejoin
2 setlinecap
[] 0 setdash
0.122 0.467 0.706 setrgbcolor
gsave
343.944 163.973687 m
363.944 163.973687 l
stroke
grestore
0.000 setgray
gsave
371.944000 160.473687 translate
0.000000 rotate
0.000000 0.000000 m /zero glyphshow
grestore
1.000 0.498 0.055 setrgbcolor
gsave
343.944 149.301812 m
363.944 149.301812 l
stroke
grestore
0.000 setgray
gsave
371.944000 145.801812 translate
0.000000 rotate
0.000000 0.000000 m /one glyphshow
grestore
0.173 0.627 0.173 setrgbcolor
gsave
343.944 134.629937 m
363.944 134.629937 l
stroke
grestore
0.000 setgray
gsave
371.944000 131.129937 translate
0.000000 rotate
0.000000 0.000000 m /two glyphshow
grestore
0.839 0.153 0.157 setrgbcolor
gsave
343.944 119.958062 m
363.944 119.958062 l
stroke
grestore
0.000 setgray
gsave
371.944000 116.458062 translate
0.000000 rotate
0.000000 0.000000 m /three glyphshow
grestore
0.580 0.404 0.741 setrgbcolor
gsave
343.944 105.286187 m
363.944 105.286187 l
stroke
grestore
0.000 setgray
gsave
371.944000 101.786187 translate
0.000000 rotate
0.000000 0.000000 m /four glyphshow
grestore
0.549 0.337 0.294 setrgbcolor
gsave
343.944 90.614312 m
363.944 90.614312 l
stroke
grestore
0.000 setgray
gsave
371.944000 87.114312 translate
0.000000 rotate
0.000000 0.000000 m /five glyphshow
grestore
0.890 0.467 0.761 setrgbcolor
gsave
343.944 75.942437 m
363.944 75.942437 l
stroke
grestore
0.000 setgray
gsave
371.944000 72.442437 translate
0.000000 rotate
0.000000 0.000000 m /six glyphshow
grestore
0.498 setgray
gsave
343.944 61.270562 m
363.944 61.270562 l
stroke
grestore
0.000 setgray
gsave
371.944000 57.770562 translate
0.000000 rotate
0.000000 0.000000 m /seven glyphshow
grestore
0.737 0.741 0.133 setrgbcolor
gsave
343.944 46.598687 m
363.944 46.598687 l
stroke
grestore
0.000 setgray
gsave
371.944000 43.098687 translate
0.000000 rotate
0.000000 0.000000 m /eight glyphshow
grestore

end
showpage
