methodName,centroidNo,freqCounter,power,branch-misses
skip the method: org.sunflow.core.renderer.BucketRenderer.access$300
method: org.sunflow.core.renderer.BucketRenderer.renderBucketis considered
org.sunflow.core.renderer.BucketRenderer.renderBucket,0,2601000,17.341,17870470.667
org.sunflow.core.renderer.BucketRenderer.renderBucket,0,2400000,12.710,5521447.000
org.sunflow.core.renderer.BucketRenderer.renderBucket,0,2200000,11.545,21203950.423
org.sunflow.core.renderer.BucketRenderer.renderBucket,0,2000000,10.476,5121969.050
org.sunflow.core.renderer.BucketRenderer.renderBucket,0,1800000,9.535,19120327.637
org.sunflow.core.renderer.BucketRenderer.renderBucket,0,1600000,8.700,4122719.833
org.sunflow.core.renderer.BucketRenderer.renderBucket,0,1400000,8.156,3990113.163
org.sunflow.core.renderer.BucketRenderer.renderBucket,0,1200000,7.593,5068675.540
org.sunflow.core.renderer.BucketRenderer.renderBucket,1,2601000,17.393,5547114.800
skip the method: org.sunflow.core.gi.InstantGI.getIrradiance
skip the method: org.sunflow.core.ShadingState.diffuse
skip the method: org.sunflow.image.Color.blend
