methodName,centroidNo,freqCounter,energy,CacheMissRate
method: org.sunflow.core.renderer.BucketRenderer.renderBucketis considered
org.sunflow.core.renderer.BucketRenderer.renderBucket,0,2601000,5.607,0.164
org.sunflow.core.renderer.BucketRenderer.renderBucket,0,2400000,5.449,0.164
org.sunflow.core.renderer.BucketRenderer.renderBucket,0,2200000,4.290,0.172
org.sunflow.core.renderer.BucketRenderer.renderBucket,0,2000000,4.039,0.174
org.sunflow.core.renderer.BucketRenderer.renderBucket,0,1800000,3.807,0.170
org.sunflow.core.renderer.BucketRenderer.renderBucket,0,1600000,4.077,0.175
org.sunflow.core.renderer.BucketRenderer.renderBucket,0,1400000,4.281,0.174
org.sunflow.core.renderer.BucketRenderer.renderBucket,0,1200000,4.884,0.177
org.sunflow.core.renderer.BucketRenderer.renderBucket,1,2400000,13.102,0.159
org.sunflow.core.renderer.BucketRenderer.renderBucket,1,2200000,33.414,0.155
method: org.sunflow.core.renderer.BucketRenderer.access$300is considered
org.sunflow.core.renderer.BucketRenderer.access$300,0,1600000,4.004,0.181
