methodName,centroidNo,freqCounter,energy,cache-misses
method: org.sunflow.core.renderer.BucketRenderer.renderBucketis considered
org.sunflow.core.renderer.BucketRenderer.renderBucket,0,2601000,5.607,1275984.130
org.sunflow.core.renderer.BucketRenderer.renderBucket,0,2400000,5.449,1316826.632
org.sunflow.core.renderer.BucketRenderer.renderBucket,0,2200000,4.290,1172581.783
org.sunflow.core.renderer.BucketRenderer.renderBucket,0,2000000,4.039,1101222.342
org.sunflow.core.renderer.BucketRenderer.renderBucket,0,1800000,3.807,982951.652
org.sunflow.core.renderer.BucketRenderer.renderBucket,0,1400000,4.281,1029121.826
org.sunflow.core.renderer.BucketRenderer.renderBucket,0,1200000,4.940,1108850.408
org.sunflow.core.renderer.BucketRenderer.renderBucket,1,2400000,13.102,3122459.944
org.sunflow.core.renderer.BucketRenderer.renderBucket,1,2200000,33.414,7438291.600
method: org.sunflow.core.renderer.BucketRenderer.access$300is considered
org.sunflow.core.renderer.BucketRenderer.access$300,0,1600000,4.004,1071182.617
