methodName,centroidNo,freqCounter,energy,page-faults
method: org.sunflow.core.renderer.BucketRenderer.renderBucketis considered
org.sunflow.core.renderer.BucketRenderer.renderBucket,0,2601000,5.503,648.692
org.sunflow.core.renderer.BucketRenderer.renderBucket,0,2400000,4.192,65.149
org.sunflow.core.renderer.BucketRenderer.renderBucket,0,2200000,4.808,411.786
org.sunflow.core.renderer.BucketRenderer.renderBucket,0,2000000,4.095,794.167
org.sunflow.core.renderer.BucketRenderer.renderBucket,0,1800000,3.482,14.429
org.sunflow.core.renderer.BucketRenderer.renderBucket,0,1400000,4.334,62.305
org.sunflow.core.renderer.BucketRenderer.renderBucket,0,1200000,14.677,104.299
org.sunflow.core.renderer.BucketRenderer.renderBucket,1,2601000,33.765,6.625
org.sunflow.core.renderer.BucketRenderer.renderBucket,1,2200000,20.299,7.737
method: org.sunflow.core.renderer.BucketRenderer.access$300is considered
org.sunflow.core.renderer.BucketRenderer.access$300,0,1400000,4.112,86.000
