methodName,frequency,energy,power,counter1,counter2,counterRate,counterRateByTime,time
org.sunflow.core.renderer.BucketRenderer.renderBucket,2601000,10.672163017857144,17.191091014771427,245.96428571428572,0.0,0.0,0.7746625763428572,620.6428571428571
org.sunflow.core.renderer.BucketRenderer.renderBucket,2400000,12.688292779069766,12.520211787096512,636.2441860465116,0.0,0.0,0.6376110975988368,1013.8139534883721
org.sunflow.core.renderer.BucketRenderer.renderBucket,2200000,13.670956388349513,11.322315881958248,257.24271844660194,0.0,0.0,0.19981524699611664,1207.5436893203882
org.sunflow.core.renderer.BucketRenderer.renderBucket,2000000,14.662008936363636,10.260739183815456,517.9363636363636,0.0,0.0,0.5148045755118184,1428.1727272727273
org.sunflow.core.renderer.BucketRenderer.renderBucket,1800000,14.206733985185178,9.306890852814078,217.78518518518518,0.0,0.0,0.2096799653814814,1525.8444444444444
org.sunflow.core.renderer.BucketRenderer.renderBucket,1600000,12.049385282828293,8.462296676313134,118.8080808080808,0.0,0.0,0.05868827779646465,1422.9444444444443
org.sunflow.core.renderer.BucketRenderer.renderBucket,1400000,13.358675760638294,7.907076192381384,143.05851063829786,0.0,0.0,0.12639831116648936,1687.6170212765958
org.sunflow.core.renderer.BucketRenderer.renderBucket,1200000,13.615097816326534,7.359025784457655,361.93367346938777,0.0,0.0,0.11210678492908167,1847.311224489796
org.sunflow.core.Scene.getRadiance,2000000,0.003509833333333333,0.08669197462474747,0.020202020202020204,0.0,0.0,4.927322E-4,0.4090909090909091
