methodName,centroidNo,freqCounter,counter1,counter2
org.sunflow.core.renderer.BucketRenderer.renderBucket,0,2601000,1.0807049491023729E7,297.2142857142857
org.sunflow.core.renderer.BucketRenderer.renderBucket,0,2400000,8605613.792865653,380.04347826086956
org.sunflow.core.renderer.BucketRenderer.renderBucket,0,2200000,7900267.54210544,1273.3333333333333
org.sunflow.core.renderer.BucketRenderer.renderBucket,0,2000000,7166811.180217712,400.14814814814815
org.sunflow.core.renderer.BucketRenderer.renderBucket,0,1800000,6497254.784853922,701.375
org.sunflow.core.renderer.BucketRenderer.renderBucket,0,1600000,5762566.059313474,1726.148148148148
org.sunflow.core.renderer.BucketRenderer.renderBucket,0,1400000,5040374.554350339,529.046511627907
org.sunflow.core.renderer.BucketRenderer.renderBucket,0,1200000,4321549.2027351,671.8953488372093
org.sunflow.core.renderer.BucketRenderer.renderBucket,1,2601000,1.0837022752065E7,1978.0
org.sunflow.core.renderer.BucketRenderer.renderBucket,1,2400000,8662605.51930328,2295.2
org.sunflow.core.renderer.BucketRenderer.renderBucket,1,2200000,7906375.6493207645,3288.0
org.sunflow.core.renderer.BucketRenderer.renderBucket,1,2000000,7229296.678205096,3034.5555555555557
org.sunflow.core.renderer.BucketRenderer.renderBucket,1,1800000,6489841.1057062885,3789.4545454545455
org.sunflow.core.renderer.BucketRenderer.renderBucket,1,1600000,5829075.659402609,779.5416666666666
org.sunflow.core.renderer.BucketRenderer.renderBucket,1,1400000,5064021.735045065,4187.083333333333
org.sunflow.core.renderer.BucketRenderer.renderBucket,1,1200000,4325703.850420931,5214.3
org.sunflow.core.renderer.BucketRenderer.renderBucket,2,2601000,1.09294066390919E7,1339.0
org.sunflow.core.renderer.BucketRenderer.renderBucket,2,2400000,8678540.087831281,1033.4545454545455
org.sunflow.core.renderer.BucketRenderer.renderBucket,2,2200000,7873514.133242631,354.2962962962963
org.sunflow.core.renderer.BucketRenderer.renderBucket,2,2000000,7199497.598141876,2003.6363636363637
org.sunflow.core.renderer.BucketRenderer.renderBucket,2,1800000,6506219.385566579,2924.076923076923
org.sunflow.core.renderer.BucketRenderer.renderBucket,2,1600000,5777038.226177305,3266.076923076923
org.sunflow.core.renderer.BucketRenderer.renderBucket,2,1400000,5065510.572181458,6374.5
org.sunflow.core.renderer.BucketRenderer.renderBucket,2,1200000,4342477.1266950015,3468.6470588235293
org.sunflow.core.renderer.BucketRenderer.renderBucket,3,2601000,1.0754851730674367E7,2502.6666666666665
org.sunflow.core.renderer.BucketRenderer.renderBucket,3,2400000,8623193.389792822,1667.6666666666667
org.sunflow.core.renderer.BucketRenderer.renderBucket,3,2200000,8045260.350128657,621.2857142857143
org.sunflow.core.renderer.BucketRenderer.renderBucket,3,2000000,7220229.29114779,1487.7692307692307
org.sunflow.core.renderer.BucketRenderer.renderBucket,3,1800000,6510264.736007591,1724.0
org.sunflow.core.renderer.BucketRenderer.renderBucket,3,1600000,5782532.4695076,6641.0
org.sunflow.core.renderer.BucketRenderer.renderBucket,3,1400000,5057386.047299706,3198.777777777778
org.sunflow.core.renderer.BucketRenderer.renderBucket,3,1200000,4355412.967801043,1353.4242424242425
org.sunflow.core.renderer.BucketRenderer.renderBucket,4,2601000,1.07751879752604E7,768.0
org.sunflow.core.renderer.BucketRenderer.renderBucket,4,2400000,8606317.398296895,1313.0
org.sunflow.core.renderer.BucketRenderer.renderBucket,4,2200000,7904458.369607055,2182.6666666666665
org.sunflow.core.renderer.BucketRenderer.renderBucket,4,2000000,7228867.406146431,3841.2
org.sunflow.core.renderer.BucketRenderer.renderBucket,4,1800000,6511727.993109867,967.0833333333334
org.sunflow.core.renderer.BucketRenderer.renderBucket,4,1600000,5750314.321266737,457.01428571428573
org.sunflow.core.renderer.BucketRenderer.renderBucket,4,1400000,5041801.793881313,1337.1538461538462
org.sunflow.core.renderer.BucketRenderer.renderBucket,4,1200000,4377657.96277754,9188.0
org.sunflow.core.renderer.BucketRenderer.renderBucket,5,2601000,1.076316101427615E7,1702.5
org.sunflow.core.renderer.BucketRenderer.renderBucket,5,2400000,8717742.58436274,2946.0
org.sunflow.core.renderer.BucketRenderer.renderBucket,5,2200000,7999849.306878582,938.8888888888889
org.sunflow.core.renderer.BucketRenderer.renderBucket,5,2000000,7209087.314605103,2465.285714285714
org.sunflow.core.renderer.BucketRenderer.renderBucket,5,1800000,6487791.989263851,443.25
org.sunflow.core.renderer.BucketRenderer.renderBucket,5,1600000,5803760.893775936,3897.777777777778
org.sunflow.core.renderer.BucketRenderer.renderBucket,5,1400000,5081992.985237948,941.1851851851852
org.sunflow.core.renderer.BucketRenderer.renderBucket,5,1200000,4329169.233947146,2440.212121212121
org.sunflow.core.renderer.BucketRenderer.renderBucket,6,2601000,1.0720473190289877E7,356.55555555555554
org.sunflow.core.renderer.BucketRenderer.renderBucket,6,2400000,8635831.210194837,662.125
org.sunflow.core.renderer.BucketRenderer.renderBucket,6,2200000,7946969.985214434,2698.3333333333335
org.sunflow.core.renderer.BucketRenderer.renderBucket,6,2000000,7230474.9451732375,1024.4615384615386
org.sunflow.core.renderer.BucketRenderer.renderBucket,6,1800000,6426183.529328898,336.6666666666667
org.sunflow.core.renderer.BucketRenderer.renderBucket,6,1600000,5782976.060512689,1203.0
org.sunflow.core.renderer.BucketRenderer.renderBucket,6,1400000,5054815.885165072,2412.2272727272725
org.sunflow.core.renderer.BucketRenderer.renderBucket,6,1200000,4340318.426993977,7182.0
org.sunflow.core.renderer.BucketRenderer.renderBucket,7,2601000,1.10365701813148E7,614.0
org.sunflow.core.renderer.BucketRenderer.renderBucket,7,2400000,8724976.585548287,1961.4
org.sunflow.core.renderer.BucketRenderer.renderBucket,7,2200000,7943615.3172350535,1679.2857142857142
org.sunflow.core.renderer.BucketRenderer.renderBucket,7,2000000,7367297.411087389,554.8571428571429
org.sunflow.core.renderer.BucketRenderer.renderBucket,7,1800000,6523633.474987755,1289.5714285714287
org.sunflow.core.renderer.BucketRenderer.renderBucket,7,1600000,5803417.025802711,2376.0
org.sunflow.core.renderer.BucketRenderer.renderBucket,7,1400000,5081151.3125135405,5045.0
org.sunflow.core.renderer.BucketRenderer.renderBucket,7,1200000,4330151.3401804,6168.0
org.sunflow.core.renderer.BucketRenderer.renderBucket,8,2601000,1.0950667141615551E7,434.0
org.sunflow.core.renderer.BucketRenderer.renderBucket,8,2400000,8657672.45766604,3318.0
org.sunflow.core.renderer.BucketRenderer.renderBucket,8,2200000,7825959.023801008,450.53846153846155
org.sunflow.core.renderer.BucketRenderer.renderBucket,8,2000000,7288541.985185984,724.2727272727273
org.sunflow.core.renderer.BucketRenderer.renderBucket,8,1800000,6513283.686767821,2185.6666666666665
org.sunflow.core.renderer.BucketRenderer.renderBucket,8,1600000,5790621.105613913,4771.0
org.sunflow.core.renderer.BucketRenderer.renderBucket,8,1400000,5067984.755519995,1785.0
org.sunflow.core.renderer.BucketRenderer.renderBucket,8,1200000,4337536.4007233,4391.888888888889
