methodName,centroidNo,freqCounter,counter1,counter2
org.sunflow.core.renderer.BucketRenderer.renderBucket,0,2601000,3418737.5099956766,17.1580919066
org.sunflow.core.renderer.BucketRenderer.renderBucket,0,2400000,3642248.7060544915,12.528226482033332
org.sunflow.core.renderer.BucketRenderer.renderBucket,0,2200000,3633291.458037681,11.326161520600001
org.sunflow.core.renderer.BucketRenderer.renderBucket,0,2000000,3608161.614059335,10.25598730325
org.sunflow.core.renderer.BucketRenderer.renderBucket,0,1800000,3599613.0846827943,9.274481032573132
org.sunflow.core.renderer.BucketRenderer.renderBucket,0,1600000,3628457.341151178,8.4714948724375
org.sunflow.core.renderer.BucketRenderer.renderBucket,0,1400000,3462143.5285792397,8.838480071616305
org.sunflow.core.renderer.BucketRenderer.renderBucket,0,1200000,3462753.341172996,8.745226757049998
org.sunflow.core.renderer.BucketRenderer.renderBucket,1,2601000,3596098.67116507,17.2051367894
org.sunflow.core.renderer.BucketRenderer.renderBucket,1,2400000,3634887.262654095,12.5434034722
org.sunflow.core.renderer.BucketRenderer.renderBucket,1,2200000,3651814.9637964815,11.371076663847997
org.sunflow.core.renderer.BucketRenderer.renderBucket,1,2000000,3590985.543729722,10.286461206973911
org.sunflow.core.renderer.BucketRenderer.renderBucket,1,1800000,3636244.973674698,9.286020257566665
org.sunflow.core.renderer.BucketRenderer.renderBucket,1,1600000,3646537.7322762506,8.476432632636364
org.sunflow.core.renderer.BucketRenderer.renderBucket,1,1400000,3612325.0928704417,8.23117356281
org.sunflow.core.renderer.BucketRenderer.renderBucket,1,1200000,3253373.5655487236,9.56827243735
org.sunflow.core.renderer.BucketRenderer.renderBucket,2,2601000,3590520.41043724,17.2438942172
org.sunflow.core.renderer.BucketRenderer.renderBucket,2,2400000,3613729.4952872344,12.5154783817
org.sunflow.core.renderer.BucketRenderer.renderBucket,2,2200000,3629409.714157065,11.310921230214285
org.sunflow.core.renderer.BucketRenderer.renderBucket,2,2000000,3626903.998626912,10.323808319533333
org.sunflow.core.renderer.BucketRenderer.renderBucket,2,1800000,3652386.0942631587,9.290678230349998
org.sunflow.core.renderer.BucketRenderer.renderBucket,2,1600000,3636686.9104075585,8.473476272627273
org.sunflow.core.renderer.BucketRenderer.renderBucket,2,1400000,3519289.8596463,7.9946094855
org.sunflow.core.renderer.BucketRenderer.renderBucket,2,1200000,3350170.827560876,9.492466280755556
org.sunflow.core.renderer.BucketRenderer.renderBucket,3,2601000,3520675.4343203665,17.1892023046
org.sunflow.core.renderer.BucketRenderer.renderBucket,3,2400000,3633972.822005159,12.527747741481818
org.sunflow.core.renderer.BucketRenderer.renderBucket,3,2200000,3655099.0289943097,11.339549006239999
org.sunflow.core.renderer.BucketRenderer.renderBucket,3,2000000,3599576.477033506,10.26433468635
org.sunflow.core.renderer.BucketRenderer.renderBucket,3,1800000,3646249.2195104985,9.285845149947617
org.sunflow.core.renderer.BucketRenderer.renderBucket,3,1600000,3625690.41613946,8.4947628286
org.sunflow.core.renderer.BucketRenderer.renderBucket,3,1400000,3591099.2236301433,8.143270003343334
org.sunflow.core.renderer.BucketRenderer.renderBucket,3,1200000,3423417.742520215,8.523122891027777
org.sunflow.core.renderer.BucketRenderer.renderBucket,4,2601000,3726372.13375959,17.39812393435
org.sunflow.core.renderer.BucketRenderer.renderBucket,4,2400000,3617563.8041066797,12.520618662555556
org.sunflow.core.renderer.BucketRenderer.renderBucket,4,2200000,3619724.767063287,11.3014765595
org.sunflow.core.renderer.BucketRenderer.renderBucket,4,2000000,3625546.2996098003,10.339198819533335
org.sunflow.core.renderer.BucketRenderer.renderBucket,4,1800000,3637512.881669452,9.280140753480001
org.sunflow.core.renderer.BucketRenderer.renderBucket,4,1600000,3614754.932546982,8.466458173153752
org.sunflow.core.renderer.BucketRenderer.renderBucket,4,1400000,3582838.8596081445,8.15450621357778
org.sunflow.core.renderer.BucketRenderer.renderBucket,4,1200000,3575325.042626705,7.9477335028
org.sunflow.core.renderer.BucketRenderer.renderBucket,5,2601000,3574785.2059896803,17.1894439499
org.sunflow.core.renderer.BucketRenderer.renderBucket,5,2400000,3616985.093171697,12.535376576625
org.sunflow.core.renderer.BucketRenderer.renderBucket,5,2200000,3620788.579227808,11.3152784326375
org.sunflow.core.renderer.BucketRenderer.renderBucket,5,2000000,3624861.3250943352,10.299486832077779
org.sunflow.core.renderer.BucketRenderer.renderBucket,5,1800000,3637913.189869668,9.292809258364516
org.sunflow.core.renderer.BucketRenderer.renderBucket,5,1600000,3573809.044917998,8.440812472240001
org.sunflow.core.renderer.BucketRenderer.renderBucket,5,1400000,3575407.6747826496,8.297860878711113
org.sunflow.core.renderer.BucketRenderer.renderBucket,5,1200000,3247361.1456070654,10.342773908441178
org.sunflow.core.renderer.BucketRenderer.renderBucket,6,2601000,3643663.4550687987,17.36545770576667
org.sunflow.core.renderer.BucketRenderer.renderBucket,6,2400000,3625805.1944205547,12.50419013135
org.sunflow.core.renderer.BucketRenderer.renderBucket,6,2200000,3623790.8770037354,11.334241846074999
org.sunflow.core.renderer.BucketRenderer.renderBucket,6,2000000,3626928.9552936302,10.3042457847125
org.sunflow.core.renderer.BucketRenderer.renderBucket,6,1800000,3641979.35980374,9.3052576776
org.sunflow.core.renderer.BucketRenderer.renderBucket,6,1600000,3639178.2406768026,8.462904919024998
org.sunflow.core.renderer.BucketRenderer.renderBucket,6,1400000,3651357.007034146,7.920811050199999
org.sunflow.core.renderer.BucketRenderer.renderBucket,6,1200000,3627305.13681745,7.4343686676
org.sunflow.core.renderer.BucketRenderer.renderBucket,7,2601000,3595548.190868738,17.217677968479997
org.sunflow.core.renderer.BucketRenderer.renderBucket,7,2400000,3605456.3973883167,12.500268597833335
org.sunflow.core.renderer.BucketRenderer.renderBucket,7,2200000,3617120.44064908,11.340758295899999
org.sunflow.core.renderer.BucketRenderer.renderBucket,7,2000000,3604679.1084415955,10.255385298361539
org.sunflow.core.renderer.BucketRenderer.renderBucket,7,1800000,3626936.140924686,9.286796441095
org.sunflow.core.renderer.BucketRenderer.renderBucket,7,1600000,3629618.6162444293,8.474588227624999
org.sunflow.core.renderer.BucketRenderer.renderBucket,7,1400000,3616855.408425132,7.965181455766666
org.sunflow.core.renderer.BucketRenderer.renderBucket,7,1200000,3456262.3986666566,8.533958022286665
org.sunflow.core.renderer.BucketRenderer.renderBucket,8,2601000,3677627.3867595834,17.410952380933335
org.sunflow.core.renderer.BucketRenderer.renderBucket,8,2400000,3619287.615556176,12.52438475608
org.sunflow.core.renderer.BucketRenderer.renderBucket,8,2200000,3626881.3572481796,11.314844338433334
org.sunflow.core.renderer.BucketRenderer.renderBucket,8,2000000,3628026.7696805373,10.3332826586
org.sunflow.core.renderer.BucketRenderer.renderBucket,8,1800000,3653507.1584179453,9.285014733916666
org.sunflow.core.renderer.BucketRenderer.renderBucket,8,1600000,3642838.3380481377,8.473457393625
org.sunflow.core.renderer.BucketRenderer.renderBucket,8,1400000,3510913.75174355,8.2582794567
org.sunflow.core.renderer.BucketRenderer.renderBucket,8,1200000,3388455.709003398,8.947818997433336
