methodName,centroidNo,freqCounter,counter1,counter2
org.sunflow.core.renderer.BucketRenderer.renderBucket,0,2601000,1.0791554175701363E7,2601000.0
org.sunflow.core.renderer.BucketRenderer.renderBucket,0,2400000,8597689.676298607,2400000.0
org.sunflow.core.renderer.BucketRenderer.renderBucket,0,2200000,8000913.454423487,2200000.0
org.sunflow.core.renderer.BucketRenderer.renderBucket,0,2000000,7245798.420463079,2000000.0
org.sunflow.core.renderer.BucketRenderer.renderBucket,0,1800000,6495553.351760609,1800000.0
org.sunflow.core.renderer.BucketRenderer.renderBucket,0,1600000,5828355.819617627,1600000.0
org.sunflow.core.renderer.BucketRenderer.renderBucket,0,1400000,5057137.121343582,1400000.0
org.sunflow.core.renderer.BucketRenderer.renderBucket,0,1200000,4337158.972371232,1200000.0
org.sunflow.core.renderer.BucketRenderer.renderBucket,1,2601000,1.07780445725267E7,2601000.0
org.sunflow.core.renderer.BucketRenderer.renderBucket,1,2400000,8589755.134602603,2400000.0
org.sunflow.core.renderer.BucketRenderer.renderBucket,1,2200000,7924055.36634171,2200000.0
org.sunflow.core.renderer.BucketRenderer.renderBucket,1,2000000,7166811.180217712,2000000.0
org.sunflow.core.renderer.BucketRenderer.renderBucket,1,1800000,6515051.4420739105,1800000.0
org.sunflow.core.renderer.BucketRenderer.renderBucket,1,1600000,5778612.618343638,1600000.0
org.sunflow.core.renderer.BucketRenderer.renderBucket,1,1400000,5040374.554350339,1400000.0
org.sunflow.core.renderer.BucketRenderer.renderBucket,1,1200000,4333848.462658065,1200000.0
org.sunflow.core.renderer.BucketRenderer.renderBucket,2,2601000,1.09294066390919E7,2601000.0
org.sunflow.core.renderer.BucketRenderer.renderBucket,2,2400000,8657672.45766604,2400000.0
org.sunflow.core.renderer.BucketRenderer.renderBucket,2,2200000,7880617.047135858,2200000.0
org.sunflow.core.renderer.BucketRenderer.renderBucket,2,2000000,7200205.327094306,2000000.0
org.sunflow.core.renderer.BucketRenderer.renderBucket,2,1800000,6499078.344464645,1800000.0
org.sunflow.core.renderer.BucketRenderer.renderBucket,2,1600000,5807073.486024624,1600000.0
org.sunflow.core.renderer.BucketRenderer.renderBucket,2,1400000,5065014.7084070565,1400000.0
org.sunflow.core.renderer.BucketRenderer.renderBucket,2,1200000,4327107.851551189,1200000.0
org.sunflow.core.renderer.BucketRenderer.renderBucket,3,2601000,1.07751879752604E7,2601000.0
org.sunflow.core.renderer.BucketRenderer.renderBucket,3,2400000,8680032.325153064,2400000.0
org.sunflow.core.renderer.BucketRenderer.renderBucket,3,2200000,7906375.6493207645,2200000.0
org.sunflow.core.renderer.BucketRenderer.renderBucket,3,2000000,7256077.318723206,2000000.0
org.sunflow.core.renderer.BucketRenderer.renderBucket,3,1800000,6527043.503029376,1800000.0
org.sunflow.core.renderer.BucketRenderer.renderBucket,3,1600000,5784602.058497585,1600000.0
org.sunflow.core.renderer.BucketRenderer.renderBucket,3,1400000,5036850.919053061,1400000.0
org.sunflow.core.renderer.BucketRenderer.renderBucket,3,1200000,4324855.086317345,1200000.0
org.sunflow.core.renderer.BucketRenderer.renderBucket,4,2601000,1.08255432730502E7,2601000.0
org.sunflow.core.renderer.BucketRenderer.renderBucket,4,2400000,8722826.454713328,2400000.0
org.sunflow.core.renderer.BucketRenderer.renderBucket,4,2200000,7946969.985214434,2200000.0
org.sunflow.core.renderer.BucketRenderer.renderBucket,4,2000000,7174500.033471816,2000000.0
org.sunflow.core.renderer.BucketRenderer.renderBucket,4,1800000,6498372.293135375,1800000.0
org.sunflow.core.renderer.BucketRenderer.renderBucket,4,1600000,5791035.548874332,1600000.0
org.sunflow.core.renderer.BucketRenderer.renderBucket,4,1400000,5060241.269433481,1400000.0
org.sunflow.core.renderer.BucketRenderer.renderBucket,4,1200000,4377657.96277754,1200000.0
org.sunflow.core.renderer.BucketRenderer.renderBucket,5,2601000,1.077064047122898E7,2601000.0
org.sunflow.core.renderer.BucketRenderer.renderBucket,5,2400000,8662605.51930328,2400000.0
org.sunflow.core.renderer.BucketRenderer.renderBucket,5,2200000,7890412.648844746,2200000.0
org.sunflow.core.renderer.BucketRenderer.renderBucket,5,2000000,7256178.071216576,2000000.0
org.sunflow.core.renderer.BucketRenderer.renderBucket,5,1800000,6454766.99575908,1800000.0
org.sunflow.core.renderer.BucketRenderer.renderBucket,5,1600000,5757425.008420419,1600000.0
org.sunflow.core.renderer.BucketRenderer.renderBucket,5,1400000,5079578.740401442,1400000.0
org.sunflow.core.renderer.BucketRenderer.renderBucket,5,1200000,4354536.841555925,1200000.0
org.sunflow.core.renderer.BucketRenderer.renderBucket,6,2601000,1.07084660469697E7,2601000.0
org.sunflow.core.renderer.BucketRenderer.renderBucket,6,2400000,8604555.206398934,2400000.0
org.sunflow.core.renderer.BucketRenderer.renderBucket,6,2200000,7900267.54210544,2200000.0
org.sunflow.core.renderer.BucketRenderer.renderBucket,6,2000000,7219284.184668699,2000000.0
org.sunflow.core.renderer.BucketRenderer.renderBucket,6,1800000,6504534.431536862,1800000.0
org.sunflow.core.renderer.BucketRenderer.renderBucket,6,1600000,5800520.888949147,1600000.0
org.sunflow.core.renderer.BucketRenderer.renderBucket,6,1400000,5056227.952427745,1400000.0
org.sunflow.core.renderer.BucketRenderer.renderBucket,6,1200000,4338134.980236887,1200000.0
org.sunflow.core.renderer.BucketRenderer.renderBucket,7,2601000,1.07237377135317E7,2601000.0
org.sunflow.core.renderer.BucketRenderer.renderBucket,7,2400000,8724976.585548287,2400000.0
org.sunflow.core.renderer.BucketRenderer.renderBucket,7,2200000,7943615.3172350535,2200000.0
org.sunflow.core.renderer.BucketRenderer.renderBucket,7,2000000,7339243.68654389,2000000.0
org.sunflow.core.renderer.BucketRenderer.renderBucket,7,1800000,6477280.912614757,1800000.0
org.sunflow.core.renderer.BucketRenderer.renderBucket,7,1600000,5750314.321266737,1600000.0
org.sunflow.core.renderer.BucketRenderer.renderBucket,7,1400000,5101010.777041021,1400000.0
org.sunflow.core.renderer.BucketRenderer.renderBucket,7,1200000,4341251.583156314,1200000.0
org.sunflow.core.renderer.BucketRenderer.renderBucket,8,2601000,1.10365701813148E7,2601000.0
org.sunflow.core.renderer.BucketRenderer.renderBucket,8,2400000,8717742.58436274,2400000.0
org.sunflow.core.renderer.BucketRenderer.renderBucket,8,2200000,7921335.571966016,2200000.0
org.sunflow.core.renderer.BucketRenderer.renderBucket,8,2000000,7229848.65012817,2000000.0
org.sunflow.core.renderer.BucketRenderer.renderBucket,8,1800000,6508269.630664133,1800000.0
org.sunflow.core.renderer.BucketRenderer.renderBucket,8,1600000,5782532.4695076,1600000.0
org.sunflow.core.renderer.BucketRenderer.renderBucket,8,1400000,5067984.755519995,1400000.0
org.sunflow.core.renderer.BucketRenderer.renderBucket,8,1200000,4327854.071533838,1200000.0
