methodName,centroidNo,freqCounter,counter1,counter2
org.sunflow.core.renderer.BucketRenderer.renderBucket,0,2601000,0.008118801871428572,2601000.0
org.sunflow.core.renderer.BucketRenderer.renderBucket,0,2400000,4.7578125,2400000.0
org.sunflow.core.renderer.BucketRenderer.renderBucket,0,2200000,0.34156913172500003,2200000.0
org.sunflow.core.renderer.BucketRenderer.renderBucket,0,2000000,0.04287881113636363,2000000.0
org.sunflow.core.renderer.BucketRenderer.renderBucket,0,1800000,9.0945054945,1800000.0
org.sunflow.core.renderer.BucketRenderer.renderBucket,0,1600000,0.008249711195999997,1600000.0
org.sunflow.core.renderer.BucketRenderer.renderBucket,0,1400000,0.21386674214931503,1400000.0
org.sunflow.core.renderer.BucketRenderer.renderBucket,0,1200000,0.0035426705319148936,1200000.0
org.sunflow.core.renderer.BucketRenderer.renderBucket,1,2601000,10.4748241766,2601000.0
org.sunflow.core.renderer.BucketRenderer.renderBucket,1,2400000,0.020044885276923084,2400000.0
org.sunflow.core.renderer.BucketRenderer.renderBucket,1,2200000,0.08352810459512196,2200000.0
org.sunflow.core.renderer.BucketRenderer.renderBucket,1,2000000,0.028046201580769235,2000000.0
org.sunflow.core.renderer.BucketRenderer.renderBucket,1,1800000,0.005656718286363636,1800000.0
org.sunflow.core.renderer.BucketRenderer.renderBucket,1,1600000,0.07421531505977014,1600000.0
org.sunflow.core.renderer.BucketRenderer.renderBucket,1,1400000,0.9487884087,1400000.0
org.sunflow.core.renderer.BucketRenderer.renderBucket,1,1200000,0.0028612303,1200000.0
org.sunflow.core.renderer.BucketRenderer.renderBucket,2,2601000,0.0041809198,2601000.0
org.sunflow.core.renderer.BucketRenderer.renderBucket,2,2400000,1.006297137309091,2400000.0
org.sunflow.core.renderer.BucketRenderer.renderBucket,2,2200000,0.022424373942857144,2200000.0
org.sunflow.core.renderer.BucketRenderer.renderBucket,2,2000000,3.1612902053,2000000.0
org.sunflow.core.renderer.BucketRenderer.renderBucket,2,1800000,0.20384578669999998,1800000.0
org.sunflow.core.renderer.BucketRenderer.renderBucket,2,1600000,0.0033514204,1600000.0
org.sunflow.core.renderer.BucketRenderer.renderBucket,2,1400000,0.007626666418181819,1400000.0
org.sunflow.core.renderer.BucketRenderer.renderBucket,2,1200000,2.572707874666667,1200000.0
org.sunflow.core.renderer.BucketRenderer.renderBucket,3,2601000,0.004692270533333333,2601000.0
org.sunflow.core.renderer.BucketRenderer.renderBucket,3,2400000,0.06406566545384615,2400000.0
org.sunflow.core.renderer.BucketRenderer.renderBucket,3,2200000,2.9588260669,2200000.0
org.sunflow.core.renderer.BucketRenderer.renderBucket,3,2000000,0.9984794066599999,2000000.0
org.sunflow.core.renderer.BucketRenderer.renderBucket,3,1800000,0.004227911014285714,1800000.0
org.sunflow.core.renderer.BucketRenderer.renderBucket,3,1600000,1.1260117747333334,1600000.0
org.sunflow.core.renderer.BucketRenderer.renderBucket,3,1400000,0.020727476079999998,1400000.0
org.sunflow.core.renderer.BucketRenderer.renderBucket,3,1200000,0.004819812875,1200000.0
org.sunflow.core.renderer.BucketRenderer.renderBucket,4,2601000,11.5954198473,2601000.0
org.sunflow.core.renderer.BucketRenderer.renderBucket,4,2400000,1.7068363184250002,2400000.0
org.sunflow.core.renderer.BucketRenderer.renderBucket,4,2200000,0.8265493744500001,2200000.0
org.sunflow.core.renderer.BucketRenderer.renderBucket,4,2000000,4.567340375633333,2000000.0
org.sunflow.core.renderer.BucketRenderer.renderBucket,4,1800000,0.0044444430111111105,1800000.0
org.sunflow.core.renderer.BucketRenderer.renderBucket,4,1600000,0.010253301475000002,1600000.0
org.sunflow.core.renderer.BucketRenderer.renderBucket,4,1400000,1.9196920986,1400000.0
org.sunflow.core.renderer.BucketRenderer.renderBucket,4,1200000,1.574488189,1200000.0
org.sunflow.core.renderer.BucketRenderer.renderBucket,5,2601000,0.00448659825,2601000.0
org.sunflow.core.renderer.BucketRenderer.renderBucket,5,2400000,1.3465188267250001,2400000.0
org.sunflow.core.renderer.BucketRenderer.renderBucket,5,2200000,0.004606513188888889,2200000.0
org.sunflow.core.renderer.BucketRenderer.renderBucket,5,2000000,1.8258242012500001,2000000.0
org.sunflow.core.renderer.BucketRenderer.renderBucket,5,1800000,6.47017819175,1800000.0
org.sunflow.core.renderer.BucketRenderer.renderBucket,5,1600000,0.015476784506250002,1600000.0
org.sunflow.core.renderer.BucketRenderer.renderBucket,5,1400000,0.01025687032121212,1400000.0
org.sunflow.core.renderer.BucketRenderer.renderBucket,5,1200000,0.0037233811363636374,1200000.0
org.sunflow.core.renderer.BucketRenderer.renderBucket,6,2601000,0.0052258019,2601000.0
org.sunflow.core.renderer.BucketRenderer.renderBucket,6,2400000,8.450476888266667,2400000.0
org.sunflow.core.renderer.BucketRenderer.renderBucket,6,2200000,0.0047437132166666665,2200000.0
org.sunflow.core.renderer.BucketRenderer.renderBucket,6,2000000,0.1692260710916667,2000000.0
org.sunflow.core.renderer.BucketRenderer.renderBucket,6,1800000,0.037811835155555557,1800000.0
org.sunflow.core.renderer.BucketRenderer.renderBucket,6,1600000,0.004305177728571428,1600000.0
org.sunflow.core.renderer.BucketRenderer.renderBucket,6,1400000,0.007592729776,1400000.0
org.sunflow.core.renderer.BucketRenderer.renderBucket,6,1200000,1.37082684665,1200000.0
org.sunflow.core.renderer.BucketRenderer.renderBucket,7,2601000,0.0053629541,2601000.0
org.sunflow.core.renderer.BucketRenderer.renderBucket,7,2400000,0.0067360746,2400000.0
org.sunflow.core.renderer.BucketRenderer.renderBucket,7,2200000,0.006297792633333334,2200000.0
org.sunflow.core.renderer.BucketRenderer.renderBucket,7,2000000,0.021793091637500005,2000000.0
org.sunflow.core.renderer.BucketRenderer.renderBucket,7,1800000,0.07154625863870964,1800000.0
org.sunflow.core.renderer.BucketRenderer.renderBucket,7,1600000,0.9403594771,1600000.0
org.sunflow.core.renderer.BucketRenderer.renderBucket,7,1400000,0.018307275142307695,1400000.0
org.sunflow.core.renderer.BucketRenderer.renderBucket,7,1200000,4.49626850015,1200000.0
org.sunflow.core.renderer.BucketRenderer.renderBucket,8,2601000,0.003642145275,2601000.0
org.sunflow.core.renderer.BucketRenderer.renderBucket,8,2400000,0.009764869084848487,2400000.0
org.sunflow.core.renderer.BucketRenderer.renderBucket,8,2200000,0.022702858900000004,2200000.0
org.sunflow.core.renderer.BucketRenderer.renderBucket,8,2000000,0.69096976234,2000000.0
org.sunflow.core.renderer.BucketRenderer.renderBucket,8,1800000,0.0039041047937500004,1800000.0
org.sunflow.core.renderer.BucketRenderer.renderBucket,8,1600000,0.006391643158620688,1600000.0
org.sunflow.core.renderer.BucketRenderer.renderBucket,8,1400000,0.0436560274,1400000.0
org.sunflow.core.renderer.BucketRenderer.renderBucket,8,1200000,0.0060095137235849075,1200000.0
