%!PS-Adobe-3.0 EPSF-3.0
%%Title: /home/kenan/working/mathcalculator/data/sunflow/fig/CPUCyclesByTime_cpu-cycles_HeatMap_DVFS.eps
%%Creator: matplotlib version 2.0.0, http://matplotlib.org/
%%CreationDate: Wed Jun 14 10:46:48 2017
%%Orientation: portrait
%%BoundingBox: 75 223 536 568
%%EndComments
%%BeginProlog
/mpldict 8 dict def
mpldict begin
/m { moveto } bind def
/l { lineto } bind def
/r { rlineto } bind def
/c { curveto } bind def
/cl { closepath } bind def
/box {
m
1 index 0 r
0 exch r
neg 0 r
cl
} bind def
/clipbox {
box
clip
newpath
} bind def
%!PS-Adobe-3.0 Resource-Font
%%Title: DejaVu Sans
%%Copyright: Copyright (c) 2003 by Bitstream, Inc. All Rights Reserved. Copyright (c) 2006 by Tavmjong Bah. All Rights Reserved. DejaVu changes are in public domain 
%%Creator: Converted from TrueType to type 3 by PPR
25 dict begin
/_d{bind def}bind def
/_m{moveto}_d
/_l{lineto}_d
/_cl{closepath eofill}_d
/_c{curveto}_d
/_sc{7 -1 roll{setcachedevice}{pop pop pop pop pop pop}ifelse}_d
/_e{exec}_d
/FontName /DejaVuSans def
/PaintType 0 def
/FontMatrix[.001 0 0 .001 0 0]def
/FontBBox[-1021 -463 1793 1232]def
/FontType 3 def
/Encoding [ /hyphen /period /zero /one /two /three /four /five /six /seven /eight /nine /B /C /D /F /H /M /P /S /T /U /V /underscore /a /c /e /i /l /m /p /s /t /u /y ] def
/FontInfo 10 dict dup begin
/FamilyName (DejaVu Sans) def
/FullName (DejaVu Sans) def
/Notice (Copyright (c) 2003 by Bitstream, Inc. All Rights Reserved. Copyright (c) 2006 by Tavmjong Bah. All Rights Reserved. DejaVu changes are in public domain ) def
/Weight (Book) def
/Version (Version 2.35) def
/ItalicAngle 0.0 def
/isFixedPitch false def
/UnderlinePosition -130 def
/UnderlineThickness 90 def
end readonly def
/CharStrings 35 dict dup begin
/hyphen{361 0 49 234 312 314 _sc
49 314 _m
312 314 _l
312 234 _l
49 234 _l
49 314 _l
_cl}_d
/period{318 0 107 0 210 124 _sc
107 124 _m
210 124 _l
210 0 _l
107 0 _l
107 124 _l
_cl}_d
/zero{636 0 66 -13 570 742 _sc
318 664 _m
267 664 229 639 203 589 _c
177 539 165 464 165 364 _c
165 264 177 189 203 139 _c
229 89 267 64 318 64 _c
369 64 407 89 433 139 _c
458 189 471 264 471 364 _c
471 464 458 539 433 589 _c
407 639 369 664 318 664 _c
318 742 _m
399 742 461 709 505 645 _c
548 580 570 486 570 364 _c
570 241 548 147 505 83 _c
461 19 399 -13 318 -13 _c
236 -13 173 19 130 83 _c
87 147 66 241 66 364 _c
66 486 87 580 130 645 _c
173 709 236 742 318 742 _c
_cl}_d
/one{636 0 110 0 544 729 _sc
124 83 _m
285 83 _l
285 639 _l
110 604 _l
110 694 _l
284 729 _l
383 729 _l
383 83 _l
544 83 _l
544 0 _l
124 0 _l
124 83 _l
_cl}_d
/two{{636 0 73 0 536 742 _sc
192 83 _m
536 83 _l
536 0 _l
73 0 _l
73 83 _l
110 121 161 173 226 239 _c
290 304 331 346 348 365 _c
380 400 402 430 414 455 _c
426 479 433 504 433 528 _c
433 566 419 598 392 622 _c
365 646 330 659 286 659 _c
255 659 222 653 188 643 _c
154 632 117 616 78 594 _c
78 694 _l
118 710 155 722 189 730 _c
223 738 255 742 284 742 _c
}_e{359 742 419 723 464 685 _c
509 647 532 597 532 534 _c
532 504 526 475 515 449 _c
504 422 484 390 454 354 _c
446 344 420 317 376 272 _c
332 227 271 164 192 83 _c
_cl}_e}_d
/three{{636 0 76 -13 556 742 _sc
406 393 _m
453 383 490 362 516 330 _c
542 298 556 258 556 212 _c
556 140 531 84 482 45 _c
432 6 362 -13 271 -13 _c
240 -13 208 -10 176 -4 _c
144 1 110 10 76 22 _c
76 117 _l
103 101 133 89 166 81 _c
198 73 232 69 268 69 _c
330 69 377 81 409 105 _c
441 129 458 165 458 212 _c
458 254 443 288 413 312 _c
383 336 341 349 287 349 _c
}_e{202 349 _l
202 430 _l
291 430 _l
339 430 376 439 402 459 _c
428 478 441 506 441 543 _c
441 580 427 609 401 629 _c
374 649 336 659 287 659 _c
260 659 231 656 200 650 _c
169 644 135 635 98 623 _c
98 711 _l
135 721 170 729 203 734 _c
235 739 266 742 296 742 _c
370 742 429 725 473 691 _c
517 657 539 611 539 553 _c
539 513 527 479 504 451 _c
481 423 448 403 406 393 _c
_cl}_e}_d
/four{636 0 49 0 580 729 _sc
378 643 _m
129 254 _l
378 254 _l
378 643 _l
352 729 _m
476 729 _l
476 254 _l
580 254 _l
580 172 _l
476 172 _l
476 0 _l
378 0 _l
378 172 _l
49 172 _l
49 267 _l
352 729 _l
_cl}_d
/five{{636 0 77 -13 549 729 _sc
108 729 _m
495 729 _l
495 646 _l
198 646 _l
198 467 _l
212 472 227 476 241 478 _c
255 480 270 482 284 482 _c
365 482 429 459 477 415 _c
525 370 549 310 549 234 _c
549 155 524 94 475 51 _c
426 8 357 -13 269 -13 _c
238 -13 207 -10 175 -6 _c
143 -1 111 6 77 17 _c
77 116 _l
106 100 136 88 168 80 _c
199 72 232 69 267 69 _c
}_e{323 69 368 83 401 113 _c
433 143 450 183 450 234 _c
450 284 433 324 401 354 _c
368 384 323 399 267 399 _c
241 399 214 396 188 390 _c
162 384 135 375 108 363 _c
108 729 _l
_cl}_e}_d
/six{{636 0 70 -13 573 742 _sc
330 404 _m
286 404 251 388 225 358 _c
199 328 186 286 186 234 _c
186 181 199 139 225 109 _c
251 79 286 64 330 64 _c
374 64 409 79 435 109 _c
461 139 474 181 474 234 _c
474 286 461 328 435 358 _c
409 388 374 404 330 404 _c
526 713 _m
526 623 _l
501 635 476 644 451 650 _c
425 656 400 659 376 659 _c
310 659 260 637 226 593 _c
}_e{192 549 172 482 168 394 _c
187 422 211 444 240 459 _c
269 474 301 482 336 482 _c
409 482 467 459 509 415 _c
551 371 573 310 573 234 _c
573 159 550 99 506 54 _c
462 9 403 -13 330 -13 _c
246 -13 181 19 137 83 _c
92 147 70 241 70 364 _c
70 479 97 571 152 639 _c
206 707 280 742 372 742 _c
396 742 421 739 447 735 _c
472 730 498 723 526 713 _c
_cl}_e}_d
/seven{636 0 82 0 551 729 _sc
82 729 _m
551 729 _l
551 687 _l
286 0 _l
183 0 _l
432 646 _l
82 646 _l
82 729 _l
_cl}_d
/eight{{636 0 68 -13 568 742 _sc
318 346 _m
271 346 234 333 207 308 _c
180 283 167 249 167 205 _c
167 161 180 126 207 101 _c
234 76 271 64 318 64 _c
364 64 401 76 428 102 _c
455 127 469 161 469 205 _c
469 249 455 283 429 308 _c
402 333 365 346 318 346 _c
219 388 _m
177 398 144 418 120 447 _c
96 476 85 511 85 553 _c
85 611 105 657 147 691 _c
188 725 245 742 318 742 _c
}_e{390 742 447 725 489 691 _c
530 657 551 611 551 553 _c
551 511 539 476 515 447 _c
491 418 459 398 417 388 _c
464 377 501 355 528 323 _c
554 291 568 251 568 205 _c
568 134 546 80 503 43 _c
459 5 398 -13 318 -13 _c
237 -13 175 5 132 43 _c
89 80 68 134 68 205 _c
68 251 81 291 108 323 _c
134 355 171 377 219 388 _c
183 544 _m
183 506 194 476 218 455 _c
}_e{242 434 275 424 318 424 _c
360 424 393 434 417 455 _c
441 476 453 506 453 544 _c
453 582 441 611 417 632 _c
393 653 360 664 318 664 _c
275 664 242 653 218 632 _c
194 611 183 582 183 544 _c
_cl}_e}_d
/nine{{636 0 63 -13 566 742 _sc
110 15 _m
110 105 _l
134 93 159 84 185 78 _c
210 72 235 69 260 69 _c
324 69 374 90 408 134 _c
442 178 462 244 468 334 _c
448 306 424 284 396 269 _c
367 254 335 247 300 247 _c
226 247 168 269 126 313 _c
84 357 63 417 63 494 _c
63 568 85 628 129 674 _c
173 719 232 742 306 742 _c
390 742 455 709 499 645 _c
543 580 566 486 566 364 _c
}_e{566 248 538 157 484 89 _c
429 21 356 -13 264 -13 _c
239 -13 214 -10 189 -6 _c
163 -2 137 5 110 15 _c
306 324 _m
350 324 385 339 411 369 _c
437 399 450 441 450 494 _c
450 546 437 588 411 618 _c
385 648 350 664 306 664 _c
262 664 227 648 201 618 _c
175 588 162 546 162 494 _c
162 441 175 399 201 369 _c
227 339 262 324 306 324 _c
_cl}_e}_d
/B{{686 0 98 0 615 729 _sc
197 348 _m
197 81 _l
355 81 _l
408 81 447 92 473 114 _c
498 136 511 169 511 215 _c
511 260 498 293 473 315 _c
447 337 408 348 355 348 _c
197 348 _l
197 648 _m
197 428 _l
343 428 _l
391 428 426 437 450 455 _c
474 473 486 500 486 538 _c
486 574 474 602 450 620 _c
426 638 391 648 343 648 _c
197 648 _l
98 729 _m
350 729 _l
}_e{425 729 483 713 524 682 _c
564 650 585 606 585 549 _c
585 504 574 468 553 442 _c
532 416 502 399 462 393 _c
510 382 548 360 575 327 _c
601 294 615 253 615 204 _c
615 138 592 88 548 53 _c
504 17 441 0 360 0 _c
98 0 _l
98 729 _l
_cl}_e}_d
/C{{698 0 56 -13 644 742 _sc
644 673 _m
644 569 _l
610 599 575 622 537 638 _c
499 653 460 661 418 661 _c
334 661 270 635 226 584 _c
182 533 160 460 160 364 _c
160 268 182 194 226 143 _c
270 92 334 67 418 67 _c
460 67 499 74 537 90 _c
575 105 610 128 644 159 _c
644 56 _l
609 32 572 15 534 4 _c
496 -7 455 -13 412 -13 _c
302 -13 215 20 151 87 _c
}_e{87 154 56 246 56 364 _c
56 481 87 573 151 641 _c
215 708 302 742 412 742 _c
456 742 497 736 535 725 _c
573 713 610 696 644 673 _c
_cl}_e}_d
/D{770 0 98 0 711 729 _sc
197 648 _m
197 81 _l
316 81 _l
416 81 490 103 537 149 _c
583 195 607 267 607 365 _c
607 463 583 534 537 580 _c
490 625 416 648 316 648 _c
197 648 _l
98 729 _m
301 729 _l
442 729 546 699 612 641 _c
678 582 711 490 711 365 _c
711 239 677 147 611 88 _c
545 29 441 0 301 0 _c
98 0 _l
98 729 _l
_cl}_d
/F{575 0 98 0 517 729 _sc
98 729 _m
517 729 _l
517 646 _l
197 646 _l
197 431 _l
486 431 _l
486 348 _l
197 348 _l
197 0 _l
98 0 _l
98 729 _l
_cl}_d
/H{752 0 98 0 654 729 _sc
98 729 _m
197 729 _l
197 430 _l
555 430 _l
555 729 _l
654 729 _l
654 0 _l
555 0 _l
555 347 _l
197 347 _l
197 0 _l
98 0 _l
98 729 _l
_cl}_d
/M{863 0 98 0 765 729 _sc
98 729 _m
245 729 _l
431 233 _l
618 729 _l
765 729 _l
765 0 _l
669 0 _l
669 640 _l
481 140 _l
382 140 _l
194 640 _l
194 0 _l
98 0 _l
98 729 _l
_cl}_d
/P{603 0 98 0 569 729 _sc
197 648 _m
197 374 _l
321 374 _l
367 374 402 385 427 409 _c
452 433 465 467 465 511 _c
465 555 452 588 427 612 _c
402 636 367 648 321 648 _c
197 648 _l
98 729 _m
321 729 _l
402 729 464 710 506 673 _c
548 636 569 582 569 511 _c
569 439 548 384 506 348 _c
464 311 402 293 321 293 _c
197 293 _l
197 0 _l
98 0 _l
98 729 _l
_cl}_d
/S{{635 0 66 -13 579 742 _sc
535 705 _m
535 609 _l
497 627 462 640 429 649 _c
395 657 363 662 333 662 _c
279 662 237 651 208 631 _c
179 610 165 580 165 542 _c
165 510 174 485 194 469 _c
213 452 250 439 304 429 _c
364 417 _l
437 403 491 378 526 343 _c
561 307 579 260 579 201 _c
579 130 555 77 508 41 _c
460 5 391 -13 300 -13 _c
265 -13 228 -9 189 -2 _c
}_e{150 5 110 16 69 32 _c
69 134 _l
109 111 148 94 186 83 _c
224 71 262 66 300 66 _c
356 66 399 77 430 99 _c
460 121 476 152 476 194 _c
476 230 465 258 443 278 _c
421 298 385 313 335 323 _c
275 335 _l
201 349 148 372 115 404 _c
82 435 66 478 66 534 _c
66 598 88 649 134 686 _c
179 723 242 742 322 742 _c
356 742 390 739 426 733 _c
461 727 497 717 535 705 _c
}_e{_cl}_e}_d
/T{611 0 -2 0 614 729 _sc
-2 729 _m
614 729 _l
614 646 _l
355 646 _l
355 0 _l
256 0 _l
256 646 _l
-2 646 _l
-2 729 _l
_cl}_d
/U{732 0 87 -13 645 729 _sc
87 729 _m
186 729 _l
186 286 _l
186 208 200 151 228 117 _c
256 83 302 66 366 66 _c
429 66 475 83 503 117 _c
531 151 546 208 546 286 _c
546 729 _l
645 729 _l
645 274 _l
645 178 621 107 574 59 _c
527 11 458 -13 366 -13 _c
274 -13 204 11 157 59 _c
110 107 87 178 87 274 _c
87 729 _l
_cl}_d
/V{684 0 8 0 676 729 _sc
286 0 _m
8 729 _l
111 729 _l
342 115 _l
573 729 _l
676 729 _l
398 0 _l
286 0 _l
_cl}_d
/underscore{500 0 -9 -235 510 -165 _sc
510 -165 _m
510 -235 _l
-9 -235 _l
-9 -165 _l
510 -165 _l
_cl}_d
/a{{613 0 60 -13 522 560 _sc
343 275 _m
270 275 220 266 192 250 _c
164 233 150 205 150 165 _c
150 133 160 107 181 89 _c
202 70 231 61 267 61 _c
317 61 357 78 387 114 _c
417 149 432 196 432 255 _c
432 275 _l
343 275 _l
522 312 _m
522 0 _l
432 0 _l
432 83 _l
411 49 385 25 355 10 _c
325 -5 287 -13 243 -13 _c
187 -13 142 2 109 33 _c
76 64 60 106 60 159 _c
}_e{60 220 80 266 122 298 _c
163 329 224 345 306 345 _c
432 345 _l
432 354 _l
432 395 418 427 391 450 _c
364 472 326 484 277 484 _c
245 484 215 480 185 472 _c
155 464 127 453 100 439 _c
100 522 _l
132 534 164 544 195 550 _c
226 556 256 560 286 560 _c
365 560 424 539 463 498 _c
502 457 522 395 522 312 _c
_cl}_e}_d
/c{{550 0 55 -13 488 560 _sc
488 526 _m
488 442 _l
462 456 437 466 411 473 _c
385 480 360 484 334 484 _c
276 484 230 465 198 428 _c
166 391 150 339 150 273 _c
150 206 166 154 198 117 _c
230 80 276 62 334 62 _c
360 62 385 65 411 72 _c
437 79 462 90 488 104 _c
488 21 _l
462 9 436 0 410 -5 _c
383 -10 354 -13 324 -13 _c
242 -13 176 12 128 64 _c
}_e{79 115 55 185 55 273 _c
55 362 79 432 128 483 _c
177 534 244 560 330 560 _c
358 560 385 557 411 551 _c
437 545 463 537 488 526 _c
_cl}_e}_d
/e{{615 0 55 -13 562 560 _sc
562 296 _m
562 252 _l
149 252 _l
153 190 171 142 205 110 _c
238 78 284 62 344 62 _c
378 62 412 66 444 74 _c
476 82 509 95 541 113 _c
541 28 _l
509 14 476 3 442 -3 _c
408 -9 373 -13 339 -13 _c
251 -13 182 12 131 62 _c
80 112 55 181 55 268 _c
55 357 79 428 127 481 _c
175 533 241 560 323 560 _c
397 560 455 536 498 489 _c
}_e{540 441 562 377 562 296 _c
472 322 _m
471 371 457 410 431 440 _c
404 469 368 484 324 484 _c
274 484 234 469 204 441 _c
174 413 156 373 152 322 _c
472 322 _l
_cl}_e}_d
/i{278 0 94 0 184 760 _sc
94 547 _m
184 547 _l
184 0 _l
94 0 _l
94 547 _l
94 760 _m
184 760 _l
184 646 _l
94 646 _l
94 760 _l
_cl}_d
/l{278 0 94 0 184 760 _sc
94 760 _m
184 760 _l
184 0 _l
94 0 _l
94 760 _l
_cl}_d
/m{{974 0 91 0 889 560 _sc
520 442 _m
542 482 569 511 600 531 _c
631 550 668 560 711 560 _c
767 560 811 540 842 500 _c
873 460 889 403 889 330 _c
889 0 _l
799 0 _l
799 327 _l
799 379 789 418 771 444 _c
752 469 724 482 686 482 _c
639 482 602 466 575 435 _c
548 404 535 362 535 309 _c
535 0 _l
445 0 _l
445 327 _l
445 379 435 418 417 444 _c
398 469 369 482 331 482 _c
}_e{285 482 248 466 221 435 _c
194 404 181 362 181 309 _c
181 0 _l
91 0 _l
91 547 _l
181 547 _l
181 462 _l
201 495 226 520 255 536 _c
283 552 317 560 357 560 _c
397 560 430 550 458 530 _c
486 510 506 480 520 442 _c
_cl}_e}_d
/p{{635 0 91 -207 580 560 _sc
181 82 _m
181 -207 _l
91 -207 _l
91 547 _l
181 547 _l
181 464 _l
199 496 223 520 252 536 _c
281 552 316 560 356 560 _c
422 560 476 533 518 481 _c
559 428 580 359 580 273 _c
580 187 559 117 518 65 _c
476 13 422 -13 356 -13 _c
316 -13 281 -5 252 10 _c
223 25 199 49 181 82 _c
487 273 _m
487 339 473 390 446 428 _c
418 466 381 485 334 485 _c
}_e{286 485 249 466 222 428 _c
194 390 181 339 181 273 _c
181 207 194 155 222 117 _c
249 79 286 61 334 61 _c
381 61 418 79 446 117 _c
473 155 487 207 487 273 _c
_cl}_e}_d
/s{{521 0 54 -13 472 560 _sc
443 531 _m
443 446 _l
417 458 391 468 364 475 _c
336 481 308 485 279 485 _c
234 485 200 478 178 464 _c
156 450 145 430 145 403 _c
145 382 153 366 169 354 _c
185 342 217 330 265 320 _c
296 313 _l
360 299 405 279 432 255 _c
458 230 472 195 472 151 _c
472 100 452 60 412 31 _c
372 1 316 -13 246 -13 _c
216 -13 186 -10 154 -5 _c
}_e{122 0 89 8 54 20 _c
54 113 _l
87 95 120 82 152 74 _c
184 65 216 61 248 61 _c
290 61 323 68 346 82 _c
368 96 380 117 380 144 _c
380 168 371 187 355 200 _c
339 213 303 226 247 238 _c
216 245 _l
160 257 119 275 95 299 _c
70 323 58 356 58 399 _c
58 450 76 490 112 518 _c
148 546 200 560 268 560 _c
301 560 332 557 362 552 _c
391 547 418 540 443 531 _c
}_e{_cl}_e}_d
/t{392 0 27 0 368 702 _sc
183 702 _m
183 547 _l
368 547 _l
368 477 _l
183 477 _l
183 180 _l
183 135 189 106 201 94 _c
213 81 238 75 276 75 _c
368 75 _l
368 0 _l
276 0 _l
206 0 158 13 132 39 _c
106 65 93 112 93 180 _c
93 477 _l
27 477 _l
27 547 _l
93 547 _l
93 702 _l
183 702 _l
_cl}_d
/u{634 0 85 -13 543 560 _sc
85 216 _m
85 547 _l
175 547 _l
175 219 _l
175 167 185 129 205 103 _c
225 77 255 64 296 64 _c
344 64 383 79 411 110 _c
439 141 453 183 453 237 _c
453 547 _l
543 547 _l
543 0 _l
453 0 _l
453 84 _l
431 50 405 26 377 10 _c
348 -5 315 -13 277 -13 _c
214 -13 166 6 134 45 _c
101 83 85 140 85 216 _c
311 560 _m
311 560 _l
_cl}_d
/y{592 0 30 -207 562 547 _sc
322 -50 _m
296 -114 271 -157 247 -177 _c
223 -197 191 -207 151 -207 _c
79 -207 _l
79 -132 _l
132 -132 _l
156 -132 175 -126 189 -114 _c
203 -102 218 -75 235 -31 _c
251 9 _l
30 547 _l
125 547 _l
296 119 _l
467 547 _l
562 547 _l
322 -50 _l
_cl}_d
end readonly def

/BuildGlyph
 {exch begin
 CharStrings exch
 2 copy known not{pop /.notdef}if
 true 3 1 roll get exec
 end}_d

/BuildChar {
 1 index /Encoding get exch get
 1 index /BuildGlyph get exec
}_d

FontName currentdict end definefont pop
end
%%EndProlog
mpldict begin
75.6 223.2 translate
460.8 345.6 0 0 clipbox
gsave
0 0 m
460.8 0 l
460.8 345.6 l
0 345.6 l
cl
1.000 setgray
fill
grestore
gsave
164.736 64.6272 m
432.576 64.6272 l
432.576 277.5168 l
164.736 277.5168 l
cl
1.000 setgray
fill
grestore
gsave
267.8 212.9 164.7 64.63 clipbox
164.736 277.5168 m
164.736 256.22784 l
198.216 256.22784 l
198.216 277.5168 l
164.736 277.5168 l
cl
1.000 setgray
fill
grestore
gsave
267.8 212.9 164.7 64.63 clipbox
198.216 277.5168 m
198.216 256.22784 l
231.696 256.22784 l
231.696 277.5168 l
198.216 277.5168 l
cl
1.000 setgray
fill
grestore
gsave
267.8 212.9 164.7 64.63 clipbox
231.696 277.5168 m
231.696 256.22784 l
265.176 256.22784 l
265.176 277.5168 l
231.696 277.5168 l
cl
1.000 setgray
fill
grestore
gsave
267.8 212.9 164.7 64.63 clipbox
265.176 277.5168 m
265.176 256.22784 l
298.656 256.22784 l
298.656 277.5168 l
265.176 277.5168 l
cl
1.000 setgray
fill
grestore
gsave
267.8 212.9 164.7 64.63 clipbox
298.656 277.5168 m
298.656 256.22784 l
332.136 256.22784 l
332.136 277.5168 l
298.656 277.5168 l
cl
1.000 setgray
fill
grestore
gsave
267.8 212.9 164.7 64.63 clipbox
332.136 277.5168 m
332.136 256.22784 l
365.616 256.22784 l
365.616 277.5168 l
332.136 277.5168 l
cl
1.000 setgray
fill
grestore
gsave
267.8 212.9 164.7 64.63 clipbox
365.616 277.5168 m
365.616 256.22784 l
399.096 256.22784 l
399.096 277.5168 l
365.616 277.5168 l
cl
1.000 setgray
fill
grestore
gsave
267.8 212.9 164.7 64.63 clipbox
399.096 277.5168 m
399.096 256.22784 l
432.576 256.22784 l
432.576 277.5168 l
399.096 277.5168 l
cl
1.000 setgray
fill
grestore
gsave
267.8 212.9 164.7 64.63 clipbox
164.736 256.22784 m
164.736 234.93888 l
198.216 234.93888 l
198.216 256.22784 l
164.736 256.22784 l
cl
1.000 setgray
fill
grestore
gsave
267.8 212.9 164.7 64.63 clipbox
198.216 256.22784 m
198.216 234.93888 l
231.696 234.93888 l
231.696 256.22784 l
198.216 256.22784 l
cl
1.000 setgray
fill
grestore
gsave
267.8 212.9 164.7 64.63 clipbox
231.696 256.22784 m
231.696 234.93888 l
265.176 234.93888 l
265.176 256.22784 l
231.696 256.22784 l
cl
1.000 setgray
fill
grestore
gsave
267.8 212.9 164.7 64.63 clipbox
265.176 256.22784 m
265.176 234.93888 l
298.656 234.93888 l
298.656 256.22784 l
265.176 256.22784 l
cl
1.000 setgray
fill
grestore
gsave
267.8 212.9 164.7 64.63 clipbox
298.656 256.22784 m
298.656 234.93888 l
332.136 234.93888 l
332.136 256.22784 l
298.656 256.22784 l
cl
1.000 setgray
fill
grestore
gsave
267.8 212.9 164.7 64.63 clipbox
332.136 256.22784 m
332.136 234.93888 l
365.616 234.93888 l
365.616 256.22784 l
332.136 256.22784 l
cl
1.000 setgray
fill
grestore
gsave
267.8 212.9 164.7 64.63 clipbox
365.616 256.22784 m
365.616 234.93888 l
399.096 234.93888 l
399.096 256.22784 l
365.616 256.22784 l
cl
1.000 setgray
fill
grestore
gsave
267.8 212.9 164.7 64.63 clipbox
399.096 256.22784 m
399.096 234.93888 l
432.576 234.93888 l
432.576 256.22784 l
399.096 256.22784 l
cl
1.000 setgray
fill
grestore
gsave
267.8 212.9 164.7 64.63 clipbox
164.736 234.93888 m
164.736 213.64992 l
198.216 213.64992 l
198.216 234.93888 l
164.736 234.93888 l
cl
0.502 setgray
fill
grestore
gsave
267.8 212.9 164.7 64.63 clipbox
198.216 234.93888 m
198.216 213.64992 l
231.696 213.64992 l
231.696 234.93888 l
198.216 234.93888 l
cl
0.502 setgray
fill
grestore
gsave
267.8 212.9 164.7 64.63 clipbox
231.696 234.93888 m
231.696 213.64992 l
265.176 213.64992 l
265.176 234.93888 l
231.696 234.93888 l
cl
1.000 setgray
fill
grestore
gsave
267.8 212.9 164.7 64.63 clipbox
265.176 234.93888 m
265.176 213.64992 l
298.656 213.64992 l
298.656 234.93888 l
265.176 234.93888 l
cl
1.000 setgray
fill
grestore
gsave
267.8 212.9 164.7 64.63 clipbox
298.656 234.93888 m
298.656 213.64992 l
332.136 213.64992 l
332.136 234.93888 l
298.656 234.93888 l
cl
1.000 setgray
fill
grestore
gsave
267.8 212.9 164.7 64.63 clipbox
332.136 234.93888 m
332.136 213.64992 l
365.616 213.64992 l
365.616 234.93888 l
332.136 234.93888 l
cl
1.000 setgray
fill
grestore
gsave
267.8 212.9 164.7 64.63 clipbox
365.616 234.93888 m
365.616 213.64992 l
399.096 213.64992 l
399.096 234.93888 l
365.616 234.93888 l
cl
1.000 setgray
fill
grestore
gsave
267.8 212.9 164.7 64.63 clipbox
399.096 234.93888 m
399.096 213.64992 l
432.576 213.64992 l
432.576 234.93888 l
399.096 234.93888 l
cl
1.000 setgray
fill
grestore
gsave
267.8 212.9 164.7 64.63 clipbox
164.736 213.64992 m
164.736 192.36096 l
198.216 192.36096 l
198.216 213.64992 l
164.736 213.64992 l
cl
1.000 setgray
fill
grestore
gsave
267.8 212.9 164.7 64.63 clipbox
198.216 213.64992 m
198.216 192.36096 l
231.696 192.36096 l
231.696 213.64992 l
198.216 213.64992 l
cl
1.000 setgray
fill
grestore
gsave
267.8 212.9 164.7 64.63 clipbox
231.696 213.64992 m
231.696 192.36096 l
265.176 192.36096 l
265.176 213.64992 l
231.696 213.64992 l
cl
0.502 setgray
fill
grestore
gsave
267.8 212.9 164.7 64.63 clipbox
265.176 213.64992 m
265.176 192.36096 l
298.656 192.36096 l
298.656 213.64992 l
265.176 213.64992 l
cl
1.000 setgray
fill
grestore
gsave
267.8 212.9 164.7 64.63 clipbox
298.656 213.64992 m
298.656 192.36096 l
332.136 192.36096 l
332.136 213.64992 l
298.656 213.64992 l
cl
1.000 setgray
fill
grestore
gsave
267.8 212.9 164.7 64.63 clipbox
332.136 213.64992 m
332.136 192.36096 l
365.616 192.36096 l
365.616 213.64992 l
332.136 213.64992 l
cl
1.000 setgray
fill
grestore
gsave
267.8 212.9 164.7 64.63 clipbox
365.616 213.64992 m
365.616 192.36096 l
399.096 192.36096 l
399.096 213.64992 l
365.616 213.64992 l
cl
1.000 setgray
fill
grestore
gsave
267.8 212.9 164.7 64.63 clipbox
399.096 213.64992 m
399.096 192.36096 l
432.576 192.36096 l
432.576 213.64992 l
399.096 213.64992 l
cl
1.000 setgray
fill
grestore
gsave
267.8 212.9 164.7 64.63 clipbox
164.736 192.36096 m
164.736 171.072 l
198.216 171.072 l
198.216 192.36096 l
164.736 192.36096 l
cl
1.000 setgray
fill
grestore
gsave
267.8 212.9 164.7 64.63 clipbox
198.216 192.36096 m
198.216 171.072 l
231.696 171.072 l
231.696 192.36096 l
198.216 192.36096 l
cl
1.000 setgray
fill
grestore
gsave
267.8 212.9 164.7 64.63 clipbox
231.696 192.36096 m
231.696 171.072 l
265.176 171.072 l
265.176 192.36096 l
231.696 192.36096 l
cl
1.000 setgray
fill
grestore
gsave
267.8 212.9 164.7 64.63 clipbox
265.176 192.36096 m
265.176 171.072 l
298.656 171.072 l
298.656 192.36096 l
265.176 192.36096 l
cl
0.502 setgray
fill
grestore
gsave
267.8 212.9 164.7 64.63 clipbox
298.656 192.36096 m
298.656 171.072 l
332.136 171.072 l
332.136 192.36096 l
298.656 192.36096 l
cl
1.000 setgray
fill
grestore
gsave
267.8 212.9 164.7 64.63 clipbox
332.136 192.36096 m
332.136 171.072 l
365.616 171.072 l
365.616 192.36096 l
332.136 192.36096 l
cl
1.000 setgray
fill
grestore
gsave
267.8 212.9 164.7 64.63 clipbox
365.616 192.36096 m
365.616 171.072 l
399.096 171.072 l
399.096 192.36096 l
365.616 192.36096 l
cl
1.000 setgray
fill
grestore
gsave
267.8 212.9 164.7 64.63 clipbox
399.096 192.36096 m
399.096 171.072 l
432.576 171.072 l
432.576 192.36096 l
399.096 192.36096 l
cl
1.000 setgray
fill
grestore
gsave
267.8 212.9 164.7 64.63 clipbox
164.736 171.072 m
164.736 149.78304 l
198.216 149.78304 l
198.216 171.072 l
164.736 171.072 l
cl
1.000 setgray
fill
grestore
gsave
267.8 212.9 164.7 64.63 clipbox
198.216 171.072 m
198.216 149.78304 l
231.696 149.78304 l
231.696 171.072 l
198.216 171.072 l
cl
1.000 setgray
fill
grestore
gsave
267.8 212.9 164.7 64.63 clipbox
231.696 171.072 m
231.696 149.78304 l
265.176 149.78304 l
265.176 171.072 l
231.696 171.072 l
cl
1.000 setgray
fill
grestore
gsave
267.8 212.9 164.7 64.63 clipbox
265.176 171.072 m
265.176 149.78304 l
298.656 149.78304 l
298.656 171.072 l
265.176 171.072 l
cl
1.000 setgray
fill
grestore
gsave
267.8 212.9 164.7 64.63 clipbox
298.656 171.072 m
298.656 149.78304 l
332.136 149.78304 l
332.136 171.072 l
298.656 171.072 l
cl
1.000 setgray
fill
grestore
gsave
267.8 212.9 164.7 64.63 clipbox
332.136 171.072 m
332.136 149.78304 l
365.616 149.78304 l
365.616 171.072 l
332.136 171.072 l
cl
1.000 setgray
fill
grestore
gsave
267.8 212.9 164.7 64.63 clipbox
365.616 171.072 m
365.616 149.78304 l
399.096 149.78304 l
399.096 171.072 l
365.616 171.072 l
cl
1.000 setgray
fill
grestore
gsave
267.8 212.9 164.7 64.63 clipbox
399.096 171.072 m
399.096 149.78304 l
432.576 149.78304 l
432.576 171.072 l
399.096 171.072 l
cl
1.000 setgray
fill
grestore
gsave
267.8 212.9 164.7 64.63 clipbox
164.736 149.78304 m
164.736 128.49408 l
198.216 128.49408 l
198.216 149.78304 l
164.736 149.78304 l
cl
1.000 setgray
fill
grestore
gsave
267.8 212.9 164.7 64.63 clipbox
198.216 149.78304 m
198.216 128.49408 l
231.696 128.49408 l
231.696 149.78304 l
198.216 149.78304 l
cl
1.000 setgray
fill
grestore
gsave
267.8 212.9 164.7 64.63 clipbox
231.696 149.78304 m
231.696 128.49408 l
265.176 128.49408 l
265.176 149.78304 l
231.696 149.78304 l
cl
1.000 setgray
fill
grestore
gsave
267.8 212.9 164.7 64.63 clipbox
265.176 149.78304 m
265.176 128.49408 l
298.656 128.49408 l
298.656 149.78304 l
265.176 149.78304 l
cl
1.000 setgray
fill
grestore
gsave
267.8 212.9 164.7 64.63 clipbox
298.656 149.78304 m
298.656 128.49408 l
332.136 128.49408 l
332.136 149.78304 l
298.656 149.78304 l
cl
1.000 setgray
fill
grestore
gsave
267.8 212.9 164.7 64.63 clipbox
332.136 149.78304 m
332.136 128.49408 l
365.616 128.49408 l
365.616 149.78304 l
332.136 149.78304 l
cl
1.000 setgray
fill
grestore
gsave
267.8 212.9 164.7 64.63 clipbox
365.616 149.78304 m
365.616 128.49408 l
399.096 128.49408 l
399.096 149.78304 l
365.616 149.78304 l
cl
1.000 setgray
fill
grestore
gsave
267.8 212.9 164.7 64.63 clipbox
399.096 149.78304 m
399.096 128.49408 l
432.576 128.49408 l
432.576 149.78304 l
399.096 149.78304 l
cl
1.000 setgray
fill
grestore
gsave
267.8 212.9 164.7 64.63 clipbox
164.736 128.49408 m
164.736 107.20512 l
198.216 107.20512 l
198.216 128.49408 l
164.736 128.49408 l
cl
1.000 setgray
fill
grestore
gsave
267.8 212.9 164.7 64.63 clipbox
198.216 128.49408 m
198.216 107.20512 l
231.696 107.20512 l
231.696 128.49408 l
198.216 128.49408 l
cl
1.000 setgray
fill
grestore
gsave
267.8 212.9 164.7 64.63 clipbox
231.696 128.49408 m
231.696 107.20512 l
265.176 107.20512 l
265.176 128.49408 l
231.696 128.49408 l
cl
1.000 setgray
fill
grestore
gsave
267.8 212.9 164.7 64.63 clipbox
265.176 128.49408 m
265.176 107.20512 l
298.656 107.20512 l
298.656 128.49408 l
265.176 128.49408 l
cl
1.000 setgray
fill
grestore
gsave
267.8 212.9 164.7 64.63 clipbox
298.656 128.49408 m
298.656 107.20512 l
332.136 107.20512 l
332.136 128.49408 l
298.656 128.49408 l
cl
1.000 setgray
fill
grestore
gsave
267.8 212.9 164.7 64.63 clipbox
332.136 128.49408 m
332.136 107.20512 l
365.616 107.20512 l
365.616 128.49408 l
332.136 128.49408 l
cl
1.000 setgray
fill
grestore
gsave
267.8 212.9 164.7 64.63 clipbox
365.616 128.49408 m
365.616 107.20512 l
399.096 107.20512 l
399.096 128.49408 l
365.616 128.49408 l
cl
1.000 setgray
fill
grestore
gsave
267.8 212.9 164.7 64.63 clipbox
399.096 128.49408 m
399.096 107.20512 l
432.576 107.20512 l
432.576 128.49408 l
399.096 128.49408 l
cl
1.000 setgray
fill
grestore
gsave
267.8 212.9 164.7 64.63 clipbox
164.736 107.20512 m
164.736 85.91616 l
198.216 85.91616 l
198.216 107.20512 l
164.736 107.20512 l
cl
1.000 setgray
fill
grestore
gsave
267.8 212.9 164.7 64.63 clipbox
198.216 107.20512 m
198.216 85.91616 l
231.696 85.91616 l
231.696 107.20512 l
198.216 107.20512 l
cl
1.000 setgray
fill
grestore
gsave
267.8 212.9 164.7 64.63 clipbox
231.696 107.20512 m
231.696 85.91616 l
265.176 85.91616 l
265.176 107.20512 l
231.696 107.20512 l
cl
1.000 setgray
fill
grestore
gsave
267.8 212.9 164.7 64.63 clipbox
265.176 107.20512 m
265.176 85.91616 l
298.656 85.91616 l
298.656 107.20512 l
265.176 107.20512 l
cl
1.000 setgray
fill
grestore
gsave
267.8 212.9 164.7 64.63 clipbox
298.656 107.20512 m
298.656 85.91616 l
332.136 85.91616 l
332.136 107.20512 l
298.656 107.20512 l
cl
1.000 setgray
fill
grestore
gsave
267.8 212.9 164.7 64.63 clipbox
332.136 107.20512 m
332.136 85.91616 l
365.616 85.91616 l
365.616 107.20512 l
332.136 107.20512 l
cl
1.000 setgray
fill
grestore
gsave
267.8 212.9 164.7 64.63 clipbox
365.616 107.20512 m
365.616 85.91616 l
399.096 85.91616 l
399.096 107.20512 l
365.616 107.20512 l
cl
1.000 setgray
fill
grestore
gsave
267.8 212.9 164.7 64.63 clipbox
399.096 107.20512 m
399.096 85.91616 l
432.576 85.91616 l
432.576 107.20512 l
399.096 107.20512 l
cl
1.000 setgray
fill
grestore
gsave
267.8 212.9 164.7 64.63 clipbox
164.736 85.91616 m
164.736 64.6272 l
198.216 64.6272 l
198.216 85.91616 l
164.736 85.91616 l
cl
1.000 setgray
fill
grestore
gsave
267.8 212.9 164.7 64.63 clipbox
198.216 85.91616 m
198.216 64.6272 l
231.696 64.6272 l
231.696 85.91616 l
198.216 85.91616 l
cl
1.000 setgray
fill
grestore
gsave
267.8 212.9 164.7 64.63 clipbox
231.696 85.91616 m
231.696 64.6272 l
265.176 64.6272 l
265.176 85.91616 l
231.696 85.91616 l
cl
1.000 setgray
fill
grestore
gsave
267.8 212.9 164.7 64.63 clipbox
265.176 85.91616 m
265.176 64.6272 l
298.656 64.6272 l
298.656 85.91616 l
265.176 85.91616 l
cl
1.000 setgray
fill
grestore
gsave
267.8 212.9 164.7 64.63 clipbox
298.656 85.91616 m
298.656 64.6272 l
332.136 64.6272 l
332.136 85.91616 l
298.656 85.91616 l
cl
1.000 setgray
fill
grestore
gsave
267.8 212.9 164.7 64.63 clipbox
332.136 85.91616 m
332.136 64.6272 l
365.616 64.6272 l
365.616 85.91616 l
332.136 85.91616 l
cl
1.000 setgray
fill
grestore
gsave
267.8 212.9 164.7 64.63 clipbox
365.616 85.91616 m
365.616 64.6272 l
399.096 64.6272 l
399.096 85.91616 l
365.616 85.91616 l
cl
1.000 setgray
fill
grestore
gsave
267.8 212.9 164.7 64.63 clipbox
399.096 85.91616 m
399.096 64.6272 l
432.576 64.6272 l
432.576 85.91616 l
399.096 85.91616 l
cl
1.000 setgray
fill
grestore
0.800 setlinewidth
1 setlinejoin
0 setlinecap
[] 0 setdash
0.000 setgray
gsave
/o {
gsave
newpath
translate
0.8 setlinewidth
1 setlinejoin
0 setlinecap
0 0 m
0 3.5 l

gsave
0.000 setgray
fill
grestore
stroke
grestore
} bind def
181.476 277.517 o
grestore
/DejaVuSans findfont
10.000 scalefont
setfont
gsave
173.522875 286.594925 translate
0.000000 rotate
0.000000 0.000000 m /one glyphshow
6.362305 0.000000 m /period glyphshow
9.541016 0.000000 m /two glyphshow
grestore
gsave
/o {
gsave
newpath
translate
0.8 setlinewidth
1 setlinejoin
0 setlinecap
0 0 m
0 3.5 l

gsave
0.000 setgray
fill
grestore
stroke
grestore
} bind def
214.956 277.517 o
grestore
gsave
207.002875 286.594925 translate
0.000000 rotate
0.000000 0.000000 m /one glyphshow
6.362305 0.000000 m /period glyphshow
9.541016 0.000000 m /four glyphshow
grestore
gsave
/o {
gsave
newpath
translate
0.8 setlinewidth
1 setlinejoin
0 setlinecap
0 0 m
0 3.5 l

gsave
0.000 setgray
fill
grestore
stroke
grestore
} bind def
248.436 277.517 o
grestore
gsave
240.482875 286.594925 translate
0.000000 rotate
0.000000 0.000000 m /one glyphshow
6.362305 0.000000 m /period glyphshow
9.541016 0.000000 m /six glyphshow
grestore
gsave
/o {
gsave
newpath
translate
0.8 setlinewidth
1 setlinejoin
0 setlinecap
0 0 m
0 3.5 l

gsave
0.000 setgray
fill
grestore
stroke
grestore
} bind def
281.916 277.517 o
grestore
gsave
273.962875 286.594925 translate
0.000000 rotate
0.000000 0.000000 m /one glyphshow
6.362305 0.000000 m /period glyphshow
9.541016 0.000000 m /eight glyphshow
grestore
gsave
/o {
gsave
newpath
translate
0.8 setlinewidth
1 setlinejoin
0 setlinecap
0 0 m
0 3.5 l

gsave
0.000 setgray
fill
grestore
stroke
grestore
} bind def
315.396 277.517 o
grestore
gsave
307.442875 286.594925 translate
0.000000 rotate
0.000000 0.000000 m /two glyphshow
6.362305 0.000000 m /period glyphshow
9.541016 0.000000 m /zero glyphshow
grestore
gsave
/o {
gsave
newpath
translate
0.8 setlinewidth
1 setlinejoin
0 setlinecap
0 0 m
0 3.5 l

gsave
0.000 setgray
fill
grestore
stroke
grestore
} bind def
348.876 277.517 o
grestore
gsave
340.922875 286.594925 translate
0.000000 rotate
0.000000 0.000000 m /two glyphshow
6.362305 0.000000 m /period glyphshow
9.541016 0.000000 m /two glyphshow
grestore
gsave
/o {
gsave
newpath
translate
0.8 setlinewidth
1 setlinejoin
0 setlinecap
0 0 m
0 3.5 l

gsave
0.000 setgray
fill
grestore
stroke
grestore
} bind def
382.356 277.517 o
grestore
gsave
374.402875 286.594925 translate
0.000000 rotate
0.000000 0.000000 m /two glyphshow
6.362305 0.000000 m /period glyphshow
9.541016 0.000000 m /four glyphshow
grestore
gsave
/o {
gsave
newpath
translate
0.8 setlinewidth
1 setlinejoin
0 setlinecap
0 0 m
0 3.5 l

gsave
0.000 setgray
fill
grestore
stroke
grestore
} bind def
415.836 277.517 o
grestore
gsave
407.882875 286.594925 translate
0.000000 rotate
0.000000 0.000000 m /two glyphshow
6.362305 0.000000 m /period glyphshow
9.541016 0.000000 m /six glyphshow
grestore
gsave
/o {
gsave
newpath
translate
0.8 setlinewidth
1 setlinejoin
0 setlinecap
0 0 m
-3.5 0 l

gsave
0.000 setgray
fill
grestore
stroke
grestore
} bind def
164.736 266.872 o
grestore
gsave
46.001625 263.075445 translate
0.000000 rotate
0.000000 0.000000 m /two glyphshow
6.362305 0.000000 m /four glyphshow
12.724609 0.000000 m /two glyphshow
19.086914 0.000000 m /three glyphshow
25.449219 0.000000 m /one glyphshow
31.811523 0.000000 m /two glyphshow
38.173828 0.000000 m /zero glyphshow
44.536133 0.000000 m /period glyphshow
47.714844 0.000000 m /one glyphshow
54.077148 0.000000 m /hyphen glyphshow
57.685547 0.000000 m /three glyphshow
64.047852 0.000000 m /three glyphshow
70.410156 0.000000 m /seven glyphshow
76.772461 0.000000 m /two glyphshow
83.134766 0.000000 m /five glyphshow
89.497070 0.000000 m /seven glyphshow
95.859375 0.000000 m /zero glyphshow
102.221680 0.000000 m /period glyphshow
105.400391 0.000000 m /three glyphshow
grestore
gsave
/o {
gsave
newpath
translate
0.8 setlinewidth
1 setlinejoin
0 setlinecap
0 0 m
-3.5 0 l

gsave
0.000 setgray
fill
grestore
stroke
grestore
} bind def
164.736 245.583 o
grestore
gsave
46.001625 241.786485 translate
0.000000 rotate
0.000000 0.000000 m /three glyphshow
6.362305 0.000000 m /three glyphshow
12.724609 0.000000 m /seven glyphshow
19.086914 0.000000 m /two glyphshow
25.449219 0.000000 m /five glyphshow
31.811523 0.000000 m /seven glyphshow
38.173828 0.000000 m /zero glyphshow
44.536133 0.000000 m /period glyphshow
47.714844 0.000000 m /three glyphshow
54.077148 0.000000 m /hyphen glyphshow
57.685547 0.000000 m /four glyphshow
64.047852 0.000000 m /three glyphshow
70.410156 0.000000 m /two glyphshow
76.772461 0.000000 m /two glyphshow
83.134766 0.000000 m /zero glyphshow
89.497070 0.000000 m /two glyphshow
95.859375 0.000000 m /zero glyphshow
102.221680 0.000000 m /period glyphshow
105.400391 0.000000 m /six glyphshow
grestore
gsave
/o {
gsave
newpath
translate
0.8 setlinewidth
1 setlinejoin
0 setlinecap
0 0 m
-3.5 0 l

gsave
0.000 setgray
fill
grestore
stroke
grestore
} bind def
164.736 224.294 o
grestore
gsave
46.001625 220.497525 translate
0.000000 rotate
0.000000 0.000000 m /four glyphshow
6.362305 0.000000 m /three glyphshow
12.724609 0.000000 m /two glyphshow
19.086914 0.000000 m /two glyphshow
25.449219 0.000000 m /zero glyphshow
31.811523 0.000000 m /two glyphshow
38.173828 0.000000 m /zero glyphshow
44.536133 0.000000 m /period glyphshow
47.714844 0.000000 m /six glyphshow
54.077148 0.000000 m /hyphen glyphshow
57.685547 0.000000 m /five glyphshow
64.047852 0.000000 m /two glyphshow
70.410156 0.000000 m /seven glyphshow
76.772461 0.000000 m /one glyphshow
83.134766 0.000000 m /four glyphshow
89.497070 0.000000 m /seven glyphshow
95.859375 0.000000 m /zero glyphshow
102.221680 0.000000 m /period glyphshow
105.400391 0.000000 m /eight glyphshow
grestore
gsave
/o {
gsave
newpath
translate
0.8 setlinewidth
1 setlinejoin
0 setlinecap
0 0 m
-3.5 0 l

gsave
0.000 setgray
fill
grestore
stroke
grestore
} bind def
164.736 203.005 o
grestore
gsave
46.001625 199.208565 translate
0.000000 rotate
0.000000 0.000000 m /five glyphshow
6.362305 0.000000 m /two glyphshow
12.724609 0.000000 m /seven glyphshow
19.086914 0.000000 m /one glyphshow
25.449219 0.000000 m /four glyphshow
31.811523 0.000000 m /seven glyphshow
38.173828 0.000000 m /zero glyphshow
44.536133 0.000000 m /period glyphshow
47.714844 0.000000 m /eight glyphshow
54.077148 0.000000 m /hyphen glyphshow
57.685547 0.000000 m /six glyphshow
64.047852 0.000000 m /two glyphshow
70.410156 0.000000 m /two glyphshow
76.772461 0.000000 m /zero glyphshow
83.134766 0.000000 m /nine glyphshow
89.497070 0.000000 m /two glyphshow
95.859375 0.000000 m /one glyphshow
102.221680 0.000000 m /period glyphshow
105.400391 0.000000 m /zero glyphshow
grestore
gsave
/o {
gsave
newpath
translate
0.8 setlinewidth
1 setlinejoin
0 setlinecap
0 0 m
-3.5 0 l

gsave
0.000 setgray
fill
grestore
stroke
grestore
} bind def
164.736 181.716 o
grestore
gsave
46.001625 177.919605 translate
0.000000 rotate
0.000000 0.000000 m /six glyphshow
6.362305 0.000000 m /two glyphshow
12.724609 0.000000 m /two glyphshow
19.086914 0.000000 m /zero glyphshow
25.449219 0.000000 m /nine glyphshow
31.811523 0.000000 m /two glyphshow
38.173828 0.000000 m /one glyphshow
44.536133 0.000000 m /period glyphshow
47.714844 0.000000 m /zero glyphshow
54.077148 0.000000 m /hyphen glyphshow
57.685547 0.000000 m /seven glyphshow
64.047852 0.000000 m /one glyphshow
70.410156 0.000000 m /seven glyphshow
76.772461 0.000000 m /zero glyphshow
83.134766 0.000000 m /three glyphshow
89.497070 0.000000 m /seven glyphshow
95.859375 0.000000 m /one glyphshow
102.221680 0.000000 m /period glyphshow
105.400391 0.000000 m /three glyphshow
grestore
gsave
/o {
gsave
newpath
translate
0.8 setlinewidth
1 setlinejoin
0 setlinecap
0 0 m
-3.5 0 l

gsave
0.000 setgray
fill
grestore
stroke
grestore
} bind def
164.736 160.428 o
grestore
gsave
46.001625 156.630645 translate
0.000000 rotate
0.000000 0.000000 m /seven glyphshow
6.362305 0.000000 m /one glyphshow
12.724609 0.000000 m /seven glyphshow
19.086914 0.000000 m /zero glyphshow
25.449219 0.000000 m /three glyphshow
31.811523 0.000000 m /seven glyphshow
38.173828 0.000000 m /one glyphshow
44.536133 0.000000 m /period glyphshow
47.714844 0.000000 m /three glyphshow
54.077148 0.000000 m /hyphen glyphshow
57.685547 0.000000 m /eight glyphshow
64.047852 0.000000 m /one glyphshow
70.410156 0.000000 m /one glyphshow
76.772461 0.000000 m /nine glyphshow
83.134766 0.000000 m /eight glyphshow
89.497070 0.000000 m /two glyphshow
95.859375 0.000000 m /one glyphshow
102.221680 0.000000 m /period glyphshow
105.400391 0.000000 m /five glyphshow
grestore
gsave
/o {
gsave
newpath
translate
0.8 setlinewidth
1 setlinejoin
0 setlinecap
0 0 m
-3.5 0 l

gsave
0.000 setgray
fill
grestore
stroke
grestore
} bind def
164.736 139.139 o
grestore
gsave
46.001625 135.341685 translate
0.000000 rotate
0.000000 0.000000 m /eight glyphshow
6.362305 0.000000 m /one glyphshow
12.724609 0.000000 m /one glyphshow
19.086914 0.000000 m /nine glyphshow
25.449219 0.000000 m /eight glyphshow
31.811523 0.000000 m /two glyphshow
38.173828 0.000000 m /one glyphshow
44.536133 0.000000 m /period glyphshow
47.714844 0.000000 m /five glyphshow
54.077148 0.000000 m /hyphen glyphshow
57.685547 0.000000 m /nine glyphshow
64.047852 0.000000 m /zero glyphshow
70.410156 0.000000 m /six glyphshow
76.772461 0.000000 m /nine glyphshow
83.134766 0.000000 m /two glyphshow
89.497070 0.000000 m /seven glyphshow
95.859375 0.000000 m /one glyphshow
102.221680 0.000000 m /period glyphshow
105.400391 0.000000 m /seven glyphshow
grestore
gsave
/o {
gsave
newpath
translate
0.8 setlinewidth
1 setlinejoin
0 setlinecap
0 0 m
-3.5 0 l

gsave
0.000 setgray
fill
grestore
stroke
grestore
} bind def
164.736 117.85 o
grestore
gsave
39.642250 114.052725 translate
0.000000 rotate
0.000000 0.000000 m /nine glyphshow
6.362305 0.000000 m /zero glyphshow
12.724609 0.000000 m /six glyphshow
19.086914 0.000000 m /nine glyphshow
25.449219 0.000000 m /two glyphshow
31.811523 0.000000 m /seven glyphshow
38.173828 0.000000 m /one glyphshow
44.536133 0.000000 m /period glyphshow
47.714844 0.000000 m /seven glyphshow
54.077148 0.000000 m /hyphen glyphshow
57.685547 0.000000 m /one glyphshow
64.047852 0.000000 m /zero glyphshow
70.410156 0.000000 m /zero glyphshow
76.772461 0.000000 m /one glyphshow
83.134766 0.000000 m /eight glyphshow
89.497070 0.000000 m /seven glyphshow
95.859375 0.000000 m /two glyphshow
102.221680 0.000000 m /two glyphshow
108.583984 0.000000 m /period glyphshow
111.762695 0.000000 m /zero glyphshow
grestore
gsave
/o {
gsave
newpath
translate
0.8 setlinewidth
1 setlinejoin
0 setlinecap
0 0 m
-3.5 0 l

gsave
0.000 setgray
fill
grestore
stroke
grestore
} bind def
164.736 96.5606 o
grestore
gsave
33.282875 92.763765 translate
0.000000 rotate
0.000000 0.000000 m /one glyphshow
6.362305 0.000000 m /zero glyphshow
12.724609 0.000000 m /zero glyphshow
19.086914 0.000000 m /one glyphshow
25.449219 0.000000 m /eight glyphshow
31.811523 0.000000 m /seven glyphshow
38.173828 0.000000 m /two glyphshow
44.536133 0.000000 m /two glyphshow
50.898438 0.000000 m /period glyphshow
54.077148 0.000000 m /zero glyphshow
60.439453 0.000000 m /hyphen glyphshow
64.047852 0.000000 m /one glyphshow
70.410156 0.000000 m /zero glyphshow
76.772461 0.000000 m /nine glyphshow
83.134766 0.000000 m /six glyphshow
89.497070 0.000000 m /eight glyphshow
95.859375 0.000000 m /one glyphshow
102.221680 0.000000 m /seven glyphshow
108.583984 0.000000 m /two glyphshow
114.946289 0.000000 m /period glyphshow
118.125000 0.000000 m /two glyphshow
grestore
gsave
/o {
gsave
newpath
translate
0.8 setlinewidth
1 setlinejoin
0 setlinecap
0 0 m
-3.5 0 l

gsave
0.000 setgray
fill
grestore
stroke
grestore
} bind def
164.736 75.2717 o
grestore
gsave
33.282875 71.474805 translate
0.000000 rotate
0.000000 0.000000 m /one glyphshow
6.362305 0.000000 m /zero glyphshow
12.724609 0.000000 m /nine glyphshow
19.086914 0.000000 m /six glyphshow
25.449219 0.000000 m /eight glyphshow
31.811523 0.000000 m /one glyphshow
38.173828 0.000000 m /seven glyphshow
44.536133 0.000000 m /two glyphshow
50.898438 0.000000 m /period glyphshow
54.077148 0.000000 m /two glyphshow
60.439453 0.000000 m /hyphen glyphshow
64.047852 0.000000 m /one glyphshow
70.410156 0.000000 m /one glyphshow
76.772461 0.000000 m /nine glyphshow
83.134766 0.000000 m /one glyphshow
89.497070 0.000000 m /seven glyphshow
95.859375 0.000000 m /six glyphshow
102.221680 0.000000 m /two glyphshow
108.583984 0.000000 m /two glyphshow
114.946289 0.000000 m /period glyphshow
118.125000 0.000000 m /four glyphshow
grestore
0 setlinejoin
2 setlinecap
[] 0 setdash
gsave
164.736 64.6272 m
164.736 277.5168 l
stroke
grestore
gsave
432.576 64.6272 m
432.576 277.5168 l
stroke
grestore
gsave
164.736 64.6272 m
432.576 64.6272 l
stroke
grestore
gsave
164.736 277.5168 m
432.576 277.5168 l
stroke
grestore
gsave
178.296312 264.114508 translate
0.000000 rotate
0.000000 0.000000 m /one glyphshow
grestore
gsave
211.776312 264.114508 translate
0.000000 rotate
0.000000 0.000000 m /one glyphshow
grestore
gsave
245.256313 264.114508 translate
0.000000 rotate
0.000000 0.000000 m /one glyphshow
grestore
gsave
278.736312 264.114508 translate
0.000000 rotate
0.000000 0.000000 m /zero glyphshow
grestore
gsave
312.216313 264.114508 translate
0.000000 rotate
0.000000 0.000000 m /zero glyphshow
grestore
gsave
345.696312 264.114508 translate
0.000000 rotate
0.000000 0.000000 m /zero glyphshow
grestore
gsave
379.176312 264.114508 translate
0.000000 rotate
0.000000 0.000000 m /zero glyphshow
grestore
gsave
412.656313 264.114508 translate
0.000000 rotate
0.000000 0.000000 m /zero glyphshow
grestore
gsave
175.116625 242.825548 translate
0.000000 rotate
0.000000 0.000000 m /eight glyphshow
6.362305 0.000000 m /three glyphshow
grestore
gsave
211.776312 242.825548 translate
0.000000 rotate
0.000000 0.000000 m /two glyphshow
grestore
gsave
245.256313 242.825548 translate
0.000000 rotate
0.000000 0.000000 m /zero glyphshow
grestore
gsave
278.736312 242.825548 translate
0.000000 rotate
0.000000 0.000000 m /zero glyphshow
grestore
gsave
312.216313 242.825548 translate
0.000000 rotate
0.000000 0.000000 m /zero glyphshow
grestore
gsave
345.696312 242.825548 translate
0.000000 rotate
0.000000 0.000000 m /zero glyphshow
grestore
gsave
379.176312 242.825548 translate
0.000000 rotate
0.000000 0.000000 m /zero glyphshow
grestore
gsave
412.656313 242.825548 translate
0.000000 rotate
0.000000 0.000000 m /zero glyphshow
grestore
gsave
171.936937 221.536588 translate
0.000000 rotate
0.000000 0.000000 m /one glyphshow
6.362305 0.000000 m /one glyphshow
12.724609 0.000000 m /six glyphshow
grestore
gsave
205.416937 221.536588 translate
0.000000 rotate
0.000000 0.000000 m /two glyphshow
6.362305 0.000000 m /zero glyphshow
12.724609 0.000000 m /four glyphshow
grestore
gsave
245.256313 221.536588 translate
0.000000 rotate
0.000000 0.000000 m /one glyphshow
grestore
gsave
278.736312 221.536588 translate
0.000000 rotate
0.000000 0.000000 m /zero glyphshow
grestore
gsave
312.216313 221.536588 translate
0.000000 rotate
0.000000 0.000000 m /zero glyphshow
grestore
gsave
345.696312 221.536588 translate
0.000000 rotate
0.000000 0.000000 m /zero glyphshow
grestore
gsave
379.176312 221.536588 translate
0.000000 rotate
0.000000 0.000000 m /zero glyphshow
grestore
gsave
412.656313 221.536588 translate
0.000000 rotate
0.000000 0.000000 m /zero glyphshow
grestore
gsave
178.296312 200.247628 translate
0.000000 rotate
0.000000 0.000000 m /zero glyphshow
grestore
gsave
211.776312 200.247628 translate
0.000000 rotate
0.000000 0.000000 m /four glyphshow
grestore
gsave
238.896938 200.247628 translate
0.000000 rotate
0.000000 0.000000 m /one glyphshow
6.362305 0.000000 m /seven glyphshow
12.724609 0.000000 m /seven glyphshow
grestore
gsave
278.736312 200.247628 translate
0.000000 rotate
0.000000 0.000000 m /three glyphshow
grestore
gsave
312.216313 200.247628 translate
0.000000 rotate
0.000000 0.000000 m /zero glyphshow
grestore
gsave
345.696312 200.247628 translate
0.000000 rotate
0.000000 0.000000 m /zero glyphshow
grestore
gsave
379.176312 200.247628 translate
0.000000 rotate
0.000000 0.000000 m /zero glyphshow
grestore
gsave
412.656313 200.247628 translate
0.000000 rotate
0.000000 0.000000 m /zero glyphshow
grestore
gsave
178.296312 178.958668 translate
0.000000 rotate
0.000000 0.000000 m /zero glyphshow
grestore
gsave
211.776312 178.958668 translate
0.000000 rotate
0.000000 0.000000 m /zero glyphshow
grestore
gsave
245.256313 178.958668 translate
0.000000 rotate
0.000000 0.000000 m /eight glyphshow
grestore
gsave
272.376937 178.958668 translate
0.000000 rotate
0.000000 0.000000 m /one glyphshow
6.362305 0.000000 m /two glyphshow
12.724609 0.000000 m /one glyphshow
grestore
gsave
309.036625 178.958668 translate
0.000000 rotate
0.000000 0.000000 m /two glyphshow
6.362305 0.000000 m /two glyphshow
grestore
gsave
345.696312 178.958668 translate
0.000000 rotate
0.000000 0.000000 m /zero glyphshow
grestore
gsave
379.176312 178.958668 translate
0.000000 rotate
0.000000 0.000000 m /zero glyphshow
grestore
gsave
412.656313 178.958668 translate
0.000000 rotate
0.000000 0.000000 m /zero glyphshow
grestore
gsave
178.296312 157.669708 translate
0.000000 rotate
0.000000 0.000000 m /zero glyphshow
grestore
gsave
211.776312 157.669708 translate
0.000000 rotate
0.000000 0.000000 m /one glyphshow
grestore
gsave
245.256313 157.669708 translate
0.000000 rotate
0.000000 0.000000 m /zero glyphshow
grestore
gsave
278.736312 157.669708 translate
0.000000 rotate
0.000000 0.000000 m /zero glyphshow
grestore
gsave
309.036625 157.669708 translate
0.000000 rotate
0.000000 0.000000 m /eight glyphshow
6.362305 0.000000 m /one glyphshow
grestore
gsave
342.516625 157.669708 translate
0.000000 rotate
0.000000 0.000000 m /seven glyphshow
6.362305 0.000000 m /eight glyphshow
grestore
gsave
379.176312 157.669708 translate
0.000000 rotate
0.000000 0.000000 m /five glyphshow
grestore
gsave
412.656313 157.669708 translate
0.000000 rotate
0.000000 0.000000 m /zero glyphshow
grestore
gsave
178.296312 136.380748 translate
0.000000 rotate
0.000000 0.000000 m /zero glyphshow
grestore
gsave
211.776312 136.380748 translate
0.000000 rotate
0.000000 0.000000 m /zero glyphshow
grestore
gsave
245.256313 136.380748 translate
0.000000 rotate
0.000000 0.000000 m /zero glyphshow
grestore
gsave
278.736312 136.380748 translate
0.000000 rotate
0.000000 0.000000 m /zero glyphshow
grestore
gsave
312.216313 136.380748 translate
0.000000 rotate
0.000000 0.000000 m /zero glyphshow
grestore
gsave
342.516625 136.380748 translate
0.000000 rotate
0.000000 0.000000 m /one glyphshow
6.362305 0.000000 m /zero glyphshow
grestore
gsave
375.996625 136.380748 translate
0.000000 rotate
0.000000 0.000000 m /eight glyphshow
6.362305 0.000000 m /six glyphshow
grestore
gsave
412.656313 136.380748 translate
0.000000 rotate
0.000000 0.000000 m /zero glyphshow
grestore
gsave
178.296312 115.091788 translate
0.000000 rotate
0.000000 0.000000 m /zero glyphshow
grestore
gsave
211.776312 115.091788 translate
0.000000 rotate
0.000000 0.000000 m /zero glyphshow
grestore
gsave
245.256313 115.091788 translate
0.000000 rotate
0.000000 0.000000 m /zero glyphshow
grestore
gsave
278.736312 115.091788 translate
0.000000 rotate
0.000000 0.000000 m /zero glyphshow
grestore
gsave
312.216313 115.091788 translate
0.000000 rotate
0.000000 0.000000 m /zero glyphshow
grestore
gsave
345.696312 115.091788 translate
0.000000 rotate
0.000000 0.000000 m /zero glyphshow
grestore
gsave
379.176312 115.091788 translate
0.000000 rotate
0.000000 0.000000 m /zero glyphshow
grestore
gsave
412.656313 115.091788 translate
0.000000 rotate
0.000000 0.000000 m /zero glyphshow
grestore
gsave
178.296312 93.802827 translate
0.000000 rotate
0.000000 0.000000 m /zero glyphshow
grestore
gsave
211.776312 93.802827 translate
0.000000 rotate
0.000000 0.000000 m /zero glyphshow
grestore
gsave
245.256313 93.802827 translate
0.000000 rotate
0.000000 0.000000 m /zero glyphshow
grestore
gsave
278.736312 93.802827 translate
0.000000 rotate
0.000000 0.000000 m /zero glyphshow
grestore
gsave
312.216313 93.802827 translate
0.000000 rotate
0.000000 0.000000 m /zero glyphshow
grestore
gsave
345.696312 93.802827 translate
0.000000 rotate
0.000000 0.000000 m /zero glyphshow
grestore
gsave
379.176312 93.802827 translate
0.000000 rotate
0.000000 0.000000 m /zero glyphshow
grestore
gsave
409.476625 93.802827 translate
0.000000 rotate
0.000000 0.000000 m /two glyphshow
6.362305 0.000000 m /five glyphshow
grestore
gsave
178.296312 72.513867 translate
0.000000 rotate
0.000000 0.000000 m /zero glyphshow
grestore
gsave
211.776312 72.513867 translate
0.000000 rotate
0.000000 0.000000 m /zero glyphshow
grestore
gsave
245.256313 72.513867 translate
0.000000 rotate
0.000000 0.000000 m /zero glyphshow
grestore
gsave
278.736312 72.513867 translate
0.000000 rotate
0.000000 0.000000 m /zero glyphshow
grestore
gsave
312.216313 72.513867 translate
0.000000 rotate
0.000000 0.000000 m /zero glyphshow
grestore
gsave
345.696312 72.513867 translate
0.000000 rotate
0.000000 0.000000 m /zero glyphshow
grestore
gsave
379.176312 72.513867 translate
0.000000 rotate
0.000000 0.000000 m /zero glyphshow
grestore
gsave
409.476625 72.513867 translate
0.000000 rotate
0.000000 0.000000 m /one glyphshow
6.362305 0.000000 m /two glyphshow
grestore
/DejaVuSans findfont
12.000 scalefont
setfont
gsave
160.788813 315.450240 translate
0.000000 rotate
0.000000 0.000000 m /C glyphshow
8.378906 0.000000 m /P glyphshow
15.615234 0.000000 m /U glyphshow
24.398438 0.000000 m /C glyphshow
32.777344 0.000000 m /y glyphshow
39.878906 0.000000 m /c glyphshow
46.476562 0.000000 m /l glyphshow
49.810547 0.000000 m /e glyphshow
57.193359 0.000000 m /s glyphshow
63.445312 0.000000 m /B glyphshow
71.677734 0.000000 m /y glyphshow
78.779297 0.000000 m /T glyphshow
86.109375 0.000000 m /i glyphshow
89.443359 0.000000 m /m glyphshow
101.132812 0.000000 m /e glyphshow
108.515625 0.000000 m /underscore glyphshow
114.515625 0.000000 m /c glyphshow
121.113281 0.000000 m /p glyphshow
128.730469 0.000000 m /u glyphshow
136.335938 0.000000 m /hyphen glyphshow
140.666016 0.000000 m /c glyphshow
147.263672 0.000000 m /y glyphshow
154.365234 0.000000 m /c glyphshow
160.962891 0.000000 m /l glyphshow
164.296875 0.000000 m /e glyphshow
171.679688 0.000000 m /s glyphshow
177.931641 0.000000 m /underscore glyphshow
183.931641 0.000000 m /H glyphshow
192.955078 0.000000 m /e glyphshow
200.337891 0.000000 m /a glyphshow
207.691406 0.000000 m /t glyphshow
212.396484 0.000000 m /M glyphshow
222.750000 0.000000 m /a glyphshow
230.103516 0.000000 m /p glyphshow
237.720703 0.000000 m /underscore glyphshow
243.720703 0.000000 m /D glyphshow
252.960938 0.000000 m /V glyphshow
261.169922 0.000000 m /F glyphshow
268.072266 0.000000 m /S glyphshow
grestore

end
showpage
