methodName,centroidNo,freqCounter,energy,CPUCyclesByTime
org.sunflow.core.renderer.BucketRenderer.renderBucket,0,2601000,5.703,10787371.435
org.sunflow.core.renderer.BucketRenderer.renderBucket,0,2400000,4.733,8611675.748
org.sunflow.core.renderer.BucketRenderer.renderBucket,0,2200000,4.830,7885939.816
org.sunflow.core.renderer.BucketRenderer.renderBucket,0,2000000,4.121,7166811.180
org.sunflow.core.renderer.BucketRenderer.renderBucket,0,1800000,14.159,6498565.981
org.sunflow.core.renderer.BucketRenderer.renderBucket,0,1600000,3.806,5779912.906
org.sunflow.core.renderer.BucketRenderer.renderBucket,0,1400000,4.190,5022202.767
org.sunflow.core.renderer.BucketRenderer.renderBucket,0,1200000,4.823,4348046.977
org.sunflow.core.renderer.BucketRenderer.renderBucket,1,2200000,12.838,7953034.667
