methodName,centroidNo,freqCounter,energy,branch-misses
org.sunflow.core.renderer.BucketRenderer.renderBucket,0,2601000,5.263,5308211.348
org.sunflow.core.renderer.BucketRenderer.renderBucket,0,2400000,7.201,7915069.588
org.sunflow.core.renderer.BucketRenderer.renderBucket,0,2200000,4.991,5523924.833
org.sunflow.core.renderer.BucketRenderer.renderBucket,0,2000000,3.927,4815767.536
org.sunflow.core.renderer.BucketRenderer.renderBucket,0,1800000,4.181,4615667.349
org.sunflow.core.renderer.BucketRenderer.renderBucket,0,1600000,4.091,4606580.238
org.sunflow.core.renderer.BucketRenderer.renderBucket,0,1400000,4.502,4664690.080
org.sunflow.core.renderer.BucketRenderer.renderBucket,0,1200000,4.821,4590023.435
org.sunflow.core.renderer.BucketRenderer.renderBucket,1,2400000,26.068,30456920.385
org.sunflow.core.renderer.BucketRenderer.renderBucket,1,2200000,17.552,20809653.357
org.sunflow.core.renderer.BucketRenderer.renderBucket,2,2200000,31.927,40258146.667
org.sunflow.core.renderer.BucketRenderer.access$300,0,1800000,4.056,4496771.014
