methodName,centroidNo,freqCounter,time,cpu-clock
org.sunflow.core.renderer.BucketRenderer.renderBucket,0,2601000,302.760,1081971177.000
org.sunflow.core.renderer.BucketRenderer.renderBucket,0,2400000,347.037,1256684606.296
org.sunflow.core.renderer.BucketRenderer.renderBucket,0,2200000,374.500,1370031467.409
org.sunflow.core.renderer.BucketRenderer.renderBucket,0,2000000,386.391,1387560528.043
org.sunflow.core.renderer.BucketRenderer.renderBucket,0,1800000,392.923,1412872999.523
org.sunflow.core.renderer.BucketRenderer.renderBucket,0,1600000,488.228,1770554855.088
org.sunflow.core.renderer.BucketRenderer.renderBucket,0,1400000,532.048,1841509750.619
org.sunflow.core.renderer.BucketRenderer.renderBucket,0,1200000,646.640,2306776047.570
org.sunflow.core.renderer.BucketRenderer.renderBucket,1,2200000,2069.563,7519736405.500
org.sunflow.core.renderer.BucketRenderer.renderBucket,1,2000000,2166.000,7848948278.176
