methodName,centroidNo,freqCounter,energy,CacheMissRate
org.sunflow.core.renderer.BucketRenderer.renderBucket,0,2601000,5.401,0.157
org.sunflow.core.renderer.BucketRenderer.renderBucket,0,2400000,5.253,0.159
org.sunflow.core.renderer.BucketRenderer.renderBucket,0,2200000,4.530,0.161
org.sunflow.core.renderer.BucketRenderer.renderBucket,0,2000000,4.044,0.165
org.sunflow.core.renderer.BucketRenderer.renderBucket,0,1800000,3.749,0.168
org.sunflow.core.renderer.BucketRenderer.renderBucket,0,1600000,4.382,0.170
org.sunflow.core.renderer.BucketRenderer.renderBucket,0,1200000,4.420,0.177
org.sunflow.core.renderer.BucketRenderer.renderBucket,1,2400000,18.582,0.149
org.sunflow.core.renderer.BucketRenderer.renderBucket,1,2200000,15.049,0.157
org.sunflow.core.renderer.BucketRenderer.renderBucket,2,2400000,32.741,0.151
