methodName,centroidNo,freqCounter,energy,cpu-cycles
org.sunflow.core.renderer.BucketRenderer.renderBucket,0,2601000,5.703,3547077735.960
org.sunflow.core.renderer.BucketRenderer.renderBucket,0,2400000,4.733,3248135936.867
org.sunflow.core.renderer.BucketRenderer.renderBucket,0,2200000,4.830,3322487814.383
org.sunflow.core.renderer.BucketRenderer.renderBucket,0,2000000,4.121,2866753811.519
org.sunflow.core.renderer.BucketRenderer.renderBucket,0,1800000,14.159,9856985531.315
org.sunflow.core.renderer.BucketRenderer.renderBucket,0,1600000,3.806,2578898152.197
org.sunflow.core.renderer.BucketRenderer.renderBucket,0,1400000,4.190,2629946435.573
org.sunflow.core.renderer.BucketRenderer.renderBucket,0,1200000,4.823,2811650781.805
org.sunflow.core.renderer.BucketRenderer.renderBucket,1,2200000,12.838,8964040340.842
