methodName,centroidNo,freqCounter,time,PageFaultsByTime
org.sunflow.core.renderer.BucketRenderer.renderBucket,0,2601000,304.077,1.110
org.sunflow.core.renderer.BucketRenderer.renderBucket,0,2400000,339.839,0.780
org.sunflow.core.renderer.BucketRenderer.renderBucket,0,2200000,360.412,0.099
org.sunflow.core.renderer.BucketRenderer.renderBucket,0,2000000,448.774,1.051
org.sunflow.core.renderer.BucketRenderer.renderBucket,0,1800000,1525.844,0.210
org.sunflow.core.renderer.BucketRenderer.renderBucket,0,1600000,432.897,0.082
org.sunflow.core.renderer.BucketRenderer.renderBucket,0,1400000,496.356,0.214
org.sunflow.core.renderer.BucketRenderer.renderBucket,0,1200000,594.364,0.008
