methodName,frequency,energy,power,branch-misses,branches,counterRate,counterRateByTime,time
org.sunflow.core.renderer.BucketRenderer.access$300,2601000,3.8989104999999995,17.54097779974167,3829032.0,4.2022012475E8,0.009159116533333332,17277.913330730673,222.25
org.sunflow.core.renderer.BucketRenderer.renderBucket,2601000,7.679779339285714,13.65969031069107,8030538.517857143,8.422302582142857E8,0.00733004077142857,13910.187878964129,441.9107142857143
org.sunflow.core.renderer.BucketRenderer.renderBucket,2400000,15.95753194392524,12.717496783591592,1.941661353271028E7,1.933704164953271E9,0.009842501518691593,15139.023800196303,1254.252336448598
org.sunflow.core.renderer.BucketRenderer.renderBucket,2200000,16.47821453521127,11.544668895881692,2.120395042253521E7,2.0127941309577465E9,0.010344544074647882,14549.82489369477,1426.281690140845
org.sunflow.core.renderer.BucketRenderer.renderBucket,2000000,15.954108979591838,10.479659238344897,1.8915063469387755E7,1.937798879312925E9,0.009635987716326535,12252.850760535324,1522.061224489796
org.sunflow.core.renderer.BucketRenderer.renderBucket,1800000,16.340874058823527,9.53497320070392,1.91203276372549E7,1.9327166705294118E9,0.009770842855882355,11048.442348842533,1713.9411764705883
org.sunflow.core.renderer.BucketRenderer.renderBucket,1600000,12.419152749999991,8.701255498306736,1.4155371557692308E7,1.4492779729038463E9,0.009396822385576924,9589.105516787704,1426.2115384615386
org.sunflow.core.renderer.BucketRenderer.renderBucket,1400000,12.891066975609757,8.152679472528776,1.3872124512195121E7,1.4115876451317074E9,0.009456541072682931,8495.762038748542,1580.580487804878
org.sunflow.core.renderer.BucketRenderer.renderBucket,1200000,16.292187024154604,7.596594337882128,1.6400330792270532E7,1.6335898393961353E9,0.009763044651207729,7455.63635590375,2142.7971014492755
org.sunflow.core.gi.InstantGI.getIrradiance,1400000,0.006919606635071091,0.14109034940379148,1346.9573459715639,94387.04739336493,2.801033028436019E-4,26.20335923942986,0.9289099526066351
org.sunflow.core.ShadingState.diffuse,1200000,0.005495018691588785,0.09584217028364486,346.303738317757,34125.19158878505,1.4232463785046728E-4,6.036991649281309,0.8037383177570093
org.sunflow.image.Color.blend,1200000,0.001808413953488372,0.0328802537,90.9953488372093,6066.823255813953,6.976207534883721E-5,1.6544608879493024,0.2558139534883721
