methodName,frequency,energy,power,cache-misses,cache-references,counterRate,counterRateByTime,time
org.sunflow.core.renderer.BucketRenderer.renderBucket,2601000,9.764096189655174,17.351895138358625,2056700.551724138,1.3230211931034483E7,0.1610140468327586,3843.919461326586,562.0689655172414
org.sunflow.core.renderer.BucketRenderer.renderBucket,2400000,15.411715023809522,12.709825675240479,3557987.988095238,2.244809813095238E7,0.1605837253976191,3000.943274903854,1213.3690476190477
org.sunflow.core.renderer.BucketRenderer.renderBucket,2200000,13.854367673469387,11.560007149053058,3244327.4693877553,2.058516742857143E7,0.16292808371836742,2881.1984247958057,1196.061224489796
org.sunflow.core.renderer.BucketRenderer.renderBucket,2000000,12.917710671999993,10.464534132843202,3361835.88,2.0115620328E7,0.17005736658,2789.899095970109,1234.792
org.sunflow.core.renderer.BucketRenderer.renderBucket,1800000,12.705174839572182,9.52768827406471,3287753.898395722,1.9604945320855614E7,0.16873108410374338,2471.17089450009,1333.2620320855615
org.sunflow.core.renderer.BucketRenderer.renderBucket,1600000,12.507331663755457,8.69724086278209,3151337.152838428,1.8611397144104805E7,0.1718330972441049,2225.359251720278,1437.0131004366813
org.sunflow.core.renderer.BucketRenderer.renderBucket,1400000,13.374031017777787,8.145628595810226,3151449.3244444444,1.864846470222222E7,0.17113065973822214,1937.8214293311844,1639.8444444444444
org.sunflow.core.renderer.BucketRenderer.renderBucket,1200000,14.626150629955953,7.610038285458145,3285864.678414097,1.899246793832599E7,0.17474496529295155,1710.678783755362,1921.3788546255507
org.sunflow.core.renderer.BucketRenderer.access$300,1600000,1.38911104778157,1.953535755112969,362209.49829351535,2021354.6279863482,0.040594087430716706,517.1153680652634,160.2764505119454
