methodName,centroidNo,freqCounter,energy,CPUCyclesByTime
method: org.sunflow.core.renderer.BucketRenderer.renderBucketis considered
org.sunflow.core.renderer.BucketRenderer.renderBucket,0,2601000,5.220,10575859.827
org.sunflow.core.renderer.BucketRenderer.renderBucket,0,2400000,4.953,8539752.402
org.sunflow.core.renderer.BucketRenderer.renderBucket,0,2200000,4.585,7909171.940
org.sunflow.core.renderer.BucketRenderer.renderBucket,0,2000000,4.267,7205211.684
org.sunflow.core.renderer.BucketRenderer.renderBucket,0,1800000,3.860,6429035.889
org.sunflow.core.renderer.BucketRenderer.renderBucket,0,1600000,3.788,5734692.788
org.sunflow.core.renderer.BucketRenderer.renderBucket,0,1400000,4.172,5041543.738
org.sunflow.core.renderer.BucketRenderer.renderBucket,0,1200000,14.182,4295419.908
org.sunflow.core.renderer.BucketRenderer.renderBucket,1,2400000,9.674,8655392.457
org.sunflow.core.renderer.BucketRenderer.renderBucket,1,2000000,8.185,7144155.550
org.sunflow.core.renderer.BucketRenderer.renderBucket,1,1800000,7.624,6433045.725
org.sunflow.core.renderer.BucketRenderer.renderBucket,1,1400000,8.449,4981913.446
org.sunflow.core.renderer.BucketRenderer.renderBucket,2,2000000,14.337,7221281.485
org.sunflow.core.renderer.BucketRenderer.renderBucket,3,2000000,22.772,7225383.976
org.sunflow.core.renderer.BucketRenderer.renderBucket,4,2000000,34.394,7226200.542
skip the method: org.sunflow.core.renderer.BucketRenderer.refineSamples
