methodName,centroidNo,freqCounter,power,branches
skip the method: org.sunflow.core.renderer.BucketRenderer.access$300
method: org.sunflow.core.renderer.BucketRenderer.renderBucketis considered
org.sunflow.core.renderer.BucketRenderer.renderBucket,0,2601000,17.341,1869841749.778
org.sunflow.core.renderer.BucketRenderer.renderBucket,0,2400000,12.710,578762941.515
org.sunflow.core.renderer.BucketRenderer.renderBucket,0,2200000,11.545,2012794130.958
org.sunflow.core.renderer.BucketRenderer.renderBucket,0,2000000,10.476,550529424.725
org.sunflow.core.renderer.BucketRenderer.renderBucket,0,1800000,9.535,1932716670.529
org.sunflow.core.renderer.BucketRenderer.renderBucket,0,1600000,8.679,880219844.500
org.sunflow.core.renderer.BucketRenderer.renderBucket,0,1400000,8.135,780486136.531
org.sunflow.core.renderer.BucketRenderer.renderBucket,0,1200000,7.583,1041236823.143
org.sunflow.core.renderer.BucketRenderer.renderBucket,1,2601000,17.393,606799572.800
org.sunflow.core.renderer.BucketRenderer.renderBucket,1,2400000,12.726,1005672756.353
org.sunflow.core.renderer.BucketRenderer.renderBucket,1,1600000,8.700,455921096.762
org.sunflow.core.renderer.BucketRenderer.renderBucket,1,1400000,8.156,436003831.238
org.sunflow.core.renderer.BucketRenderer.renderBucket,1,1200000,7.593,537508946.172
org.sunflow.core.renderer.BucketRenderer.renderBucket,2,2400000,12.730,3342572894.176
skip the method: org.sunflow.core.gi.InstantGI.getIrradiance
skip the method: org.sunflow.core.ShadingState.diffuse
skip the method: org.sunflow.image.Color.blend
