methodName,centroidNo,freqCounter,energy,CacheMissRate
method: org.sunflow.core.renderer.BucketRenderer.renderBucketis considered
org.sunflow.core.renderer.BucketRenderer.renderBucket,0,2601000,5.607,0.164
org.sunflow.core.renderer.BucketRenderer.renderBucket,0,2400000,5.449,0.164
org.sunflow.core.renderer.BucketRenderer.renderBucket,0,2200000,4.290,0.172
org.sunflow.core.renderer.BucketRenderer.renderBucket,0,2000000,3.780,0.169
org.sunflow.core.renderer.BucketRenderer.renderBucket,0,1800000,3.807,0.170
org.sunflow.core.renderer.BucketRenderer.renderBucket,0,1600000,4.077,0.175
org.sunflow.core.renderer.BucketRenderer.renderBucket,0,1400000,4.281,0.174
org.sunflow.core.renderer.BucketRenderer.renderBucket,0,1200000,4.884,0.177
org.sunflow.core.renderer.BucketRenderer.renderBucket,1,2400000,13.102,0.159
org.sunflow.core.renderer.BucketRenderer.renderBucket,1,2200000,33.414,0.155
org.sunflow.core.renderer.BucketRenderer.renderBucket,1,2000000,4.440,0.181
org.sunflow.core.renderer.BucketRenderer.renderBucket,1,1600000,8.037,0.172
org.sunflow.core.renderer.BucketRenderer.renderBucket,1,1400000,8.513,0.172
org.sunflow.core.renderer.BucketRenderer.renderBucket,1,1200000,10.190,0.176
org.sunflow.core.renderer.BucketRenderer.renderBucket,2,2400000,24.334,0.159
org.sunflow.core.renderer.BucketRenderer.renderBucket,2,2000000,13.465,0.171
org.sunflow.core.renderer.BucketRenderer.renderBucket,2,1200000,18.005,0.174
org.sunflow.core.renderer.BucketRenderer.renderBucket,3,2400000,36.503,0.156
method: org.sunflow.core.renderer.BucketRenderer.access$300is considered
org.sunflow.core.renderer.BucketRenderer.access$300,0,1600000,4.004,0.181
org.sunflow.core.renderer.BucketRenderer.access$300,1,1600000,7.313,0.178
