methodName,centroidNo,freqCounter,energy,CPUClocksByTime
method: org.sunflow.core.renderer.BucketRenderer.renderBucketis considered
org.sunflow.core.renderer.BucketRenderer.renderBucket,0,2601000,5.694,3569566.854
org.sunflow.core.renderer.BucketRenderer.renderBucket,0,2400000,4.608,3610983.542
org.sunflow.core.renderer.BucketRenderer.renderBucket,0,2200000,4.375,3597265.003
org.sunflow.core.renderer.BucketRenderer.renderBucket,0,2000000,6.311,3474656.051
org.sunflow.core.renderer.BucketRenderer.renderBucket,0,1800000,4.362,3587935.207
org.sunflow.core.renderer.BucketRenderer.renderBucket,0,1600000,3.793,3578569.307
org.sunflow.core.renderer.BucketRenderer.renderBucket,0,1400000,4.231,3617176.911
org.sunflow.core.renderer.BucketRenderer.renderBucket,0,1200000,4.636,3601074.251
org.sunflow.core.renderer.BucketRenderer.renderBucket,1,2400000,12.748,3484214.903
org.sunflow.core.renderer.BucketRenderer.renderBucket,1,2200000,14.394,3612714.922
org.sunflow.core.renderer.BucketRenderer.renderBucket,1,2000000,14.492,3644931.083
org.sunflow.core.renderer.BucketRenderer.renderBucket,1,1600000,7.616,3580108.287
org.sunflow.core.renderer.BucketRenderer.renderBucket,1,1400000,8.382,3570875.222
org.sunflow.core.renderer.BucketRenderer.renderBucket,1,1200000,9.299,3534060.457
org.sunflow.core.renderer.BucketRenderer.renderBucket,2,2400000,24.836,3575303.217
org.sunflow.core.renderer.BucketRenderer.renderBucket,2,2000000,23.666,3588104.839
org.sunflow.core.renderer.BucketRenderer.renderBucket,3,2400000,37.311,3562843.926
skip the method: org.sunflow.Benchmark.imageUpdate
skip the method: org.sunflow.core.Instance.transformVectorObjectToWorld
