methodName,centroidNo,freqCounter,time,CPUClocksByTime
method: org.sunflow.core.renderer.BucketRenderer.renderBucketis considered
org.sunflow.core.renderer.BucketRenderer.renderBucket,0,2601000,327.042,3569566.854
org.sunflow.core.renderer.BucketRenderer.renderBucket,0,2400000,361.913,3610983.542
org.sunflow.core.renderer.BucketRenderer.renderBucket,0,2200000,378.265,3597265.003
org.sunflow.core.renderer.BucketRenderer.renderBucket,0,2000000,602.563,3474656.051
org.sunflow.core.renderer.BucketRenderer.renderBucket,0,1800000,446.905,3588418.647
org.sunflow.core.renderer.BucketRenderer.renderBucket,0,1600000,437.768,3578569.307
org.sunflow.core.renderer.BucketRenderer.renderBucket,0,1200000,611.165,3601074.251
org.sunflow.core.renderer.BucketRenderer.renderBucket,1,2400000,999.154,3484214.903
org.sunflow.core.renderer.BucketRenderer.renderBucket,1,2200000,1246.474,3612714.922
org.sunflow.core.renderer.BucketRenderer.renderBucket,1,2000000,1379.870,3644931.083
org.sunflow.core.renderer.BucketRenderer.renderBucket,1,1800000,878.297,3521453.674
org.sunflow.core.renderer.BucketRenderer.renderBucket,1,1600000,880.946,3580108.287
org.sunflow.core.renderer.BucketRenderer.renderBucket,1,1200000,1227.343,3534060.457
org.sunflow.core.renderer.BucketRenderer.renderBucket,2,2400000,1954.667,3575303.217
org.sunflow.core.renderer.BucketRenderer.renderBucket,2,2000000,2256.842,3588104.839
org.sunflow.core.renderer.BucketRenderer.renderBucket,3,2400000,2935.818,3562843.926
skip the method: org.sunflow.Benchmark.imageUpdate
skip the method: org.sunflow.core.Instance.transformVectorObjectToWorld
