methodName,centroidNo,freqCounter,energy,BranchMissRate
skip the method: org.sunflow.core.renderer.BucketRenderer.access$300
method: org.sunflow.core.renderer.BucketRenderer.renderBucketis considered
org.sunflow.core.renderer.BucketRenderer.renderBucket,0,2601000,5.581,0.009
org.sunflow.core.renderer.BucketRenderer.renderBucket,0,2400000,4.814,0.010
org.sunflow.core.renderer.BucketRenderer.renderBucket,0,2200000,16.478,0.010
org.sunflow.core.renderer.BucketRenderer.renderBucket,0,2000000,4.278,0.009
org.sunflow.core.renderer.BucketRenderer.renderBucket,0,1800000,16.341,0.010
org.sunflow.core.renderer.BucketRenderer.renderBucket,0,1600000,3.864,0.009
org.sunflow.core.renderer.BucketRenderer.renderBucket,0,1400000,3.927,0.009
org.sunflow.core.renderer.BucketRenderer.renderBucket,0,1200000,5.344,0.009
org.sunflow.core.renderer.BucketRenderer.renderBucket,1,2601000,16.999,0.010
org.sunflow.core.renderer.BucketRenderer.renderBucket,1,2400000,8.278,0.010
org.sunflow.core.renderer.BucketRenderer.renderBucket,1,1400000,7.210,0.009
org.sunflow.core.renderer.BucketRenderer.renderBucket,1,1200000,10.473,0.010
org.sunflow.core.renderer.BucketRenderer.renderBucket,2,2400000,27.690,0.010
skip the method: org.sunflow.core.gi.InstantGI.getIrradiance
skip the method: org.sunflow.core.ShadingState.diffuse
skip the method: org.sunflow.image.Color.blend
