methodName,centroidNo,freqCounter,energy,page-faults
method: org.sunflow.core.renderer.BucketRenderer.renderBucketis considered
org.sunflow.core.renderer.BucketRenderer.renderBucket,0,2601000,5.330,732.913
org.sunflow.core.renderer.BucketRenderer.renderBucket,0,2400000,4.192,65.149
org.sunflow.core.renderer.BucketRenderer.renderBucket,0,2200000,4.808,411.786
org.sunflow.core.renderer.BucketRenderer.renderBucket,0,2000000,4.095,794.167
org.sunflow.core.renderer.BucketRenderer.renderBucket,0,1800000,3.482,14.429
org.sunflow.core.renderer.BucketRenderer.renderBucket,0,1600000,3.648,23.844
org.sunflow.core.renderer.BucketRenderer.renderBucket,0,1400000,4.334,62.305
org.sunflow.core.renderer.BucketRenderer.renderBucket,0,1200000,14.677,104.299
org.sunflow.core.renderer.BucketRenderer.renderBucket,1,2400000,24.652,12.000
org.sunflow.core.renderer.BucketRenderer.renderBucket,1,2200000,10.130,5.000
org.sunflow.core.renderer.BucketRenderer.renderBucket,1,2000000,11.278,402.000
org.sunflow.core.renderer.BucketRenderer.renderBucket,1,1800000,4.355,243.297
org.sunflow.core.renderer.BucketRenderer.renderBucket,1,1400000,8.464,302.405
org.sunflow.core.renderer.BucketRenderer.renderBucket,2,2200000,20.299,7.737
org.sunflow.core.renderer.BucketRenderer.renderBucket,2,2000000,23.286,747.765
org.sunflow.core.renderer.BucketRenderer.renderBucket,3,2200000,33.311,12.273
method: org.sunflow.core.renderer.BucketRenderer.access$300is considered
org.sunflow.core.renderer.BucketRenderer.access$300,0,1400000,4.112,86.000
