methodName,centroidNo,freqCounter,energy,cache-references
method: org.sunflow.core.renderer.BucketRenderer.renderBucketis considered
org.sunflow.core.renderer.BucketRenderer.renderBucket,0,2601000,5.607,7739173.087
org.sunflow.core.renderer.BucketRenderer.renderBucket,0,2400000,5.449,8044862.447
org.sunflow.core.renderer.BucketRenderer.renderBucket,0,2200000,4.290,6838302.913
org.sunflow.core.renderer.BucketRenderer.renderBucket,0,2000000,3.780,5917658.095
org.sunflow.core.renderer.BucketRenderer.renderBucket,0,1800000,3.807,5776259.087
org.sunflow.core.renderer.BucketRenderer.renderBucket,0,1600000,4.077,6032042.448
org.sunflow.core.renderer.BucketRenderer.renderBucket,0,1400000,4.281,5915056.402
org.sunflow.core.renderer.BucketRenderer.renderBucket,0,1200000,4.884,6194503.177
org.sunflow.core.renderer.BucketRenderer.renderBucket,1,2400000,13.102,19603541.278
org.sunflow.core.renderer.BucketRenderer.renderBucket,1,2200000,33.414,47966330.100
org.sunflow.core.renderer.BucketRenderer.renderBucket,1,2000000,4.440,6955927.000
org.sunflow.core.renderer.BucketRenderer.renderBucket,1,1600000,8.037,11863325.029
org.sunflow.core.renderer.BucketRenderer.renderBucket,1,1400000,8.513,11768173.973
org.sunflow.core.renderer.BucketRenderer.renderBucket,1,1200000,10.190,13068197.128
org.sunflow.core.renderer.BucketRenderer.renderBucket,2,2400000,24.334,35108043.643
org.sunflow.core.renderer.BucketRenderer.renderBucket,2,2000000,13.465,20836702.476
org.sunflow.core.renderer.BucketRenderer.renderBucket,2,1200000,17.798,23330999.000
org.sunflow.core.renderer.BucketRenderer.renderBucket,3,2400000,36.503,52539936.857
method: org.sunflow.core.renderer.BucketRenderer.access$300is considered
org.sunflow.core.renderer.BucketRenderer.access$300,0,1600000,4.004,5914926.617
org.sunflow.core.renderer.BucketRenderer.access$300,1,1600000,7.313,10583673.182
