methodName,centroidNo,freqCounter,time,CacheMissRate
method: org.sunflow.core.renderer.BucketRenderer.renderBucketis considered
org.sunflow.core.renderer.BucketRenderer.renderBucket,0,2601000,323.283,0.164
org.sunflow.core.renderer.BucketRenderer.renderBucket,0,2400000,428.026,0.164
org.sunflow.core.renderer.BucketRenderer.renderBucket,0,2200000,359.333,0.173
org.sunflow.core.renderer.BucketRenderer.renderBucket,0,2000000,359.300,0.170
org.sunflow.core.renderer.BucketRenderer.renderBucket,0,1800000,397.515,0.170
org.sunflow.core.renderer.BucketRenderer.renderBucket,0,1600000,469.010,0.175
org.sunflow.core.renderer.BucketRenderer.renderBucket,0,1400000,526.022,0.174
org.sunflow.core.renderer.BucketRenderer.renderBucket,0,1200000,649.726,0.177
org.sunflow.core.renderer.BucketRenderer.renderBucket,1,2400000,1033.278,0.159
org.sunflow.core.renderer.BucketRenderer.renderBucket,1,2200000,2882.600,0.155
org.sunflow.core.renderer.BucketRenderer.renderBucket,1,2000000,418.842,0.178
org.sunflow.core.renderer.BucketRenderer.renderBucket,1,1600000,926.886,0.172
org.sunflow.core.renderer.BucketRenderer.renderBucket,1,1400000,1031.457,0.173
org.sunflow.core.renderer.BucketRenderer.renderBucket,2,2400000,1916.500,0.159
org.sunflow.core.renderer.BucketRenderer.renderBucket,2,2000000,1277.273,0.170
org.sunflow.core.renderer.BucketRenderer.renderBucket,3,2400000,2873.429,0.156
method: org.sunflow.core.renderer.BucketRenderer.access$300is considered
org.sunflow.core.renderer.BucketRenderer.access$300,0,1600000,461.319,0.181
org.sunflow.core.renderer.BucketRenderer.access$300,1,1600000,850.636,0.178
