methodName,centroidNo,freqCounter,time,cpu-clock
method: org.sunflow.core.renderer.BucketRenderer.renderBucketis considered
org.sunflow.core.renderer.BucketRenderer.renderBucket,0,2601000,327.042,1158376129.750
org.sunflow.core.renderer.BucketRenderer.renderBucket,0,2400000,361.913,1305732556.826
org.sunflow.core.renderer.BucketRenderer.renderBucket,0,2200000,399.357,1422256492.024
org.sunflow.core.renderer.BucketRenderer.renderBucket,0,2000000,602.563,2091706309.125
org.sunflow.core.renderer.BucketRenderer.renderBucket,0,1800000,407.368,1468870104.632
org.sunflow.core.renderer.BucketRenderer.renderBucket,0,1600000,443.333,1584308131.048
org.sunflow.core.renderer.BucketRenderer.renderBucket,0,1400000,517.032,1867253115.366
org.sunflow.core.renderer.BucketRenderer.renderBucket,0,1200000,589.089,2114215941.300
org.sunflow.core.renderer.BucketRenderer.renderBucket,1,2400000,999.154,3484362971.154
org.sunflow.core.renderer.BucketRenderer.renderBucket,1,2200000,722.167,2577537774.611
org.sunflow.core.renderer.BucketRenderer.renderBucket,1,2000000,1379.870,5024680416.043
org.sunflow.core.renderer.BucketRenderer.renderBucket,1,1600000,901.222,3230041858.806
org.sunflow.core.renderer.BucketRenderer.renderBucket,1,1400000,1027.771,3666821668.371
org.sunflow.core.renderer.BucketRenderer.renderBucket,1,1200000,1171.952,4156741985.619
org.sunflow.core.renderer.BucketRenderer.renderBucket,2,2400000,1954.667,6973634610.417
org.sunflow.core.renderer.BucketRenderer.renderBucket,2,2200000,1246.474,4504887249.895
org.sunflow.core.renderer.BucketRenderer.renderBucket,2,2000000,2256.842,8095936181.474
org.sunflow.core.renderer.BucketRenderer.renderBucket,3,2400000,2935.818,10444003373.455
skip the method: org.sunflow.Benchmark.imageUpdate
skip the method: org.sunflow.core.Instance.transformVectorObjectToWorld
