methodName,centroidNo,freqCounter,energy,counter1
org.sunflow.core.renderer.BucketRenderer.renderBucket,0,2601000,5.22673664102564,350.46153846153845
org.sunflow.core.renderer.BucketRenderer.renderBucket,0,2400000,4.254328612903226,265.61290322580646
org.sunflow.core.renderer.BucketRenderer.renderBucket,0,2200000,4.08249661764706,35.5
org.sunflow.core.renderer.BucketRenderer.renderBucket,0,2000000,4.726211121212121,445.6666666666667
org.sunflow.core.renderer.BucketRenderer.renderBucket,0,1800000,14.206733985185178,217.78518518518518
org.sunflow.core.renderer.BucketRenderer.renderBucket,0,1600000,3.663570871794872,38.294871794871796
org.sunflow.core.renderer.BucketRenderer.renderBucket,0,1400000,3.921747726027397,111.67123287671232
org.sunflow.core.renderer.BucketRenderer.renderBucket,0,1200000,4.049109759493668,3.6202531645569622
org.sunflow.core.renderer.BucketRenderer.renderBucket,1,2601000,10.751508000000001,2.6666666666666665
org.sunflow.core.renderer.BucketRenderer.renderBucket,1,2400000,5.559324444444445,121.33333333333333
org.sunflow.core.renderer.BucketRenderer.renderBucket,1,2200000,7.3570788823529405,225.7058823529412
org.sunflow.core.renderer.BucketRenderer.renderBucket,1,2000000,9.014911086956523,275.39130434782606
org.sunflow.core.renderer.BucketRenderer.renderBucket,1,1800000,6.086017549999999,4.6
org.sunflow.core.renderer.BucketRenderer.renderBucket,1,1600000,8.019910787878787,9.575757575757576
org.sunflow.core.renderer.BucketRenderer.renderBucket,1,1400000,7.922542962962962,5.111111111111111
org.sunflow.core.renderer.BucketRenderer.renderBucket,2,2601000,22.25358083333333,6.0
org.sunflow.core.renderer.BucketRenderer.renderBucket,2,2400000,8.5236908,9.0
org.sunflow.core.renderer.BucketRenderer.renderBucket,2,2200000,11.540753666666667,140.58333333333334
org.sunflow.core.renderer.BucketRenderer.renderBucket,2,2000000,15.467899291666663,617.7083333333334
org.sunflow.core.renderer.BucketRenderer.renderBucket,2,1800000,8.915885055555556,6.222222222222222
org.sunflow.core.renderer.BucketRenderer.renderBucket,2,1600000,13.689526173913043,198.8695652173913
org.sunflow.core.renderer.BucketRenderer.renderBucket,2,1400000,13.062804,534.1785714285714
org.sunflow.core.renderer.BucketRenderer.renderBucket,3,2601000,39.153573400000006,10.8
org.sunflow.core.renderer.BucketRenderer.renderBucket,3,2400000,14.093088076923078,1498.6923076923076
org.sunflow.core.renderer.BucketRenderer.renderBucket,3,2200000,18.617453263157895,367.7368421052632
org.sunflow.core.renderer.BucketRenderer.renderBucket,3,2000000,23.88649794117647,423.4117647058824
org.sunflow.core.renderer.BucketRenderer.renderBucket,3,1800000,12.65284809090909,6.818181818181818
org.sunflow.core.renderer.BucketRenderer.renderBucket,3,1600000,18.536142529411762,452.47058823529414
org.sunflow.core.renderer.BucketRenderer.renderBucket,3,1400000,18.779046285714283,7.0476190476190474
org.sunflow.core.renderer.BucketRenderer.renderBucket,4,2601000,22.738670416666668,629.0
org.sunflow.core.renderer.BucketRenderer.renderBucket,4,2400000,26.278244363636365,414.6363636363636
org.sunflow.core.renderer.BucketRenderer.renderBucket,4,2200000,36.32407792307692,1069.923076923077
org.sunflow.core.renderer.BucketRenderer.renderBucket,4,2000000,16.978090166666664,7.611111111111111
org.sunflow.core.renderer.BucketRenderer.renderBucket,4,1800000,23.6582738125,48.3125
org.sunflow.core.renderer.BucketRenderer.renderBucket,4,1600000,25.423424812499995,1261.6875
org.sunflow.core.renderer.BucketRenderer.renderBucket,5,2601000,33.45127036363636,1660.909090909091
org.sunflow.core.renderer.BucketRenderer.renderBucket,5,2400000,36.29519380000001,821.7
org.sunflow.core.renderer.BucketRenderer.renderBucket,5,2200000,22.442934666666666,41.22222222222222
org.sunflow.core.renderer.BucketRenderer.renderBucket,5,2000000,33.47634419999999,234.05
org.sunflow.core.renderer.BucketRenderer.renderBucket,5,1800000,35.013286111111114,983.7777777777778
org.sunflow.core.renderer.BucketRenderer.renderBucket,6,2601000,30.740469133333324,340.4
org.sunflow.core.renderer.BucketRenderer.renderBucket,6,2400000,47.07560216666666,117.83333333333333
org.sunflow.core.renderer.BucketRenderer.renderBucket,6,2200000,48.23405857142858,2502.1428571428573
org.sunflow.core.renderer.BucketRenderer.renderBucket,7,2601000,40.973926000000006,1577.5555555555557
