methodName,centroidNo,freqCounter,power,counterRate
org.sunflow.core.renderer.BucketRenderer.renderBucket,0,2601000,17.23205431306,1.086708861946688E7
org.sunflow.core.renderer.BucketRenderer.renderBucket,0,2400000,12.50348755922,8694353.777294409
org.sunflow.core.renderer.BucketRenderer.renderBucket,0,2200000,11.360078994746665,7915921.701040854
org.sunflow.core.renderer.BucketRenderer.renderBucket,0,2000000,10.29489235223125,7191546.501505551
org.sunflow.core.renderer.BucketRenderer.renderBucket,0,1800000,9.337726130560489,6498565.980665519
org.sunflow.core.renderer.BucketRenderer.renderBucket,0,1600000,8.507644021366668,5766456.912215628
org.sunflow.core.renderer.BucketRenderer.renderBucket,0,1400000,7.9924409822402405,5022202.766558698
org.sunflow.core.renderer.BucketRenderer.renderBucket,0,1200000,7.407127487050001,4248895.202990037
org.sunflow.core.renderer.BucketRenderer.renderBucket,1,2601000,17.247159055475,1.07470732263887E7
org.sunflow.core.renderer.BucketRenderer.renderBucket,1,2400000,12.522082065413333,8663742.137373352
org.sunflow.core.renderer.BucketRenderer.renderBucket,1,2200000,11.378497780028571,7923773.221846623
org.sunflow.core.renderer.BucketRenderer.renderBucket,1,2000000,10.300018577488887,7166811.180217712
org.sunflow.core.renderer.BucketRenderer.renderBucket,1,1800000,8.510522514641178,5755694.71316158
org.sunflow.core.renderer.BucketRenderer.renderBucket,1,1600000,7.996733995575001,5036850.919053061
org.sunflow.core.renderer.BucketRenderer.renderBucket,1,1400000,7.439341150815856,4348046.97658354
org.sunflow.core.renderer.BucketRenderer.renderBucket,2,2601000,17.307809413628,1.0787371434806889E7
org.sunflow.core.renderer.BucketRenderer.renderBucket,2,2400000,12.537779104833334,8602163.942741957
org.sunflow.core.renderer.BucketRenderer.renderBucket,2,2200000,11.3836706882,7953034.666965909
org.sunflow.core.renderer.BucketRenderer.renderBucket,2,2000000,10.302735856718181,7207039.383047506
org.sunflow.core.renderer.BucketRenderer.renderBucket,2,1800000,8.52224472904,5790755.847470757
org.sunflow.core.renderer.BucketRenderer.renderBucket,2,1600000,8.006211783236365,5067984.755519995
org.sunflow.core.renderer.BucketRenderer.renderBucket,2,1400000,7.442920406721427,4332736.640637658
org.sunflow.core.renderer.BucketRenderer.renderBucket,3,2601000,17.3176915494,1.0949442779296666E7
org.sunflow.core.renderer.BucketRenderer.renderBucket,3,2400000,12.549714949597782,8611675.748193359
org.sunflow.core.renderer.BucketRenderer.renderBucket,3,2200000,11.475832568387233,7885939.816124782
org.sunflow.core.renderer.BucketRenderer.renderBucket,3,2000000,10.307772487253846,7256077.318723206
org.sunflow.core.renderer.BucketRenderer.renderBucket,3,1800000,8.523732285172725,5779912.905622392
org.sunflow.core.renderer.BucketRenderer.renderBucket,3,1600000,8.007631886785715,5071529.5994483745
org.sunflow.core.renderer.BucketRenderer.renderBucket,3,1400000,7.4459163830375,4341456.541224267
org.sunflow.core.renderer.BucketRenderer.renderBucket,4,2601000,12.57527895797059,8653049.726819145
org.sunflow.core.renderer.BucketRenderer.renderBucket,4,2400000,10.32262351826,7239418.512329115
org.sunflow.core.renderer.BucketRenderer.renderBucket,4,2200000,8.525062448355554,5806371.293913622
org.sunflow.core.renderer.BucketRenderer.renderBucket,4,2000000,8.015369683488235,5069341.553719782
org.sunflow.core.renderer.BucketRenderer.renderBucket,4,1800000,7.449591710799998,4334836.507314848
org.sunflow.core.renderer.BucketRenderer.renderBucket,5,2601000,10.324680157883334,7339243.68654389
org.sunflow.core.renderer.BucketRenderer.renderBucket,5,2400000,8.530348388358332,5807626.605275825
org.sunflow.core.renderer.BucketRenderer.renderBucket,5,2200000,8.016956874177271,5054815.885165072
org.sunflow.core.renderer.BucketRenderer.renderBucket,5,2000000,7.452723520149998,4328866.693345415
org.sunflow.core.renderer.BucketRenderer.renderBucket,6,2601000,10.325763757942855,7238142.782883885
org.sunflow.core.renderer.BucketRenderer.renderBucket,6,2400000,8.531716999619999,5789003.378392651
org.sunflow.core.renderer.BucketRenderer.renderBucket,6,2200000,8.017127069872224,5057386.047299706
org.sunflow.core.renderer.BucketRenderer.renderBucket,6,2000000,7.4578590674,4341251.583156314
org.sunflow.core.renderer.BucketRenderer.renderBucket,7,2601000,8.543458344581252,5776979.294341966
org.sunflow.core.renderer.BucketRenderer.renderBucket,7,2400000,8.660348018204166,5152991.6815473465
org.sunflow.core.renderer.BucketRenderer.renderBucket,7,2200000,7.459860852547058,4329578.011644103
org.sunflow.core.renderer.BucketRenderer.renderBucket,8,2601000,9.092419856423078,5741214.567276209
org.sunflow.core.renderer.BucketRenderer.renderBucket,8,2400000,7.465419566500002,4334626.407171412
