methodName,centroidNo,freqCounter,time,counter2
org.sunflow.core.renderer.BucketRenderer.renderBucket,0,2601000,304.0,5.783124396521739E8
org.sunflow.core.renderer.BucketRenderer.renderBucket,0,2400000,572.2352941176471,8.915944138235294E8
org.sunflow.core.renderer.BucketRenderer.renderBucket,0,2200000,440.05555555555554,6.277075672777778E8
org.sunflow.core.renderer.BucketRenderer.renderBucket,0,2000000,382.42857142857144,4.9098556296428573E8
org.sunflow.core.renderer.BucketRenderer.renderBucket,0,1800000,449.1744186046512,5.276809641627907E8
org.sunflow.core.renderer.BucketRenderer.renderBucket,0,1600000,361.6470588235294,3.7540586788235295E8
org.sunflow.core.renderer.BucketRenderer.renderBucket,0,1400000,417.61538461538464,3.840984718076923E8
org.sunflow.core.renderer.BucketRenderer.renderBucket,0,1200000,596.6867469879518,4.636635147590361E8
org.sunflow.core.renderer.BucketRenderer.renderBucket,1,2601000,430.57142857142856,8.074477548571428E8
org.sunflow.core.renderer.BucketRenderer.renderBucket,1,2400000,2084.3846153846152,3.1898144516923075E9
org.sunflow.core.renderer.BucketRenderer.renderBucket,1,2200000,1547.5,2.163255809571429E9
org.sunflow.core.renderer.BucketRenderer.renderBucket,1,2000000,594.3076923076923,7.610647931538461E8
org.sunflow.core.renderer.BucketRenderer.renderBucket,1,1800000,898.8611111111111,1.0448361121111112E9
org.sunflow.core.renderer.BucketRenderer.renderBucket,1,1600000,446.8666666666667,4.5929408873333335E8
org.sunflow.core.renderer.BucketRenderer.renderBucket,1,1400000,571.6792452830189,5.234638052075472E8
org.sunflow.core.renderer.BucketRenderer.renderBucket,1,1200000,966.8181818181819,7.544378826363636E8
org.sunflow.core.renderer.BucketRenderer.renderBucket,2,2601000,682.3333333333334,1.2800463125E9
org.sunflow.core.renderer.BucketRenderer.renderBucket,2,2400000,2813.5555555555557,3.9542307866666665E9
org.sunflow.core.renderer.BucketRenderer.renderBucket,2,2200000,845.5,1.0855887529285715E9
org.sunflow.core.renderer.BucketRenderer.renderBucket,2,2000000,1455.92,1.71053860396E9
org.sunflow.core.renderer.BucketRenderer.renderBucket,2,1800000,499.3636363636364,5.145519424848485E8
org.sunflow.core.renderer.BucketRenderer.renderBucket,2,1600000,769.0,7.005608835454545E8
org.sunflow.core.renderer.BucketRenderer.renderBucket,2,1400000,1230.625,9.208546295E8
org.sunflow.core.renderer.BucketRenderer.renderBucket,3,2601000,1275.875,2.39079820275E9
org.sunflow.core.renderer.BucketRenderer.renderBucket,3,2400000,1285.1176470588234,1.6550805784117646E9
org.sunflow.core.renderer.BucketRenderer.renderBucket,3,2200000,1987.8095238095239,2.311470320285714E9
org.sunflow.core.renderer.BucketRenderer.renderBucket,3,2000000,562.4615384615385,5.882842674615384E8
org.sunflow.core.renderer.BucketRenderer.renderBucket,3,1800000,992.1111111111111,8.838819758888888E8
org.sunflow.core.renderer.BucketRenderer.renderBucket,3,1600000,1581.5833333333333,1.223268274E9
org.sunflow.core.renderer.BucketRenderer.renderBucket,4,2601000,2186.1666666666665,4.1281148831666665E9
org.sunflow.core.renderer.BucketRenderer.renderBucket,4,2400000,1972.8947368421052,2.5256178983157897E9
org.sunflow.core.renderer.BucketRenderer.renderBucket,4,2200000,2545.6,2.955676356E9
org.sunflow.core.renderer.BucketRenderer.renderBucket,4,2000000,688.5454545454545,7.097446106363636E8
org.sunflow.core.renderer.BucketRenderer.renderBucket,4,1800000,1350.8947368421052,1.2249302758947368E9
org.sunflow.core.renderer.BucketRenderer.renderBucket,4,1600000,2085.95,1.6186807276E9
org.sunflow.core.renderer.BucketRenderer.renderBucket,5,2601000,3118.8125,3.9984983836875E9
org.sunflow.core.renderer.BucketRenderer.renderBucket,5,2400000,3379.4375,3.947618233875E9
org.sunflow.core.renderer.BucketRenderer.renderBucket,5,2200000,862.2941176470588,8.818239834117647E8
org.sunflow.core.renderer.BucketRenderer.renderBucket,5,2000000,2001.6666666666667,1.8090889772222223E9
org.sunflow.core.renderer.BucketRenderer.renderBucket,5,1800000,2759.157894736842,2.123774444E9
org.sunflow.core.renderer.BucketRenderer.renderBucket,6,2601000,4616.0,5.345919284083333E9
org.sunflow.core.renderer.BucketRenderer.renderBucket,6,2400000,1093.4285714285713,1.1057533742142856E9
org.sunflow.core.renderer.BucketRenderer.renderBucket,6,2200000,2800.0,2.5221967737391305E9
org.sunflow.core.renderer.BucketRenderer.renderBucket,6,2000000,3703.1666666666665,2.824048857E9
org.sunflow.core.renderer.BucketRenderer.renderBucket,7,2601000,1417.3125,1.4659494121875E9
org.sunflow.core.renderer.BucketRenderer.renderBucket,7,2400000,4189.9,3.7684976119E9
org.sunflow.core.renderer.BucketRenderer.renderBucket,7,2200000,5123.5,3.9005545525E9
org.sunflow.core.renderer.BucketRenderer.renderBucket,8,2601000,1864.4761904761904,1.8967771285714285E9
org.sunflow.core.renderer.BucketRenderer.renderBucket,8,2400000,6131.2,5.5258845282E9
org.sunflow.core.renderer.BucketRenderer.renderBucket,8,2200000,6886.142857142857,5.28369479E9
org.sunflow.core.renderer.BucketRenderer.renderBucket,9,2601000,2500.904761904762,2.5582692913333335E9
org.sunflow.core.renderer.BucketRenderer.renderBucket,10,2601000,3619.6,3.7026792485E9
org.sunflow.core.renderer.BucketRenderer.renderBucket,11,2601000,5384.6,5.4860035304E9
org.sunflow.core.renderer.BucketRenderer.access$300,0,1800000,435.6986301369863,5.122086322328767E8
org.sunflow.core.renderer.BucketRenderer.access$300,1,1800000,688.6470588235294,8.124808900588236E8
org.sunflow.core.renderer.BucketRenderer.access$300,2,1800000,924.0,1.0463842908333334E9
org.sunflow.core.renderer.BucketRenderer.access$300,3,1800000,1176.6153846153845,1.3716887567692308E9
org.sunflow.core.renderer.BucketRenderer.access$300,4,1800000,1513.2631578947369,1.7827096740526316E9
org.sunflow.core.renderer.BucketRenderer.access$300,5,1800000,1974.7222222222222,2.2957706755E9
org.sunflow.core.renderer.BucketRenderer.access$300,6,1800000,2527.5,2.934701009785714E9
org.sunflow.core.renderer.BucketRenderer.access$300,7,1800000,3380.125,3.9482766316875E9
org.sunflow.core.renderer.BucketRenderer.access$300,8,1800000,4616.833333333333,5.34655684525E9
