methodName,centroidNo,freqCounter,time,counter1
org.sunflow.core.renderer.BucketRenderer.renderBucket,0,2601000,301.3636363636364,5226623.7727272725
org.sunflow.core.renderer.BucketRenderer.renderBucket,0,2400000,572.2352941176471,7915069.588235294
org.sunflow.core.renderer.BucketRenderer.renderBucket,0,2200000,440.05555555555554,5523924.833333333
org.sunflow.core.renderer.BucketRenderer.renderBucket,0,2000000,382.42857142857144,4815767.535714285
org.sunflow.core.renderer.BucketRenderer.renderBucket,0,1800000,449.1744186046512,4615667.348837209
org.sunflow.core.renderer.BucketRenderer.renderBucket,0,1600000,375.04545454545456,3709286.772727273
org.sunflow.core.renderer.BucketRenderer.renderBucket,0,1400000,417.61538461538464,3627810.423076923
org.sunflow.core.renderer.BucketRenderer.renderBucket,0,1200000,596.6867469879518,4258582.445783133
org.sunflow.core.renderer.BucketRenderer.renderBucket,1,2601000,422.0,8455079.375
org.sunflow.core.renderer.BucketRenderer.renderBucket,1,2400000,2084.3846153846152,3.0456920384615384E7
org.sunflow.core.renderer.BucketRenderer.renderBucket,1,2200000,1547.5,2.080965335714286E7
org.sunflow.core.renderer.BucketRenderer.renderBucket,1,2000000,594.3076923076923,7925984.692307692
org.sunflow.core.renderer.BucketRenderer.renderBucket,1,1800000,898.8611111111111,9732828.805555556
org.sunflow.core.renderer.BucketRenderer.renderBucket,1,1600000,499.65384615384613,4859342.365384615
org.sunflow.core.renderer.BucketRenderer.renderBucket,1,1400000,571.6792452830189,4644117.188679245
org.sunflow.core.renderer.BucketRenderer.renderBucket,1,1200000,1092.75,8112647.75
org.sunflow.core.renderer.BucketRenderer.renderBucket,2,2601000,682.3333333333334,1.4649909833333334E7
org.sunflow.core.renderer.BucketRenderer.renderBucket,2,2400000,2813.5555555555557,4.0258146666666664E7
org.sunflow.core.renderer.BucketRenderer.renderBucket,2,2200000,829.3076923076923,1.0952368076923076E7
org.sunflow.core.renderer.BucketRenderer.renderBucket,2,2000000,1455.92,1.551122172E7
org.sunflow.core.renderer.BucketRenderer.renderBucket,2,1800000,665.5333333333333,5894834.666666667
org.sunflow.core.renderer.BucketRenderer.renderBucket,2,1600000,769.0,6288608.636363637
org.sunflow.core.renderer.BucketRenderer.renderBucket,2,1400000,1538.5333333333333,1.1301167133333333E7
org.sunflow.core.renderer.BucketRenderer.renderBucket,3,2601000,1275.875,2.726396075E7
org.sunflow.core.renderer.BucketRenderer.renderBucket,3,2400000,1272.388888888889,1.6734368333333334E7
org.sunflow.core.renderer.BucketRenderer.renderBucket,3,2200000,1909.642857142857,2.1344016E7
org.sunflow.core.renderer.BucketRenderer.renderBucket,3,2000000,862.2941176470588,8514023.705882354
org.sunflow.core.renderer.BucketRenderer.renderBucket,3,1800000,972.9411764705883,8296323.588235294
org.sunflow.core.renderer.BucketRenderer.renderBucket,3,1600000,2085.95,1.539935745E7
org.sunflow.core.renderer.BucketRenderer.renderBucket,4,2601000,2186.1666666666665,4.8683702166666664E7
org.sunflow.core.renderer.BucketRenderer.renderBucket,4,2400000,1972.8947368421052,2.679146047368421E7
org.sunflow.core.renderer.BucketRenderer.renderBucket,4,2200000,2164.375,2.4215401125E7
org.sunflow.core.renderer.BucketRenderer.renderBucket,4,2000000,1093.4285714285713,1.04942975E7
org.sunflow.core.renderer.BucketRenderer.renderBucket,4,1800000,1349.25,1.10869874E7
org.sunflow.core.renderer.BucketRenderer.renderBucket,4,1600000,2759.157894736842,2.027903136842105E7
org.sunflow.core.renderer.BucketRenderer.renderBucket,5,2601000,3118.8125,4.3269313125E7
org.sunflow.core.renderer.BucketRenderer.renderBucket,5,2400000,2562.714285714286,3.0358319785714287E7
org.sunflow.core.renderer.BucketRenderer.renderBucket,5,2200000,1417.3125,1.378909775E7
org.sunflow.core.renderer.BucketRenderer.renderBucket,5,2000000,2001.6666666666667,1.6573370444444444E7
org.sunflow.core.renderer.BucketRenderer.renderBucket,5,1800000,3703.1666666666665,2.9623834944444444E7
org.sunflow.core.renderer.BucketRenderer.renderBucket,6,2601000,3379.4375,3.697400225E7
org.sunflow.core.renderer.BucketRenderer.renderBucket,6,2400000,1864.4761904761904,1.802685561904762E7
org.sunflow.core.renderer.BucketRenderer.renderBucket,6,2200000,2800.0,2.5337722782608695E7
org.sunflow.core.renderer.BucketRenderer.renderBucket,6,2000000,5123.5,3.94896769375E7
org.sunflow.core.renderer.BucketRenderer.renderBucket,7,2601000,4616.0,5.5264622583333336E7
org.sunflow.core.renderer.BucketRenderer.renderBucket,7,2400000,2500.904761904762,2.5975890523809522E7
org.sunflow.core.renderer.BucketRenderer.renderBucket,7,2200000,4189.9,3.77128811E7
org.sunflow.core.renderer.BucketRenderer.renderBucket,7,2000000,6886.142857142857,5.693758414285714E7
org.sunflow.core.renderer.BucketRenderer.renderBucket,8,2601000,3577.5263157894738,3.6766423E7
org.sunflow.core.renderer.BucketRenderer.renderBucket,8,2400000,6131.2,5.80468562E7
org.sunflow.core.renderer.BucketRenderer.renderBucket,9,2601000,5223.666666666667,5.6568524E7
org.sunflow.core.renderer.BucketRenderer.access$300,0,1800000,446.8333333333333,4565820.358974359
org.sunflow.core.renderer.BucketRenderer.access$300,1,1800000,897.65625,9719735.15625
org.sunflow.core.renderer.BucketRenderer.access$300,2,1800000,1461.2916666666667,1.5493866416666666E7
org.sunflow.core.renderer.BucketRenderer.access$300,3,1800000,1974.7222222222222,2.1888859444444444E7
org.sunflow.core.renderer.BucketRenderer.access$300,4,1800000,2527.5,2.972574314285714E7
org.sunflow.core.renderer.BucketRenderer.access$300,5,1800000,3380.125,3.69828743125E7
org.sunflow.core.renderer.BucketRenderer.access$300,6,1800000,4616.833333333333,5.5274065333333336E7
