methodName,centroids_ID,PearsonsCorrelation,SpearmansCorrelation
org.sunflow.core.renderer.BucketRenderer.renderBucket,centroid0,0.253,0.071
org.sunflow.core.renderer.BucketRenderer.renderBucket,centroid1,0.437,0.393
org.sunflow.core.renderer.BucketRenderer.renderBucket,centroid2,0.552,0.571
