methodName,centroids_ID,PearsonsCorrelation,SpearmansCorrelation
org.sunflow.core.renderer.BucketRenderer.renderBucket,centroid0,0.073,-0.357
org.sunflow.core.renderer.BucketRenderer.renderBucket,centroid1,0.808,0.929
org.sunflow.core.renderer.BucketRenderer.renderBucket,centroid2,0.927,0.857
