methodName,centroids_ID,PearsonsCorrelation,SpearmansCorrelation
org.sunflow.core.renderer.BucketRenderer.renderBucket,centroid0,-0.017,-0.143
org.sunflow.core.renderer.BucketRenderer.renderBucket,centroid1,-0.255,0.036
