methodName,centroids_ID,PearsonsCorrelation,SpearmansCorrelation
org.sunflow.core.renderer.BucketRenderer.renderBucket,centroid0,-0.338,-0.857
org.sunflow.core.renderer.BucketRenderer.renderBucket,centroid1,-0.100,0.143
org.sunflow.core.renderer.BucketRenderer.renderBucket,centroid2,0.007,0.214
