methodName,centroids_ID,PearsonsCorrelation,SpearmansCorrelation
org.sunflow.core.renderer.BucketRenderer.renderBucket,centroid0,0.9849460341143421,0.9285714285714286
org.sunflow.core.renderer.BucketRenderer.renderBucket,centroid1,0.9990942157090452,0.9642857142857143
org.sunflow.core.renderer.BucketRenderer.renderBucket,centroid2,0.9987361754818475,1.0
org.sunflow.core.renderer.BucketRenderer.renderBucket,centroid3,0.9940688423133983,1.0
org.sunflow.core.renderer.BucketRenderer.renderBucket,centroid4,0.9904700228055751,1.0
org.sunflow.core.renderer.BucketRenderer.renderBucket,centroid5,0.0,0.0
org.sunflow.core.renderer.BucketRenderer.access$300,centroid0,0.0,0.0
org.sunflow.core.renderer.BucketRenderer.access$300,centroid1,0.0,0.0
org.sunflow.core.renderer.BucketRenderer.access$300,centroid2,0.0,0.0
org.sunflow.core.renderer.BucketRenderer.access$300,centroid3,0.0,0.0
org.sunflow.core.renderer.BucketRenderer.access$300,centroid4,0.0,0.0
