methodName,centroids_ID,PearsonsCorrelation,SpearmansCorrelation
org.sunflow.core.renderer.BucketRenderer.renderBucket,centroid0,0.4041204653497319,0.46428571428571425
org.sunflow.core.renderer.BucketRenderer.renderBucket,centroid1,0.2831745393804585,0.0714285714285713
org.sunflow.core.renderer.BucketRenderer.renderBucket,centroid2,0.5325896495485037,0.5357142857142856
org.sunflow.core.renderer.BucketRenderer.renderBucket,centroid3,-0.018657123263931655,0.17857142857142852
org.sunflow.core.renderer.BucketRenderer.renderBucket,centroid4,-0.2653459831950304,-0.17857142857142852
org.sunflow.core.renderer.BucketRenderer.renderBucket,centroid5,0.0,0.0
org.sunflow.core.renderer.BucketRenderer.access$300,centroid0,0.0,0.0
org.sunflow.core.renderer.BucketRenderer.access$300,centroid1,0.0,0.0
org.sunflow.core.renderer.BucketRenderer.access$300,centroid2,0.0,0.0
org.sunflow.core.renderer.BucketRenderer.access$300,centroid3,0.0,0.0
org.sunflow.core.renderer.BucketRenderer.access$300,centroid4,0.0,0.0
org.sunflow.core.renderer.BucketRenderer.access$300,centroid5,0.0,0.0
org.sunflow.core.renderer.BucketRenderer.access$300,centroid6,0.0,0.0
