methodName,centroids_ID,PearsonsCorrelation,SpearmansCorrelation
org.sunflow.core.renderer.BucketRenderer.renderBucket,centroid0,0.056022843516493497,-0.3571428571428572
org.sunflow.core.renderer.BucketRenderer.renderBucket,centroid1,0.644768779982265,0.8928571428571429
org.sunflow.core.renderer.BucketRenderer.renderBucket,centroid2,0.8552401526071481,0.7142857142857143
org.sunflow.core.renderer.BucketRenderer.renderBucket,centroid3,0.9582549588068495,0.46428571428571425
org.sunflow.core.renderer.BucketRenderer.renderBucket,centroid4,0.0,0.0
