methodName,centroids_ID,PearsonsCorrelation,SpearmansCorrelation
org.sunflow.core.renderer.BucketRenderer.renderBucket,centroid0,-0.4645859453215949,-0.28571428571428586
org.sunflow.core.renderer.BucketRenderer.renderBucket,centroid1,0.8267869278585953,0.28571428571428564
org.sunflow.core.renderer.BucketRenderer.renderBucket,centroid2,0.8502030091950614,0.6428571428571429
org.sunflow.core.renderer.BucketRenderer.renderBucket,centroid3,0.7994418665284674,0.8214285714285714
org.sunflow.core.renderer.BucketRenderer.renderBucket,centroid4,0.0,0.0
