methodName,centroids_ID,PearsonsCorrelation,SpearmansCorrelation
org.sunflow.core.renderer.BucketRenderer.renderBucket,centroid0,0.17505036078765598,0.10714285714285682
org.sunflow.core.renderer.BucketRenderer.renderBucket,centroid1,-0.0026641777727431978,0.17857142857142855
org.sunflow.core.renderer.BucketRenderer.renderBucket,centroid2,0.3334194845335998,0.75
org.sunflow.core.renderer.BucketRenderer.renderBucket,centroid3,-0.24939035604595414,-0.1071428571428568
org.sunflow.core.renderer.BucketRenderer.renderBucket,centroid4,0.0,0.0
