methodName,centroids_ID,PearsonsCorrelation,SpearmansCorrelation
org.sunflow.core.renderer.BucketRenderer.renderBucket,centroid0,-0.16160340088615016,0.5714285714285714
org.sunflow.core.renderer.BucketRenderer.renderBucket,centroid1,-0.09014535560431416,-0.21428571428571422
org.sunflow.core.renderer.BucketRenderer.renderBucket,centroid2,0.1479132652069783,0.17857142857142852
org.sunflow.core.renderer.BucketRenderer.renderBucket,centroid3,-0.36183324800452854,-0.14285714285714304
org.sunflow.core.renderer.BucketRenderer.renderBucket,centroid4,0.0,0.0
