methodName,centroids_ID,PearsonsCorrelation,SpearmansCorrelation
org.sunflow.core.renderer.BucketRenderer.renderBucket,centroid0,0.7126006579589735,0.7142857142857143
org.sunflow.core.renderer.BucketRenderer.renderBucket,centroid1,0.0,0.0
org.sunflow.core.renderer.BucketRenderer.access$300,centroid0,0.0,0.0
org.sunflow.core.renderer.BucketRenderer.access$300,centroid1,0.0,0.0
