methodName,centroids_ID,PearsonsCorrelation,SpearmansCorrelation
org.sunflow.core.renderer.BucketRenderer.renderBucket,centroid0,0.07966981208887322,0.0714285714285713
org.sunflow.core.renderer.BucketRenderer.renderBucket,centroid1,0.9380416156633087,0.8571428571428572
org.sunflow.core.renderer.BucketRenderer.renderBucket,centroid2,0.9320665984016657,0.9285714285714285
org.sunflow.core.renderer.BucketRenderer.renderBucket,centroid3,0.9094054820406129,0.8571428571428571
org.sunflow.core.renderer.BucketRenderer.renderBucket,centroid4,0.8763346767902706,0.9285714285714285
org.sunflow.core.renderer.BucketRenderer.renderBucket,centroid5,0.8966920229676617,0.75
org.sunflow.core.renderer.BucketRenderer.renderBucket,centroid6,0.0,0.0
