NumberOfThread,Frequency,power_limit(pkg-dram),time_window(pkg-dram),MethodName,WallClockTime,CpuTime,UserModeTime,KernelModeTime,DramEnergy0,CPUEnergy0,PackageEnergy0,DramPower0,CPUPower0,PackagePower0,DramEnergySD0,CPUEnergySD0,PackageEnergySD0,WallClockTimeSD
8,0,0.0-0.0,0.0-0.0,sunflow,11.34,0,0,0,0.63,155.11,203.12,0.06,13.68,17.91,0.6334682404,1.3433714012,2.1469000131,0.1061143311
real,1m9.283s,,,,,,,,,,,,,,,,,,
user,4m16.528s,,,,,,,,,,,,,,,,,,
sys,0m0.932s,,,,,,,,,,,,,,,,,,
