methodName,centroidNo,freqCounter,power,CPUCyclesByTime
org.sunflow.core.renderer.BucketRenderer.renderBucket,0,2601000,17.308,10787371.435
org.sunflow.core.renderer.BucketRenderer.renderBucket,0,2400000,12.522,8663742.137
org.sunflow.core.renderer.BucketRenderer.renderBucket,0,2200000,11.360,7915921.701
org.sunflow.core.renderer.BucketRenderer.renderBucket,0,2000000,10.295,7191546.502
org.sunflow.core.renderer.BucketRenderer.renderBucket,0,1800000,9.338,6498565.981
org.sunflow.core.renderer.BucketRenderer.renderBucket,0,1600000,8.524,5779912.906
org.sunflow.core.renderer.BucketRenderer.renderBucket,0,1400000,7.992,5022202.767
org.sunflow.core.renderer.BucketRenderer.renderBucket,0,1200000,7.439,4348046.977
org.sunflow.core.renderer.BucketRenderer.renderBucket,1,2400000,12.550,8611675.748
org.sunflow.core.renderer.BucketRenderer.renderBucket,1,2200000,11.384,7953034.667
org.sunflow.core.renderer.BucketRenderer.renderBucket,1,2000000,10.300,7166811.180
org.sunflow.core.renderer.BucketRenderer.renderBucket,2,2400000,12.575,8653049.727
org.sunflow.core.renderer.BucketRenderer.renderBucket,2,2200000,11.476,7885939.816
