methodName,centroidNo,freqCounter,energy,page-faults
org.sunflow.core.renderer.BucketRenderer.renderBucket,0,2601000,5.227,350.462
org.sunflow.core.renderer.BucketRenderer.renderBucket,0,2400000,4.254,265.613
org.sunflow.core.renderer.BucketRenderer.renderBucket,0,2200000,4.082,35.500
org.sunflow.core.renderer.BucketRenderer.renderBucket,0,2000000,4.726,445.667
org.sunflow.core.renderer.BucketRenderer.renderBucket,0,1800000,14.207,217.785
org.sunflow.core.renderer.BucketRenderer.renderBucket,0,1600000,3.664,38.295
org.sunflow.core.renderer.BucketRenderer.renderBucket,0,1400000,3.922,111.671
org.sunflow.core.renderer.BucketRenderer.renderBucket,0,1200000,4.049,3.620
org.sunflow.core.renderer.BucketRenderer.renderBucket,1,2400000,14.093,1498.692
org.sunflow.core.renderer.BucketRenderer.renderBucket,1,2200000,7.357,225.706
org.sunflow.core.renderer.BucketRenderer.renderBucket,1,2000000,9.015,275.391
org.sunflow.core.renderer.BucketRenderer.renderBucket,1,1400000,8.020,9.576
org.sunflow.core.renderer.BucketRenderer.renderBucket,2,2200000,18.617,367.737
org.sunflow.core.renderer.BucketRenderer.renderBucket,2,2000000,15.468,617.708
org.sunflow.core.renderer.BucketRenderer.renderBucket,3,2000000,23.886,423.412
