methodName,centroidNo,freqCounter,time,branches
org.sunflow.core.renderer.BucketRenderer.renderBucket,0,2601000,304.000,578312439.652
org.sunflow.core.renderer.BucketRenderer.renderBucket,0,2400000,572.235,891594413.824
org.sunflow.core.renderer.BucketRenderer.renderBucket,0,2200000,440.056,627707567.278
org.sunflow.core.renderer.BucketRenderer.renderBucket,0,2000000,382.429,490985562.964
org.sunflow.core.renderer.BucketRenderer.renderBucket,0,1800000,439.012,516122360.642
org.sunflow.core.renderer.BucketRenderer.renderBucket,0,1600000,490.977,506691176.517
org.sunflow.core.renderer.BucketRenderer.renderBucket,0,1400000,566.600,518977061.900
org.sunflow.core.renderer.BucketRenderer.renderBucket,0,1200000,596.687,463663514.759
org.sunflow.core.renderer.BucketRenderer.renderBucket,1,2601000,1275.875,2390798202.750
org.sunflow.core.renderer.BucketRenderer.renderBucket,1,2400000,2084.385,3189814451.692
org.sunflow.core.renderer.BucketRenderer.renderBucket,1,2200000,1547.500,2163255809.571
org.sunflow.core.renderer.BucketRenderer.renderBucket,1,2000000,1285.118,1655080578.412
org.sunflow.core.renderer.BucketRenderer.renderBucket,1,1600000,997.737,1020750780.553
org.sunflow.core.renderer.BucketRenderer.renderBucket,2,2200000,2813.556,3954230786.667
org.sunflow.core.renderer.BucketRenderer.renderBucket,2,2000000,1972.895,2525617898.316
org.sunflow.core.renderer.BucketRenderer.renderBucket,2,1600000,1717.065,1754134671.097
org.sunflow.core.renderer.BucketRenderer.access$300,0,1800000,435.699,512208632.233
