methodName,centroidNo,freqCounter,energy,cache-references
org.sunflow.core.renderer.BucketRenderer.renderBucket,0,2601000,5.401,7448917.088
org.sunflow.core.renderer.BucketRenderer.renderBucket,0,2400000,5.253,7881380.650
org.sunflow.core.renderer.BucketRenderer.renderBucket,0,2200000,4.530,6926220.357
org.sunflow.core.renderer.BucketRenderer.renderBucket,0,2000000,4.044,6179953.636
org.sunflow.core.renderer.BucketRenderer.renderBucket,0,1800000,3.749,5573078.213
org.sunflow.core.renderer.BucketRenderer.renderBucket,0,1600000,4.240,6113581.564
org.sunflow.core.renderer.BucketRenderer.renderBucket,0,1400000,4.107,5829301.690
org.sunflow.core.renderer.BucketRenderer.renderBucket,0,1200000,4.420,6076689.024
org.sunflow.core.renderer.BucketRenderer.renderBucket,1,2601000,10.322,14307719.625
org.sunflow.core.renderer.BucketRenderer.renderBucket,1,2400000,18.582,28069118.929
org.sunflow.core.renderer.BucketRenderer.renderBucket,1,2200000,8.546,12918850.000
org.sunflow.core.renderer.BucketRenderer.renderBucket,1,2000000,23.647,36602106.737
org.sunflow.core.renderer.BucketRenderer.renderBucket,1,1400000,7.957,11373670.941
org.sunflow.core.renderer.BucketRenderer.renderBucket,2,2400000,32.741,48372105.727
org.sunflow.core.renderer.BucketRenderer.renderBucket,2,2200000,15.049,23038495.042
org.sunflow.core.renderer.BucketRenderer.renderBucket,3,2200000,24.226,36940219.000
