methodName,centroidNo,freqCounter,power,branches
org.sunflow.core.renderer.BucketRenderer.renderBucket,0,2601000,17.287,1410573463.840
org.sunflow.core.renderer.BucketRenderer.renderBucket,0,2400000,12.524,1935053996.379
org.sunflow.core.renderer.BucketRenderer.renderBucket,0,2200000,11.338,1882253527.439
org.sunflow.core.renderer.BucketRenderer.renderBucket,0,2000000,10.277,1672324903.318
org.sunflow.core.renderer.BucketRenderer.renderBucket,0,1800000,9.313,1643254160.014
org.sunflow.core.renderer.BucketRenderer.renderBucket,0,1600000,8.472,1454457584.881
org.sunflow.core.renderer.BucketRenderer.renderBucket,0,1400000,7.943,1460791328.030
org.sunflow.core.renderer.BucketRenderer.renderBucket,0,1200000,7.386,1484383934.318
org.sunflow.core.renderer.BucketRenderer.access$300,0,1800000,9.313,1680520118.254
