methodName,centroidNo,freqCounter,power,branch-misses
org.sunflow.core.renderer.BucketRenderer.renderBucket,0,2601000,17.287,15614794.320
org.sunflow.core.renderer.BucketRenderer.renderBucket,0,2400000,12.524,18115210.759
org.sunflow.core.renderer.BucketRenderer.renderBucket,0,2200000,11.338,18368027.171
org.sunflow.core.renderer.BucketRenderer.renderBucket,0,2000000,10.277,17596499.682
org.sunflow.core.renderer.BucketRenderer.renderBucket,0,1800000,9.313,15723543.590
org.sunflow.core.renderer.BucketRenderer.renderBucket,0,1600000,8.472,14315445.054
org.sunflow.core.renderer.BucketRenderer.renderBucket,0,1400000,7.943,14138206.289
org.sunflow.core.renderer.BucketRenderer.renderBucket,0,1200000,7.386,14775446.612
org.sunflow.core.renderer.BucketRenderer.access$300,0,1800000,9.313,16055482.881
