methodName,centroidNo,freqCounter,time,PageFaultsByTime
org.sunflow.core.renderer.BucketRenderer.renderBucket,0,2601000,304.077,1.110
org.sunflow.core.renderer.BucketRenderer.renderBucket,0,2400000,339.839,0.780
org.sunflow.core.renderer.BucketRenderer.renderBucket,0,2200000,360.412,0.099
org.sunflow.core.renderer.BucketRenderer.renderBucket,0,2000000,448.774,1.051
org.sunflow.core.renderer.BucketRenderer.renderBucket,0,1800000,1525.844,0.210
org.sunflow.core.renderer.BucketRenderer.renderBucket,0,1600000,432.897,0.082
org.sunflow.core.renderer.BucketRenderer.renderBucket,0,1400000,496.356,0.214
org.sunflow.core.renderer.BucketRenderer.renderBucket,0,1200000,487.618,0.005
org.sunflow.core.renderer.BucketRenderer.renderBucket,1,2400000,1122.692,1.297
org.sunflow.core.renderer.BucketRenderer.renderBucket,1,2200000,650.235,0.411
org.sunflow.core.renderer.BucketRenderer.renderBucket,1,2000000,808.286,0.332
org.sunflow.core.renderer.BucketRenderer.renderBucket,1,1200000,594.364,0.008
org.sunflow.core.renderer.BucketRenderer.renderBucket,2,2400000,1930.813,0.456
org.sunflow.core.renderer.BucketRenderer.renderBucket,2,2200000,1641.000,0.208
org.sunflow.core.renderer.BucketRenderer.renderBucket,2,2000000,1607.647,0.539
org.sunflow.core.renderer.BucketRenderer.renderBucket,3,2000000,2325.235,0.179
