methodName,frequency,energy,power,cache-misses,cache-references,counterRate,counterRateByTime,time
org.sunflow.core.renderer.BucketRenderer.renderBucket,2601000,10.025081779384836,0.1033084620045763,1903634.883665026,1.325480137060245E7,0.015062645020779914,529.887586140912,575.728976871442
org.sunflow.core.renderer.BucketRenderer.renderBucket,2400000,11.928379973781507,0.07004648057469527,2661360.2667095405,1.711093394160244E7,0.009371496115043348,287.06063924951616,939.1763217669815
org.sunflow.core.renderer.BucketRenderer.renderBucket,2200000,11.997209832967945,0.05884508931827427,2631264.027059786,1.7227662160910625E7,0.01105076133798671,340.01933863725134,1033.8839274019767
org.sunflow.core.renderer.BucketRenderer.renderBucket,2000000,9.987450535419377,0.048091632259802265,2474907.4270227877,1.5264360853468178E7,0.01352893184330823,304.47468719013096,954.851240702429
org.sunflow.core.renderer.BucketRenderer.renderBucket,1800000,10.760108901874538,0.11599265963132314,2764254.565372755,1.6581919145385537E7,0.008101342732369838,184.17290599038304,1128.4515657955312
org.sunflow.core.renderer.BucketRenderer.renderBucket,1600000,10.757432793591555,0.08091467706678722,2635915.526735399,1.5876554291456077E7,0.008644065832897953,159.03359851148434,1234.1270317634971
org.sunflow.core.renderer.BucketRenderer.renderBucket,1400000,11.465860713396568,0.07984141532290547,2663716.6386144035,1.5974992663305175E7,0.008135366778051684,130.9888105335214,1402.7153220812793
org.sunflow.core.renderer.BucketRenderer.renderBucket,1200000,12.280494609564196,0.06665261913234108,2746844.022105485,1.6100286280999742E7,0.007822210896857234,120.94425452428946,1611.734688275835
org.sunflow.core.renderer.BucketRenderer.access$300,1600000,4.877064834517179,0.13491521392289463,1215805.673375839,6930520.216974102,0.010053300970201545,178.44549157562864,562.3197891070927
