methodName,centroids_ID,PearsonsCorrelation,SpearmansCorrelation
org.sunflow.core.renderer.BucketRenderer.renderBucket,centroid0,0.7160246417368045,0.5714285714285715
org.sunflow.core.renderer.BucketRenderer.renderBucket,centroid1,0.10000217470880518,0.09523809523809507
org.sunflow.core.renderer.BucketRenderer.renderBucket,centroid2,0.14797314313501034,0.38095238095238093
org.sunflow.core.renderer.BucketRenderer.renderBucket,centroid3,0.641112577364298,0.6428571428571429
org.sunflow.core.renderer.BucketRenderer.renderBucket,centroid4,0.2694703748062842,0.21428571428571438
org.sunflow.core.renderer.BucketRenderer.renderBucket,centroid5,0.3327253805038835,0.5
org.sunflow.core.renderer.BucketRenderer.renderBucket,centroid6,0.3433007278947678,0.1428571428571426
org.sunflow.core.renderer.BucketRenderer.renderBucket,centroid7,-0.16437995502322356,-0.11904761904761901
org.sunflow.core.renderer.BucketRenderer.renderBucket,centroid8,0.4998553505718569,0.38095238095238093
org.sunflow.core.renderer.BucketRenderer.access$300,centroid0,1.0,1.0
org.sunflow.core.renderer.BucketRenderer.access$300,centroid1,1.0,1.0
org.sunflow.core.renderer.BucketRenderer.access$300,centroid2,0.9999999999999999,1.0
org.sunflow.core.renderer.BucketRenderer.access$300,centroid3,1.0,1.0
org.sunflow.core.renderer.BucketRenderer.access$300,centroid4,0.9999999999999999,1.0
org.sunflow.core.renderer.BucketRenderer.access$300,centroid5,1.0,1.0
org.sunflow.core.renderer.BucketRenderer.access$300,centroid6,1.0,1.0
org.sunflow.core.renderer.BucketRenderer.access$300,centroid7,1.0,1.0
org.sunflow.core.renderer.BucketRenderer.access$300,centroid8,1.0,1.0
org.sunflow.math.Vector3.normalize,centroid0,NaN,NaN
org.sunflow.math.Vector3.normalize,centroid1,NaN,NaN
org.sunflow.math.Vector3.normalize,centroid2,NaN,NaN
org.sunflow.math.Vector3.normalize,centroid3,NaN,NaN
org.sunflow.math.Vector3.normalize,centroid4,NaN,NaN
org.sunflow.math.Vector3.normalize,centroid5,NaN,NaN
org.sunflow.math.Vector3.normalize,centroid6,NaN,NaN
org.sunflow.math.Vector3.normalize,centroid7,NaN,NaN
org.sunflow.math.Vector3.normalize,centroid8,NaN,NaN
