methodName,frequency,energy,power,branch-misses,branches,counterRate,counterRateByTime,time
org.sunflow.core.renderer.BucketRenderer.renderBucket,2601000,12.92408348,17.287196199793996,1.561479432E7,1.41057346384E9,0.010311153168000003,19460.889368176366,748.48
org.sunflow.core.renderer.BucketRenderer.renderBucket,2400000,15.376557300000002,12.569879801409998,1.7683204933333334E7,1.8874897635666666E9,0.009354470056666668,14468.768505430106,1227.5
org.sunflow.core.renderer.BucketRenderer.renderBucket,2200000,15.19270543902439,11.338323852875607,1.836802717073171E7,1.8822535274390244E9,0.009335902653658537,13160.035300864503,1339.219512195122
org.sunflow.core.renderer.BucketRenderer.renderBucket,2000000,13.403506168224299,10.277395127022432,1.759649968224299E7,1.672324903317757E9,0.010283913142990654,13191.823658065978,1303.7757009345794
org.sunflow.core.renderer.BucketRenderer.renderBucket,1800000,13.094980639810432,9.307750079147397,1.5675000895734597E7,1.639559588957346E9,0.009221098513744072,10786.686521493633,1406.5260663507108
org.sunflow.core.renderer.BucketRenderer.renderBucket,1600000,12.012396088669952,8.466595348227093,1.4271071990147782E7,1.451589824497537E9,0.00954877008128079,9815.156991854848,1417.9704433497536
org.sunflow.core.renderer.BucketRenderer.renderBucket,1400000,12.812490019801976,7.937685719918321,1.409482056930693E7,1.4577978491584158E9,0.009346224873267323,8484.1989139869,1614.0594059405942
org.sunflow.core.renderer.BucketRenderer.renderBucket,1200000,14.257049400990095,7.3815067391168325,1.472573806930693E7,1.480934289990099E9,0.009576627575247526,7384.732233588775,1929.7425742574258
org.sunflow.core.renderer.BucketRenderer.access$300,1800000,6.560766714646462,4.5594336468242425,7838871.095959596,8.212228509217172E8,0.004508948286616157,5272.3158009199105,704.7045454545455
org.sunflow.math.Vector3.normalize,1400000,8.671360201511335E-4,0.018449702556171284,48.18387909319899,2907.0931989924434,4.174959798488665E-5,1.0251889168765742,0.11838790931989925
