methodName,centroidNo,freqCounter,power,cache-misses
org.sunflow.core.renderer.BucketRenderer.renderBucket,0,2601000,17.141,2126310.500
org.sunflow.core.renderer.BucketRenderer.renderBucket,0,2400000,12.513,7309446.455
org.sunflow.core.renderer.BucketRenderer.renderBucket,0,2200000,11.297,3209377.211
org.sunflow.core.renderer.BucketRenderer.renderBucket,0,2000000,10.225,3037388.727
org.sunflow.core.renderer.BucketRenderer.renderBucket,0,1800000,9.248,2174937.909
org.sunflow.core.renderer.BucketRenderer.renderBucket,0,1600000,8.487,2097534.250
org.sunflow.core.renderer.BucketRenderer.renderBucket,0,1400000,7.912,1920298.912
org.sunflow.core.renderer.BucketRenderer.renderBucket,0,1200000,7.391,1074124.369
org.sunflow.core.renderer.BucketRenderer.renderBucket,1,2601000,17.273,1167173.559
org.sunflow.core.renderer.BucketRenderer.renderBucket,1,2400000,12.516,4186178.857
org.sunflow.core.renderer.BucketRenderer.renderBucket,1,2000000,10.228,2192148.917
org.sunflow.core.renderer.BucketRenderer.renderBucket,1,1800000,9.292,936977.663
org.sunflow.core.renderer.BucketRenderer.renderBucket,1,1600000,8.508,3496126.783
org.sunflow.core.renderer.BucketRenderer.renderBucket,1,1400000,7.925,3141295.000
org.sunflow.core.renderer.BucketRenderer.renderBucket,1,1200000,7.391,3578042.190
org.sunflow.core.renderer.BucketRenderer.renderBucket,2,2400000,12.521,1253942.550
org.sunflow.core.renderer.BucketRenderer.renderBucket,2,2000000,10.228,8098898.769
org.sunflow.core.renderer.BucketRenderer.renderBucket,2,1800000,9.308,1540114.826
org.sunflow.core.renderer.BucketRenderer.renderBucket,2,1600000,8.510,1080881.500
org.sunflow.core.renderer.BucketRenderer.renderBucket,2,1400000,7.927,1018044.762
org.sunflow.core.renderer.BucketRenderer.renderBucket,2,1200000,7.398,4735176.619
org.sunflow.core.renderer.BucketRenderer.renderBucket,3,2000000,10.232,1024315.591
org.sunflow.core.renderer.BucketRenderer.renderBucket,3,1800000,9.314,3140302.250
org.sunflow.core.renderer.BucketRenderer.renderBucket,3,1400000,7.930,4522275.182
org.sunflow.core.renderer.BucketRenderer.renderBucket,4,2000000,10.235,3971607.923
org.sunflow.core.renderer.BucketRenderer.renderBucket,4,1800000,9.334,4284411.591
org.sunflow.core.renderer.BucketRenderer.renderBucket,5,2000000,10.239,5738244.211
org.sunflow.core.renderer.BucketRenderer.renderBucket,6,2000000,10.252,1546903.000
