methodName,centroidNo,freqCounter,energy,PageFaultsByTime
org.sunflow.core.renderer.BucketRenderer.renderBucket,0,2601000,5.227,1.110
org.sunflow.core.renderer.BucketRenderer.renderBucket,0,2400000,4.254,0.780
org.sunflow.core.renderer.BucketRenderer.renderBucket,0,2200000,4.082,0.099
org.sunflow.core.renderer.BucketRenderer.renderBucket,0,2000000,4.726,0.988
org.sunflow.core.renderer.BucketRenderer.renderBucket,0,1800000,14.207,0.210
org.sunflow.core.renderer.BucketRenderer.renderBucket,0,1600000,3.664,0.082
org.sunflow.core.renderer.BucketRenderer.renderBucket,0,1400000,3.922,0.214
org.sunflow.core.renderer.BucketRenderer.renderBucket,0,1200000,4.049,0.006
org.sunflow.core.renderer.BucketRenderer.renderBucket,1,2601000,10.752,0.004
org.sunflow.core.renderer.BucketRenderer.renderBucket,1,2400000,5.559,0.303
org.sunflow.core.renderer.BucketRenderer.renderBucket,1,2200000,7.357,0.411
org.sunflow.core.renderer.BucketRenderer.renderBucket,1,2000000,9.015,0.324
org.sunflow.core.renderer.BucketRenderer.renderBucket,1,1600000,6.086,0.006
org.sunflow.core.renderer.BucketRenderer.renderBucket,1,1400000,8.020,0.010
org.sunflow.core.renderer.BucketRenderer.renderBucket,1,1200000,7.923,0.005
org.sunflow.core.renderer.BucketRenderer.renderBucket,2,2601000,22.254,0.005
org.sunflow.core.renderer.BucketRenderer.renderBucket,2,2400000,8.524,0.013
org.sunflow.core.renderer.BucketRenderer.renderBucket,2,2200000,11.541,0.151
org.sunflow.core.renderer.BucketRenderer.renderBucket,2,2000000,15.468,0.392
org.sunflow.core.renderer.BucketRenderer.renderBucket,2,1600000,12.653,0.005
org.sunflow.core.renderer.BucketRenderer.renderBucket,2,1400000,13.580,0.140
org.sunflow.core.renderer.BucketRenderer.renderBucket,2,1200000,13.063,0.325
org.sunflow.core.renderer.BucketRenderer.renderBucket,3,2400000,14.093,1.297
org.sunflow.core.renderer.BucketRenderer.renderBucket,3,2200000,18.617,0.208
org.sunflow.core.renderer.BucketRenderer.renderBucket,3,2000000,23.886,0.179
org.sunflow.core.renderer.BucketRenderer.renderBucket,3,1400000,33.476,0.059
org.sunflow.core.renderer.BucketRenderer.renderBucket,3,1200000,18.779,0.003
org.sunflow.core.renderer.BucketRenderer.renderBucket,4,2400000,22.739,0.342
org.sunflow.core.renderer.BucketRenderer.renderBucket,4,2200000,26.278,0.178
org.sunflow.core.renderer.BucketRenderer.renderBucket,4,2000000,36.324,0.317
org.sunflow.core.renderer.BucketRenderer.renderBucket,5,2400000,33.451,0.619
