methodName,centroidNo,freqCounter,energy,BranchMissRate
org.sunflow.core.renderer.BucketRenderer.renderBucket,0,2601000,5.263,0.009
org.sunflow.core.renderer.BucketRenderer.renderBucket,0,2400000,7.201,0.009
org.sunflow.core.renderer.BucketRenderer.renderBucket,0,2200000,4.991,0.009
org.sunflow.core.renderer.BucketRenderer.renderBucket,0,2000000,3.927,0.010
org.sunflow.core.renderer.BucketRenderer.renderBucket,0,1800000,4.086,0.009
org.sunflow.core.renderer.BucketRenderer.renderBucket,0,1600000,4.111,0.010
org.sunflow.core.renderer.BucketRenderer.renderBucket,0,1400000,3.321,0.009
org.sunflow.core.renderer.BucketRenderer.renderBucket,0,1200000,4.403,0.009
org.sunflow.core.renderer.BucketRenderer.renderBucket,1,2601000,7.455,0.011
org.sunflow.core.renderer.BucketRenderer.renderBucket,1,2400000,26.068,0.010
org.sunflow.core.renderer.BucketRenderer.renderBucket,1,2200000,17.552,0.009
org.sunflow.core.renderer.BucketRenderer.renderBucket,1,2000000,6.103,0.010
org.sunflow.core.renderer.BucketRenderer.renderBucket,1,1800000,6.774,0.009
org.sunflow.core.renderer.BucketRenderer.renderBucket,1,1600000,15.795,0.009
org.sunflow.core.renderer.BucketRenderer.renderBucket,1,1400000,4.543,0.009
org.sunflow.core.renderer.BucketRenderer.renderBucket,2,2601000,11.755,0.011
org.sunflow.core.renderer.BucketRenderer.renderBucket,2,2200000,31.927,0.010
org.sunflow.core.renderer.BucketRenderer.renderBucket,2,2000000,8.694,0.010
org.sunflow.core.renderer.BucketRenderer.renderBucket,2,1800000,13.768,0.009
org.sunflow.core.renderer.BucketRenderer.renderBucket,2,1600000,21.197,0.010
org.sunflow.core.renderer.BucketRenderer.renderBucket,2,1400000,15.893,0.009
org.sunflow.core.renderer.BucketRenderer.renderBucket,3,2601000,22.006,0.011
org.sunflow.core.renderer.BucketRenderer.renderBucket,3,2000000,13.216,0.010
org.sunflow.core.renderer.BucketRenderer.renderBucket,3,1400000,22.238,0.010
org.sunflow.core.renderer.BucketRenderer.renderBucket,4,2601000,37.732,0.012
org.sunflow.core.renderer.BucketRenderer.renderBucket,4,2000000,20.287,0.011
org.sunflow.core.renderer.BucketRenderer.renderBucket,5,2000000,32.066,0.011
org.sunflow.core.renderer.BucketRenderer.access$300,0,1800000,4.056,0.009
