methodName,centroidNo,freqCounter,power,CPUCyclesByTime
org.sunflow.core.renderer.BucketRenderer.renderBucket,0,2601000,17.292,10806928.384
org.sunflow.core.renderer.BucketRenderer.renderBucket,0,2400000,12.546,8631589.346
org.sunflow.core.renderer.BucketRenderer.renderBucket,0,2200000,11.369,7919228.113
org.sunflow.core.renderer.BucketRenderer.renderBucket,0,2000000,10.309,7223050.413
org.sunflow.core.renderer.BucketRenderer.renderBucket,0,1800000,9.338,6498565.981
org.sunflow.core.renderer.BucketRenderer.renderBucket,0,1600000,8.523,5780479.771
org.sunflow.core.renderer.BucketRenderer.renderBucket,0,1400000,8.004,5047329.030
org.sunflow.core.renderer.BucketRenderer.renderBucket,0,1200000,7.448,4341649.710
