methodName,centroidNo,freqCounter,power,cache-references
org.sunflow.core.renderer.BucketRenderer.renderBucket,0,2601000,17.230,15068796.275
org.sunflow.core.renderer.BucketRenderer.renderBucket,0,2400000,12.517,24059743.133
org.sunflow.core.renderer.BucketRenderer.renderBucket,0,2200000,11.297,20652901.798
org.sunflow.core.renderer.BucketRenderer.renderBucket,0,2000000,10.235,22705167.663
org.sunflow.core.renderer.BucketRenderer.renderBucket,0,1800000,9.307,18332142.930
org.sunflow.core.renderer.BucketRenderer.renderBucket,0,1600000,8.513,19797030.429
org.sunflow.core.renderer.BucketRenderer.renderBucket,0,1400000,7.929,19002561.118
org.sunflow.core.renderer.BucketRenderer.renderBucket,0,1200000,7.392,19564275.409
