methodName,centroidNo,freqCounter,power,cpu-clock
org.sunflow.core.renderer.BucketRenderer.renderBucket,0,2601000,17.262,1421572911.033
org.sunflow.core.renderer.BucketRenderer.renderBucket,0,2400000,12.525,3875430944.613
org.sunflow.core.renderer.BucketRenderer.renderBucket,0,2200000,11.330,4881208848.145
org.sunflow.core.renderer.BucketRenderer.renderBucket,0,2000000,10.291,5017673824.418
org.sunflow.core.renderer.BucketRenderer.renderBucket,0,1800000,9.283,4865858491.643
org.sunflow.core.renderer.BucketRenderer.renderBucket,0,1600000,8.470,5157579646.502
org.sunflow.core.renderer.BucketRenderer.renderBucket,0,1400000,7.958,6386854680.953
org.sunflow.core.renderer.BucketRenderer.renderBucket,0,1200000,7.443,4829680295.661
org.sunflow.core.renderer.BucketRenderer.renderBucket,1,1400000,9.240,4885713620.261
